graph combiner {
graph [label="SMEFT Run2", labelloc=t, fontsize=30];
layout=dot;
rankdir=LR;
ranksep=5;
subgraph cluster0 {
node [style=filled,color=white];
style=filled;
color=lightgrey;
HGam_Meas_Run2UID0 [label="Run2_incl_cHW_vs_cHWt"];
label="measurements";
}
subgraph cluster1 {
node [style=filled,color=white];
style=filled;
color=lightgrey;
cB;
cH;
cHB;
cHBt;
cHW;
cHWB;
cHWBt;
cHWt;
cT;
cW;
ca;
cat;
cg;
cgt;
mu;
label="parameters";
}
HGam_Meas_Run2UID0 -- cg[color=black];
HGam_Meas_Run2UID0 -- cgt[color=black];
HGam_Meas_Run2UID0 -- ca[color=black];
HGam_Meas_Run2UID0 -- cat[color=black];
HGam_Meas_Run2UID0 -- cH[color=black];
HGam_Meas_Run2UID0 -- cT[color=black];
HGam_Meas_Run2UID0 -- cB[color=black];
HGam_Meas_Run2UID0 -- cW[color=black];
HGam_Meas_Run2UID0 -- cHW[color=black];
HGam_Meas_Run2UID0 -- cHWt[color=black];
HGam_Meas_Run2UID0 -- cHB[color=black];
HGam_Meas_Run2UID0 -- cHBt[color=black];
HGam_Meas_Run2UID0 -- cHWB[color=black];
HGam_Meas_Run2UID0 -- cHWBt[color=black];
HGam_Meas_Run2UID0 -- mu[color=black];
}
