##### auto-generated by ParameterCache ####### 
##### printed on Thu Jul 22 09:15:08 2021 ######
# ParameterName                  value       errLow      errHigh

----- SOLUTION 0 -----
### FCN: 29.6091, EDM: 4.04792e-12
### COV quality: 3, status: 0, confirmed: yes
cB                            0.000000     1.000000    -1.000000
cH                            0.000000     1.000000    -1.000000
cHB                           0.000000     1.000000    -1.000000
cHBt                        -56.158211   -30.954794    30.954794
cHW                           0.000000     1.000000    -1.000000
cHWB                          0.000000     1.000000    -1.000000
cHWBt                         0.000000     1.000000    -1.000000
cHWt                          0.000000     1.000000    -1.000000
cT                            0.000000     1.000000    -1.000000
cW                            0.000000     1.000000    -1.000000
ca                            0.000000     1.000000    -1.000000
cat                           0.000000     1.000000    -1.000000
cg                            0.000000     1.000000    -1.000000
cgt                           0.000000     1.000000    -1.000000
mu                            1.000000     1.000000    -1.000000
