##### auto-generated by ParameterCache ####### 
##### printed on Tue Jun 22 11:31:20 2021 ######
# ParameterName                  value       errLow      errHigh

----- SOLUTION 0 -----
### FCN: 0.79326, EDM: 8.4112e-11
### COV quality: 3, status: 0, confirmed: yes
cB                            0.000000     1.000000    -1.000000
cH                            0.000000     1.000000    -1.000000
cHB                           0.000000     1.000000    -1.000000
cHBt                          0.000000     1.000000    -1.000000
cHW                           0.000000     1.000000    -1.000000
cHWB                          0.000000    -0.000211     0.000211
cHWBt                         0.000000     1.000000    -1.000000
cHWt                          0.000000     1.000000    -1.000000
cT                            0.000000     1.000000    -1.000000
cW                            0.000000     1.000000    -1.000000
ca                            0.000000     1.000000    -1.000000
cat                           0.000000     1.000000    -1.000000
cg                            0.000000     1.000000    -1.000000
cgt                           0.000000     1.000000    -1.000000
mu                            1.000000     1.000000    -1.000000
