ProfVersion: 2.2.1
Date: 2017-06-13 21:41:59
DataFormat: binned 2
ParamNames: cHW tcHW
Dimension: 2
MinParamVals: -0.250000 -0.500000
MaxParamVals: 0.250000 0.500000
DoParamScaling: 1
NumInputs: 25
Runs: 460000 460001 460002 460003 460004 460005 460006 460007 460008 460009 460010 460011 460012 460013 460014 460015 460016 460017 460018 460019 460020 460021 460022 460023 460024
---
/HiggsDiphotonDifferentialCrossSection2016/pT_yy#0 0.00000e+00 2.00000e+01
  val: 2 2 0.0247844 -0.0678911 0.06726 0.000242748 0.000679714 0.00909893 
  err: 2 0 9.80168e-05 
/HiggsDiphotonDifferentialCrossSection2016/pT_yy#1 2.00000e+01 3.00000e+01
  val: 2 2 0.0587911 -0.162141 0.162236 -0.00210595 -4.33904e-05 0.0224102 
  err: 2 0 0.000205061 
/HiggsDiphotonDifferentialCrossSection2016/pT_yy#2 3.00000e+01 4.50000e+01
  val: 2 2 0.0877025 -0.24577 0.244032 -0.01929 0.00205538 0.0438182 
  err: 2 0 0.000188101 
/HiggsDiphotonDifferentialCrossSection2016/pT_yy#3 4.50000e+01 6.00000e+01
  val: 2 2 0.114752 -0.319293 0.316741 -0.0352152 0.00460909 0.0588317 
  err: 2 0 0.000199981 
/HiggsDiphotonDifferentialCrossSection2016/pT_yy#4 6.00000e+01 8.00000e+01
  val: 2 2 0.142551 -0.381949 0.382618 -0.0791097 -0.000292024 0.0989267 
  err: 2 0 0.000172732 
/HiggsDiphotonDifferentialCrossSection2016/pT_yy#5 8.00000e+01 1.20000e+02
  val: 2 2 0.170876 -0.426808 0.426537 -0.169364 0.000984924 0.179176 
  err: 2 0 0.00010693 
/HiggsDiphotonDifferentialCrossSection2016/pT_yy#6 1.20000e+02 1.70000e+02
  val: 2 2 0.199094 -0.434943 0.4356 -0.307916 -0.000866474 0.310564 
  err: 2 0 7.17321e-05 
/HiggsDiphotonDifferentialCrossSection2016/pT_yy#7 1.70000e+02 2.20000e+02
  val: 2 2 0.214702 -0.401925 0.402732 -0.433302 -0.00152451 0.434668 
  err: 2 0 5.00018e-05 
/HiggsDiphotonDifferentialCrossSection2016/pT_yy#8 2.20000e+02 3.50000e+02
  val: 2 2 0.196698 -0.276996 0.276995 -0.504848 -0.00014114 0.508446 
  err: 2 0 1.70496e-05 
/HiggsDiphotonDifferentialCrossSection2016/pT_yy#9 3.50000e+02 5.00000e+02
  val: 2 2 0.288098 -0.233144 0.232638 -0.918571 0.00169414 0.919475 
  err: 2 0 7.08891e-06 
/HiggsDiphotonDifferentialCrossSection2016/N_j_30#0 0.00000e+00 1.00000e+00
  val: 2 2 13.3176 -17.1109 17.1176 -37.324 0.00651872 40.0455 
  err: 2 0 0.0027093 
/HiggsDiphotonDifferentialCrossSection2016/N_j_30#1 1.00000e+00 2.00000e+00
  val: 2 2 18.0125 -24.3969 24.39 -44.7186 -0.0459933 46.1852 
  err: 2 0 0.00451432 
/HiggsDiphotonDifferentialCrossSection2016/N_j_30#2 2.00000e+00 3.00000e+00
  val: 2 2 41.2934 -61.6781 61.5785 -95.037 0.318578 94.4782 
  err: 2 0 0.00611748 
/HiggsDiphotonDifferentialCrossSection2016/N_j_30#3 3.00000e+00 9.99900e+03
  val: 2 2 0.00306704 -0.00458236 0.00458469 -0.00726168 -1.61956e-06 0.00716921 
  err: 2 0 3.9068e-07 
/HiggsDiphotonDifferentialCrossSection2016/m_jj_30#0 0.00000e+00 1.70000e+02
  val: 2 2 0.170522 -0.253206 0.252294 -0.446756 0.00154019 0.480735 
  err: 2 0 2.12e-05 
/HiggsDiphotonDifferentialCrossSection2016/m_jj_30#1 1.70000e+02 5.00000e+02
  val: 2 2 0.0534925 -0.086993 0.0872463 -0.112042 1.25435e-05 0.107388 
  err: 2 0 1.22227e-05 
/HiggsDiphotonDifferentialCrossSection2016/m_jj_30#2 5.00000e+02 1.50000e+03
  val: 2 2 0.018969 -0.0273882 0.0273286 -0.0403489 0.000125266 0.0361994 
  err: 2 0 4.29307e-06 
/HiggsDiphotonDifferentialCrossSection2016/m_jj_30#3 1.50000e+03 2.00000e+03
  val: 2 2 0.0126826 -0.0166848 0.0167946 -0.0287068 -0.000177689 0.0255587 
  err: 2 0 4.46584e-06     
/HiggsDiphotonDifferentialCrossSection2016/Dphi_j_j_30#0 0.00000e+00 1.04720e+00
  val: 2 2 18.2955 -20.9535 20.924 -50.9256 0.059846 51.2575 
  err: 2 0 0.00267604 
/HiggsDiphotonDifferentialCrossSection2016/Dphi_j_j_30#1 1.04720e+00 2.09440e+00
  val: 2 2 9.49451 -18.2966 18.3441 -17.2486 -0.079668 16.5263 
  err: 2 0 0.00274173 
/HiggsDiphotonDifferentialCrossSection2016/Dphi_j_j_30#2 2.09440e+00 3.15000e+00
  val: 2 2 6.54061 -12.0175 11.9828 -11.7376 0.0981202 11.3799 
  err: 2 0 0.00303118 
/HiggsDiphotonDifferentialCrossSection2016/pT_j1_30#0 3.00000e+01 5.50000e+01
  val: 2 2 0.278604 -0.459638 0.461705 -0.557777 -0.00439015 0.610564 
  err: 2 0 0.00016734 
/HiggsDiphotonDifferentialCrossSection2016/pT_j1_30#1 5.50000e+01 7.50000e+01
  val: 2 2 0.28666 -0.530535 0.532729 -0.479435 -0.00404514 0.509963 
  err: 2 0 0.000195223 
/HiggsDiphotonDifferentialCrossSection2016/pT_j1_30#2 7.50000e+01 1.20000e+02
  val: 2 2 0.287103 -0.517048 0.515346 -0.529667 0.00239685 0.532355 
  err: 2 0 0.000104121 
/HiggsDiphotonDifferentialCrossSection2016/pT_j1_30#3 1.20000e+02 3.50000e+02
  val: 2 2 0.184812 -0.274876 0.274619 -0.44251 0.000721809 0.436939 
  err: 2 0 1.82596e-05 
/HiggsDiphotonDifferentialCrossSection2016/pT_j1_30#4 3.50000e+02 5.00000e+02
  val: 2 2 0.145596 -0.155267 0.154979 -0.42132 0.00115451 0.416076 
  err: 2 0 5.64151e-06     