ProfVersion: 2.2.1
Date: 2021-02-14 20:43:47
DataFormat: binned 2
ParamNames: tCHWB
Dimension: 1
MinParamVals: -0.005000
MaxParamVals: 0.005000
DoParamScaling: 1
NumInputs: 6
Runs: 0 1 2 3 4 5
---
/HiggsDiphotonDifferentialCrossSection2016/Dphi_j_j_30#0 0.00000e+00 1.04720e+00
  val: 1 1 0.3234258 0.0
  err: 1 0 1.42993e-07
/HiggsDiphotonDifferentialCrossSection2016/Dphi_j_j_30#1 1.04720e+00 2.09440e+00
  val: 1 1 0.3454814 0.0
  err: 1 0 1.69494e-07
/HiggsDiphotonDifferentialCrossSection2016/Dphi_j_j_30#2 2.09440e+00 3.15000e+00
  val: 1 1 0.4225792 0.0
  err: 1 0 1.41537e-07
/HiggsDiphotonDifferentialCrossSection2016/Dphi_j_j_30_signed#0 -3.15000e+00 -1.57080e+00
  val: 1 1 0.3023023 0.0
  err: 1 0 8.74091e-08
/HiggsDiphotonDifferentialCrossSection2016/Dphi_j_j_30_signed#1 -1.57080e+00 0.00000e+00
  val: 1 1 0.2445485 0.0
  err: 1 0 8.76788e-08
/HiggsDiphotonDifferentialCrossSection2016/Dphi_j_j_30_signed#2 0.00000e+00 1.57080e+00
  val: 1 1 0.2446454 0.0
  err: 1 0 8.77194e-08
/HiggsDiphotonDifferentialCrossSection2016/Dphi_j_j_30_signed#3 1.57080e+00 3.15000e+00
  val: 1 1 0.2999902 0.0
  err: 1 0 8.78362e-08
/HiggsDiphotonDifferentialCrossSection2016/N_j_50#0 0.00000e+00 1.00000e+00
  val: 1 1 0.4345149 0.0
  err: 1 0 1.45254e-07
/HiggsDiphotonDifferentialCrossSection2016/N_j_50#1 1.00000e+00 2.00000e+00
  val: 1 1 0.655071 0.0
  err: 1 0 2.05559e-07
/HiggsDiphotonDifferentialCrossSection2016/N_j_50#2 2.00000e+00 3.00000e+00
  val: 1 1 0.5739785 0.0
  err: 1 0 2.12893e-07
/HiggsDiphotonDifferentialCrossSection2016/N_j_30#0 0.00000e+00 1.00000e+00
  val: 1 1 0.1530577 0.0
  err: 1 0 8.73002e-08
/HiggsDiphotonDifferentialCrossSection2016/N_j_30#1 1.00000e+00 2.00000e+00
  val: 1 1 0.4190203 0.0
  err: 1 0 1.57499e-07
/HiggsDiphotonDifferentialCrossSection2016/N_j_30#2 2.00000e+00 3.00000e+00
  val: 1 1 0.7488497 0.0
  err: 1 0 2.21522e-07
/HiggsDiphotonDifferentialCrossSection2016/N_j_30#3 3.00000e+00 4.00000e+00
  val: 1 1 0.3426367 0.0
  err: 1 0 1.64855e-07
/HiggsDiphotonDifferentialCrossSection2016/incl_N_j_30#0 0.00000e+00 1.00000e+00
  val: 1 1 1.663564 0.0
  err: 1 0 3.29661e-07
/HiggsDiphotonDifferentialCrossSection2016/incl_N_j_30#1 1.00000e+00 2.00000e+00
  val: 1 1 1.510507 0.0
  err: 1 0 3.17892e-07
/HiggsDiphotonDifferentialCrossSection2016/incl_N_j_30#2 2.00000e+00 3.00000e+00
  val: 1 1 1.091486 0.0
  err: 1 0 2.76132e-07
/HiggsDiphotonDifferentialCrossSection2016/incl_N_j_30#3 3.00000e+00 4.00000e+00
  val: 1 1 0.3426367 0.0
  err: 1 0 1.64855e-07
/HiggsDiphotonDifferentialCrossSection2016/inclusive#0 0.00000e+00 1.00000e+00
  val: 1 1 3.631549 0.0
  err: 1 0 4.79026e-07
/HiggsDiphotonDifferentialCrossSection2016/inclusive#1 1.00000e+00 2.00000e+00
  val: 1 1 1.663564 0.0
  err: 1 0 3.29661e-07
/HiggsDiphotonDifferentialCrossSection2016/m_jj_30#0 0.00000e+00 1.20000e+02
  val: 1 1 0.2039357 0.0
  err: 1 0 9.94104e-10
/HiggsDiphotonDifferentialCrossSection2016/m_jj_30#1 1.20000e+02 4.50000e+02
  val: 1 1 0.3713017 0.0
  err: 1 0 4.74125e-10
/HiggsDiphotonDifferentialCrossSection2016/m_jj_30#2 4.50000e+02 3.00000e+03
  val: 1 1 0.5068311 0.0
  err: 1 0 7.49689e-11
/HiggsDiphotonDifferentialCrossSection2016/m_jj_30#3 3.00000e+03 9.99990e+04
  val: 1 1 0.009417818 0.0
  err: 1 0 3.24714e-13
/HiggsDiphotonDifferentialCrossSection2016/m_jj_30_of#0 0.00000e+00 1.70000e+02
  val: 1 1 0.2713252 0.0
  err: 1 0 6.96954e-10
/HiggsDiphotonDifferentialCrossSection2016/m_jj_30_of#1 1.70000e+02 5.00000e+02
  val: 1 1 0.3450456 0.0
  err: 1 0 3.97991e-10
/HiggsDiphotonDifferentialCrossSection2016/m_jj_30_of#2 5.00000e+02 1.50000e+03
  val: 1 1 0.3786374 0.0
  err: 1 0 1.41886e-10
/HiggsDiphotonDifferentialCrossSection2016/m_jj_30_of#3 1.50000e+03 9.99990e+04
  val: 1 1 0.09647816 0.0
  err: 1 0 7.9607e-13
/HiggsDiphotonDifferentialCrossSection2016/pT_j1_30#0 3.00000e+01 6.00000e+01
  val: 1 1 0.4468864 0.0
  err: 1 0 4.92696e-09
/HiggsDiphotonDifferentialCrossSection2016/pT_j1_30#1 6.00000e+01 9.00000e+01
  val: 1 1 0.419444 0.0
  err: 1 0 5.0645e-09
/HiggsDiphotonDifferentialCrossSection2016/pT_j1_30#2 9.00000e+01 1.20000e+02
  val: 1 1 0.2617863 0.0
  err: 1 0 4.37007e-09
/HiggsDiphotonDifferentialCrossSection2016/pT_j1_30#3 1.20000e+02 3.50000e+02
  val: 1 1 0.366847 0.0
  err: 1 0 8.15778e-10
/HiggsDiphotonDifferentialCrossSection2016/pT_j1_30#4 3.50000e+02 9.99990e+04
  val: 1 1 0.01554303 0.0
  err: 1 0 6.1298e-13
/HiggsDiphotonDifferentialCrossSection2016/pT_j1_30_of#0 3.00000e+01 5.50000e+01
  val: 1 1 0.3652733 0.0
  err: 1 0 4.60651e-09
/HiggsDiphotonDifferentialCrossSection2016/pT_j1_30_of#1 5.50000e+01 7.50000e+01
  val: 1 1 0.3108848 0.0
  err: 1 0 5.5743e-09
/HiggsDiphotonDifferentialCrossSection2016/pT_j1_30_of#2 7.50000e+01 1.20000e+02
  val: 1 1 0.4519584 0.0
  err: 1 0 3.23622e-09
/HiggsDiphotonDifferentialCrossSection2016/pT_j1_30_of#3 1.20000e+02 3.50000e+02
  val: 1 1 0.366847 0.0
  err: 1 0 7.08832e-10
/HiggsDiphotonDifferentialCrossSection2016/pT_j1_30_of#4 3.50000e+02 1.00000e+03
  val: 1 1 0.0154583 0.0
  err: 1 0 8.099e-11
/HiggsDiphotonDifferentialCrossSection2016/pT_yy#0 0.00000e+00 5.00000e+00
  val: 1 1 0.005386798 0.0
  err: 1 0 1.35489e-09
/HiggsDiphotonDifferentialCrossSection2016/pT_yy#1 5.00000e+00 1.00000e+01
  val: 1 1 0.01517988 0.0
  err: 1 0 2.80956e-09
/HiggsDiphotonDifferentialCrossSection2016/pT_yy#2 1.00000e+01 1.50000e+01
  val: 1 1 0.02509401 0.0
  err: 1 0 4.23426e-09
/HiggsDiphotonDifferentialCrossSection2016/pT_yy#3 1.50000e+01 2.00000e+01
  val: 1 1 0.03343446 0.0
  err: 1 0 5.41108e-09
/HiggsDiphotonDifferentialCrossSection2016/pT_yy#4 2.00000e+01 2.50000e+01
  val: 1 1 0.04106072 0.0
  err: 1 0 6.66058e-09
/HiggsDiphotonDifferentialCrossSection2016/pT_yy#5 2.50000e+01 3.00000e+01
  val: 1 1 0.04718593 0.0
  err: 1 0 7.48875e-09
/HiggsDiphotonDifferentialCrossSection2016/pT_yy#6 3.00000e+01 3.50000e+01
  val: 1 1 0.05090222 0.0
  err: 1 0 8.55299e-09
/HiggsDiphotonDifferentialCrossSection2016/pT_yy#7 3.50000e+01 4.50000e+01
  val: 1 1 0.1122754 0.0
  err: 1 0 6.90362e-09
/HiggsDiphotonDifferentialCrossSection2016/pT_yy#8 4.50000e+01 6.00000e+01
  val: 1 1 0.1842285 0.0
  err: 1 0 6.40588e-09
/HiggsDiphotonDifferentialCrossSection2016/pT_yy#9 6.00000e+01 8.00000e+01
  val: 1 1 0.248059 0.0
  err: 1 0 5.86912e-09
/HiggsDiphotonDifferentialCrossSection2016/pT_yy#10 8.00000e+01 1.00000e+02
  val: 1 1 0.2131235 0.0
  err: 1 0 5.65508e-09
/HiggsDiphotonDifferentialCrossSection2016/pT_yy#11 1.00000e+02 1.20000e+02
  val: 1 1 0.1645334 0.0
  err: 1 0 5.18754e-09
/HiggsDiphotonDifferentialCrossSection2016/pT_yy#12 1.20000e+02 1.40000e+02
  val: 1 1 0.1294526 0.0
  err: 1 0 4.82803e-09
/HiggsDiphotonDifferentialCrossSection2016/pT_yy#13 1.40000e+02 1.70000e+02
  val: 1 1 0.1380594 0.0
  err: 1 0 3.4787e-09
/HiggsDiphotonDifferentialCrossSection2016/pT_yy#14 1.70000e+02 2.00000e+02
  val: 1 1 0.08875507 0.0
  err: 1 0 3.00653e-09
/HiggsDiphotonDifferentialCrossSection2016/pT_yy#15 2.00000e+02 2.50000e+02
  val: 1 1 0.08267827 0.0
  err: 1 0 1.88658e-09
/HiggsDiphotonDifferentialCrossSection2016/pT_yy#16 2.50000e+02 3.00000e+02
  val: 1 1 0.0400681 0.0
  err: 1 0 1.46062e-09
/HiggsDiphotonDifferentialCrossSection2016/pT_yy#17 3.00000e+02 4.50000e+02
  val: 1 1 0.03709022 0.0
  err: 1 0 5.38526e-10
/HiggsDiphotonDifferentialCrossSection2016/pT_yy#18 4.50000e+02 6.50000e+02
  val: 1 1 0.005762058 0.0
  err: 1 0 2.1746e-10
/HiggsDiphotonDifferentialCrossSection2016/pT_yy#19 6.50000e+02 1.00000e+03
  val: 1 1 0.001198411 0.0
  err: 1 0 6.40003e-11
/HiggsDiphotonDifferentialCrossSection2016/pT_yy_fine#0 0.00000e+00 5.00000e+00
  val: 1 1 0.005386798 0.0
  err: 1 0 1.17727e-09
/HiggsDiphotonDifferentialCrossSection2016/pT_yy_fine#1 5.00000e+00 1.00000e+01
  val: 1 1 0.01517988 0.0
  err: 1 0 2.44123e-09
/HiggsDiphotonDifferentialCrossSection2016/pT_yy_fine#2 1.00000e+01 1.50000e+01
  val: 1 1 0.02509401 0.0
  err: 1 0 3.67915e-09
/HiggsDiphotonDifferentialCrossSection2016/pT_yy_fine#3 1.50000e+01 2.00000e+01
  val: 1 1 0.03343446 0.0
  err: 1 0 4.7017e-09
/HiggsDiphotonDifferentialCrossSection2016/pT_yy_fine#4 2.00000e+01 2.50000e+01
  val: 1 1 0.04106072 0.0
  err: 1 0 5.7874e-09
/HiggsDiphotonDifferentialCrossSection2016/pT_yy_fine#5 2.50000e+01 3.00000e+01
  val: 1 1 0.04718593 0.0
  err: 1 0 6.507e-09
/HiggsDiphotonDifferentialCrossSection2016/pT_yy_fine#6 3.00000e+01 3.50000e+01
  val: 1 1 0.05090222 0.0
  err: 1 0 7.43172e-09
/HiggsDiphotonDifferentialCrossSection2016/pT_yy_fine#7 3.50000e+01 4.50000e+01
  val: 1 1 0.1122754 0.0
  err: 1 0 5.99858e-09
/HiggsDiphotonDifferentialCrossSection2016/pT_yy_fine#8 4.50000e+01 6.00000e+01
  val: 1 1 0.1842285 0.0
  err: 1 0 5.56608e-09
/HiggsDiphotonDifferentialCrossSection2016/pT_yy_fine#9 6.00000e+01 8.00000e+01
  val: 1 1 0.248059 0.0
  err: 1 0 5.0997e-09
/HiggsDiphotonDifferentialCrossSection2016/pT_yy_fine#10 8.00000e+01 1.00000e+02
  val: 1 1 0.2131235 0.0
  err: 1 0 4.91371e-09
/HiggsDiphotonDifferentialCrossSection2016/pT_yy_fine#11 1.00000e+02 1.20000e+02
  val: 1 1 0.1645334 0.0
  err: 1 0 4.50747e-09
/HiggsDiphotonDifferentialCrossSection2016/pT_yy_fine#12 1.20000e+02 1.40000e+02
  val: 1 1 0.1294526 0.0
  err: 1 0 4.19509e-09
/HiggsDiphotonDifferentialCrossSection2016/pT_yy_fine#13 1.40000e+02 1.70000e+02
  val: 1 1 0.1380594 0.0
  err: 1 0 3.02265e-09
/HiggsDiphotonDifferentialCrossSection2016/pT_yy_fine#14 1.70000e+02 2.00000e+02
  val: 1 1 0.08875507 0.0
  err: 1 0 2.61238e-09
/HiggsDiphotonDifferentialCrossSection2016/pT_yy_fine#15 2.00000e+02 2.50000e+02
  val: 1 1 0.08267827 0.0
  err: 1 0 1.63925e-09
/HiggsDiphotonDifferentialCrossSection2016/pT_yy_fine#16 2.50000e+02 3.50000e+02
  val: 1 1 0.06028372 0.0
  err: 1 0 8.04908e-10
/HiggsDiphotonDifferentialCrossSection2016/pT_yy_fine#17 3.50000e+02 9.99900e+03
  val: 1 1 0.02387138 0.0
  err: 1 0 6.82825e-12
/HiggsDiphotonDifferentialCrossSection2016/yAbs_yy#0 0.00000e+00 1.50000e-01
  val: 1 1 0.1699081 0.0
  err: 1 0 7.10534e-07
/HiggsDiphotonDifferentialCrossSection2016/yAbs_yy#1 1.50000e-01 3.00000e-01
  val: 1 1 0.1654534 0.0
  err: 1 0 7.05083e-07
/HiggsDiphotonDifferentialCrossSection2016/yAbs_yy#2 3.00000e-01 4.50000e-01
  val: 1 1 0.1602482 0.0
  err: 1 0 6.93341e-07
/HiggsDiphotonDifferentialCrossSection2016/yAbs_yy#3 4.50000e-01 6.00000e-01
  val: 1 1 0.1557087 0.0
  err: 1 0 6.78623e-07
/HiggsDiphotonDifferentialCrossSection2016/yAbs_yy#4 6.00000e-01 7.50000e-01
  val: 1 1 0.1484335 0.0
  err: 1 0 6.57686e-07
/HiggsDiphotonDifferentialCrossSection2016/yAbs_yy#5 7.50000e-01 9.00000e-01
  val: 1 1 0.1418967 0.0
  err: 1 0 6.33759e-07
/HiggsDiphotonDifferentialCrossSection2016/yAbs_yy#6 9.00000e-01 1.20000e+00
  val: 1 1 0.2443791 0.0
  err: 1 0 4.23897e-07
/HiggsDiphotonDifferentialCrossSection2016/yAbs_yy#7 1.20000e+00 1.60000e+00
  val: 1 1 0.256569 0.0
  err: 1 0 3.16468e-07
/HiggsDiphotonDifferentialCrossSection2016/yAbs_yy#8 1.60000e+00 2.40000e+00
  val: 1 1 0.2209677 0.0
  err: 1 0 1.47836e-07
