300001 -0.00180000 0.00000 
300002 -0.00060000 0.00000 
300003 0.00060000 0.00000 
300004 0.00180000 0.00000
300006 0.00420000 0.00000
300007 0.00540000 0.00000
300008 0.00660000 0.00000
300009 0.00780000 0.00000
300010 0.00900000 0.00000 