300011 -0.00500000
# 300012 -0.00400000
300013 -0.00300000
300014 -0.00200000
300015 -0.00100000
# 300016 0.00000000
300017 0.00100000
300018 0.00200000
300019 0.00300000
300020 0.00400000
300021 0.00500000
# 300011 0.00500000
# 300013 0.00300000
# 300014 0.00200000
# 300015 0.00100000
# 300017 -0.00100000
# 300018 -0.00200000
# 300019 -0.00300000
# 300020 -0.00400000
# 300021 -0.00500000