300011 0.0 -0.00500000 0.0 0.0 0.0 0.0 0.0 0.0 0.0 0.0 0.0 0.0 
300012 0.0 -0.00400000 0.0 0.0 0.0 0.0 0.0 0.0 0.0 0.0 0.0 0.0 
300013 0.0 -0.00300000 0.0 0.0 0.0 0.0 0.0 0.0 0.0 0.0 0.0 0.0 
300014 0.0 -0.00200000 0.0 0.0 0.0 0.0 0.0 0.0 0.0 0.0 0.0 0.0 
300015 0.0 -0.00100000 0.0 0.0 0.0 0.0 0.0 0.0 0.0 0.0 0.0 0.0 
300016 0.0 0.00000000 0.0 0.0 0.0 0.0 0.0 0.0 0.0 0.0 0.0 0.0 
300017 0.0 0.00100000 0.0 0.0 0.0 0.0 0.0 0.0 0.0 0.0 0.0 0.0 
300018 0.0 0.00200000 0.0 0.0 0.0 0.0 0.0 0.0 0.0 0.0 0.0 0.0 
300019 0.0 0.00300000 0.0 0.0 0.0 0.0 0.0 0.0 0.0 0.0 0.0 0.0 
300020 0.0 0.00400000 0.0 0.0 0.0 0.0 0.0 0.0 0.0 0.0 0.0 0.0 
300021 0.0 0.00500000 0.0 0.0 0.0 0.0 0.0 0.0 0.0 0.0 0.0 0.0 