ProfVersion: 2.2.1
Date: 2019-05-01 08:04:44
DataFormat: binned 2
ParamNames: cHWB
Dimension: 1
MinParamVals: -0.500000
MaxParamVals: 0.500000
DoParamScaling: 1
NumInputs: 6
Runs: 32000 32001 32002 32003 32004 32005
---
/HiggsDiphotonDifferentialCrossSection2016/Dphi_j_j_30#0 0.00000e+00 1.04720e+00
  val: 1 2 0.305707 0.0604209 -0.112245
  err: 1 0 0.00137811
/HiggsDiphotonDifferentialCrossSection2016/Dphi_j_j_30#1 1.04720e+00 2.09440e+00
  val: 1 2 0.324564 0.0797365 -0.135071
  err: 1 0 0.00143556
/HiggsDiphotonDifferentialCrossSection2016/Dphi_j_j_30#2 2.09440e+00 3.15000e+00
  val: 1 2 0.395942 0.0793646 -0.143857
  err: 1 0 0.00156718
/HiggsDiphotonDifferentialCrossSection2016/Dphi_j_j_30_signed#0 -3.15000e+00 -1.57080e+00
  val: 1 2 0.188405 0.0380099 -0.06784
  err: 1 0 0.000887526
/HiggsDiphotonDifferentialCrossSection2016/Dphi_j_j_30_signed#1 -1.57080e+00 0.00000e+00
  val: 1 2 0.154444 0.0298551 -0.0565949
  err: 1 0 0.000800917
/HiggsDiphotonDifferentialCrossSection2016/Dphi_j_j_30_signed#2 0.00000e+00 1.57080e+00
  val: 1 2 0.153394 0.0342249 -0.0596136
  err: 1 0 0.000801098
/HiggsDiphotonDifferentialCrossSection2016/Dphi_j_j_30_signed#3 1.57080e+00 3.15000e+00
  val: 1 2 0.188004 0.044243 -0.0767294
  err: 1 0 0.000883973
/HiggsDiphotonDifferentialCrossSection2016/N_j_50#0 0.00000e+00 1.00000e+00
  val: 1 2 0.35882 0.120249 -0.165403
  err: 1 0 0.00157327
/HiggsDiphotonDifferentialCrossSection2016/N_j_50#1 1.00000e+00 2.00000e+00
  val: 1 2 0.560808 0.131823 -0.217244
  err: 1 0 0.00192767
/HiggsDiphotonDifferentialCrossSection2016/N_j_50#2 2.00000e+00 3.00000e+00
  val: 1 2 0.503484 0.0883833 -0.181731
  err: 1 0 0.00180369
/HiggsDiphotonDifferentialCrossSection2016/N_j_30#0 0.00000e+00 1.00000e+00
  val: 1 2 0.0894022 0.0347384 -0.0455026
  err: 1 0 0.000793961
/HiggsDiphotonDifferentialCrossSection2016/N_j_30#1 1.00000e+00 2.00000e+00
  val: 1 2 0.255734 0.0751664 -0.108031
  err: 1 0 0.00131705
/HiggsDiphotonDifferentialCrossSection2016/N_j_30#2 2.00000e+00 3.00000e+00
  val: 1 2 0.675152 0.153273 -0.262429
  err: 1 0 0.00211186
/HiggsDiphotonDifferentialCrossSection2016/N_j_30#3 3.00000e+00 4.00000e+00
  val: 1 2 0.402823 0.0772774 -0.148415
  err: 1 0 0.00161847
/HiggsDiphotonDifferentialCrossSection2016/incl_N_j_30#0 0.00000e+00 1.00000e+00
  val: 1 2 1.42311 0.340454 -0.564377
  err: 1 0 0.00307317
/HiggsDiphotonDifferentialCrossSection2016/incl_N_j_30#1 1.00000e+00 2.00000e+00
  val: 1 2 1.33371 0.305717 -0.518876
  err: 1 0 0.00296884
/HiggsDiphotonDifferentialCrossSection2016/incl_N_j_30#2 2.00000e+00 3.00000e+00
  val: 1 2 1.07798 0.230551 -0.410845
  err: 1 0 0.00266072
/HiggsDiphotonDifferentialCrossSection2016/incl_N_j_30#3 3.00000e+00 4.00000e+00
  val: 1 2 0.402823 0.0772774 -0.148415
  err: 1 0 0.00161847
/HiggsDiphotonDifferentialCrossSection2016/m_jj_30#0 0.00000e+00 1.70000e+02
  val: 1 2 0.0016742 0.000477722 -0.000765656
  err: 1 0 8.11037e-06
/HiggsDiphotonDifferentialCrossSection2016/m_jj_30#1 1.70000e+02 5.00000e+02
  val: 1 2 0.00103633 0.000207589 -0.000379661
  err: 1 0 4.52366e-06
/HiggsDiphotonDifferentialCrossSection2016/m_jj_30#2 5.00000e+02 1.50000e+03
  val: 1 2 0.000360873 6.6508e-05 -0.000125834
  err: 1 0 1.53905e-06
/HiggsDiphotonDifferentialCrossSection2016/m_jj_30_of#0 0.00000e+00 1.70000e+02
  val: 1 2 0.0016742 0.000477722 -0.000765656
  err: 1 0 8.11037e-06
/HiggsDiphotonDifferentialCrossSection2016/m_jj_30_of#1 1.70000e+02 5.00000e+02
  val: 1 2 0.00103633 0.000207589 -0.000379661
  err: 1 0 4.52366e-06
/HiggsDiphotonDifferentialCrossSection2016/m_jj_30_of#2 5.00000e+02 1.50000e+03
  val: 1 2 0.000360873 6.6508e-05 -0.000125834
  err: 1 0 1.53905e-06
/HiggsDiphotonDifferentialCrossSection2016/m_jj_30_of#3 1.50000e+03 9.99990e+04
  val: 1 2 9.18797e-07 1.4543e-07 -3.00102e-07
  err: 1 0 7.74042e-09
/HiggsDiphotonDifferentialCrossSection2016/pT_j1_30#0 3.00000e+01 5.50000e+01
  val: 1 2 0.0122173 0.00374756 -0.00534661
  err: 1 0 5.76894e-05
/HiggsDiphotonDifferentialCrossSection2016/pT_j1_30#1 5.50000e+01 7.50000e+01
  val: 1 2 0.0133783 0.00341238 -0.00542539
  err: 1 0 6.69172e-05
/HiggsDiphotonDifferentialCrossSection2016/pT_j1_30#2 7.50000e+01 1.20000e+02
  val: 1 2 0.00872791 0.0018014 -0.00328021
  err: 1 0 3.56236e-05
/HiggsDiphotonDifferentialCrossSection2016/pT_j1_30#3 1.20000e+02 3.50000e+02
  val: 1 2 0.00139299 0.000212732 -0.000478059
  err: 1 0 6.21781e-06
/HiggsDiphotonDifferentialCrossSection2016/pT_j1_30_of#0 3.00000e+01 5.50000e+01
  val: 1 2 0.0122173 0.00374756 -0.00534661
  err: 1 0 5.76894e-05
/HiggsDiphotonDifferentialCrossSection2016/pT_j1_30_of#1 5.50000e+01 7.50000e+01
  val: 1 2 0.0133783 0.00341238 -0.00542539
  err: 1 0 6.69172e-05
/HiggsDiphotonDifferentialCrossSection2016/pT_j1_30_of#2 7.50000e+01 1.20000e+02
  val: 1 2 0.00872791 0.0018014 -0.00328021
  err: 1 0 3.56236e-05
/HiggsDiphotonDifferentialCrossSection2016/pT_j1_30_of#3 1.20000e+02 3.50000e+02
  val: 1 2 0.00139299 0.000212732 -0.000478059
  err: 1 0 6.21781e-06
/HiggsDiphotonDifferentialCrossSection2016/pT_j1_30_of#4 3.50000e+02 1.00000e+03
  val: 1 2 2.11804e-05 -1.92956e-07 -3.12499e-06
  err: 1 0 4.48474e-07
/HiggsDiphotonDifferentialCrossSection2016/pT_yy_coarse#0 0.00000e+00 2.00000e+01
  val: 1 2 0.00337317 0.000679351 -0.00109656
  err: 1 0 3.35349e-05
/HiggsDiphotonDifferentialCrossSection2016/pT_yy_coarse#1 2.00000e+01 3.00000e+01
  val: 1 2 0.00736438 0.00172386 -0.00272079
  err: 1 0 7.01111e-05
/HiggsDiphotonDifferentialCrossSection2016/pT_yy_coarse#2 3.00000e+01 4.50000e+01
  val: 1 2 0.00924392 0.00239685 -0.00375139
  err: 1 0 6.44883e-05
/HiggsDiphotonDifferentialCrossSection2016/pT_yy_coarse#3 4.50000e+01 6.00000e+01
  val: 1 2 0.0103884 0.00340944 -0.00472336
  err: 1 0 6.92805e-05
/HiggsDiphotonDifferentialCrossSection2016/pT_yy_coarse#4 6.00000e+01 8.00000e+01
  val: 1 2 0.0103379 0.00317968 -0.00470673
  err: 1 0 5.91948e-05
/HiggsDiphotonDifferentialCrossSection2016/pT_yy_coarse#5 8.00000e+01 1.20000e+02
  val: 1 2 0.00812089 0.00206613 -0.00340098
  err: 1 0 3.66205e-05
/HiggsDiphotonDifferentialCrossSection2016/pT_yy_coarse#6 1.20000e+02 1.70000e+02
  val: 1 2 0.00465217 0.000811306 -0.00160618
  err: 1 0 2.45781e-05
/HiggsDiphotonDifferentialCrossSection2016/pT_yy_coarse#7 1.70000e+02 2.20000e+02
  val: 1 2 0.00226914 0.000369655 -0.00079204
  err: 1 0 1.70631e-05
/HiggsDiphotonDifferentialCrossSection2016/pT_yy_coarse#8 2.20000e+02 3.50000e+02
  val: 1 2 0.000688772 0.000123172 -0.00026065
  err: 1 0 5.8187e-06
/HiggsDiphotonDifferentialCrossSection2016/pT_yy_coarse#9 3.50000e+02 9.99900e+03
  val: 1 2 2.10597e-06 1.28073e-07 -4.29923e-07
  err: 1 0 3.73335e-08
/HiggsDiphotonDifferentialCrossSection2016/pT_yy#0 0.00000e+00 5.00000e+00
  val: 1 2 0.000863997 0.000238976 -0.000313358
  err: 1 0 3.45894e-05
/HiggsDiphotonDifferentialCrossSection2016/pT_yy#1 5.00000e+00 1.00000e+01
  val: 1 2 0.00265279 0.000428408 -0.000762888
  err: 1 0 5.9051e-05
/HiggsDiphotonDifferentialCrossSection2016/pT_yy#2 1.00000e+01 1.50000e+01
  val: 1 2 0.00424516 0.00111262 -0.00166684
  err: 1 0 7.5849e-05
/HiggsDiphotonDifferentialCrossSection2016/pT_yy#3 1.50000e+01 2.00000e+01
  val: 1 2 0.00573075 0.000937395 -0.00164314
  err: 1 0 8.69305e-05
/HiggsDiphotonDifferentialCrossSection2016/pT_yy#4 2.00000e+01 2.50000e+01
  val: 1 2 0.00684357 0.00143573 -0.00234342
  err: 1 0 9.51954e-05
/HiggsDiphotonDifferentialCrossSection2016/pT_yy#5 2.50000e+01 3.00000e+01
  val: 1 2 0.00788519 0.00201197 -0.00309815
  err: 1 0 0.000102957
/HiggsDiphotonDifferentialCrossSection2016/pT_yy#6 3.00000e+01 3.50000e+01
  val: 1 2 0.00866297 0.00214659 -0.00339576
  err: 1 0 0.000108452
/HiggsDiphotonDifferentialCrossSection2016/pT_yy#7 3.50000e+01 4.50000e+01
  val: 1 2 0.00953439 0.00252197 -0.0039292
  err: 1 0 8.01045e-05
/HiggsDiphotonDifferentialCrossSection2016/pT_yy#8 4.50000e+01 6.00000e+01
  val: 1 2 0.0103884 0.00340944 -0.00472336
  err: 1 0 6.92805e-05
/HiggsDiphotonDifferentialCrossSection2016/pT_yy#9 6.00000e+01 8.00000e+01
  val: 1 2 0.0103379 0.00317968 -0.00470673
  err: 1 0 5.91948e-05
/HiggsDiphotonDifferentialCrossSection2016/pT_yy#10 8.00000e+01 1.00000e+02
  val: 1 2 0.00912494 0.00236042 -0.00381268
  err: 1 0 5.49471e-05
/HiggsDiphotonDifferentialCrossSection2016/pT_yy#11 1.00000e+02 1.20000e+02
  val: 1 2 0.00711683 0.00177183 -0.00298927
  err: 1 0 4.84257e-05
/HiggsDiphotonDifferentialCrossSection2016/pT_yy#12 1.20000e+02 1.40000e+02
  val: 1 2 0.00564096 0.00100675 -0.00197886
  err: 1 0 4.27118e-05
/HiggsDiphotonDifferentialCrossSection2016/pT_yy#13 1.40000e+02 1.70000e+02
  val: 1 2 0.00399297 0.00068101 -0.00135772
  err: 1 0 2.94484e-05
/HiggsDiphotonDifferentialCrossSection2016/pT_yy#14 1.70000e+02 2.00000e+02
  val: 1 2 0.00258311 0.000487146 -0.000974075
  err: 1 0 2.36531e-05
/HiggsDiphotonDifferentialCrossSection2016/pT_yy#15 2.00000e+02 2.50000e+02
  val: 1 2 0.00146714 0.000202139 -0.000485548
  err: 1 0 1.35791e-05
/HiggsDiphotonDifferentialCrossSection2016/pT_yy#16 2.50000e+02 3.50000e+02
  val: 1 2 0.000521471 9.77369e-05 -0.000199867
  err: 1 0 5.79277e-06
/HiggsDiphotonDifferentialCrossSection2016/pT_yy#17 3.50000e+02 9.99900e+03
  val: 1 2 2.10597e-06 1.28073e-07 -4.29923e-07
  err: 1 0 3.73335e-08
/HiggsDiphotonDifferentialCrossSection2016/yAbs_yy#0 0.00000e+00 1.50000e-01
  val: 1 2 0.970132 0.225635 -0.379151
  err: 1 0 0.00657809
/HiggsDiphotonDifferentialCrossSection2016/yAbs_yy#1 1.50000e-01 3.00000e-01
  val: 1 2 0.95426 0.220687 -0.369186
  err: 1 0 0.00650217
/HiggsDiphotonDifferentialCrossSection2016/yAbs_yy#2 3.00000e-01 4.50000e-01
  val: 1 2 0.922716 0.194482 -0.337163
  err: 1 0 0.00638438
/HiggsDiphotonDifferentialCrossSection2016/yAbs_yy#3 4.50000e-01 6.00000e-01
  val: 1 2 0.885492 0.238934 -0.375569
  err: 1 0 0.0062935
/HiggsDiphotonDifferentialCrossSection2016/yAbs_yy#4 6.00000e-01 7.50000e-01
  val: 1 2 0.848399 0.157058 -0.293361
  err: 1 0 0.00608869
/HiggsDiphotonDifferentialCrossSection2016/yAbs_yy#5 7.50000e-01 9.00000e-01
  val: 1 2 0.796991 0.165815 -0.293428
  err: 1 0 0.00587481
/HiggsDiphotonDifferentialCrossSection2016/yAbs_yy#6 9.00000e-01 1.20000e+00
  val: 1 2 0.704188 0.187067 -0.304332
  err: 1 0 0.00395071
/HiggsDiphotonDifferentialCrossSection2016/yAbs_yy#7 1.20000e+00 1.60000e+00
  val: 1 2 0.539703 0.13807 -0.217025
  err: 1 0 0.00300102
/HiggsDiphotonDifferentialCrossSection2016/yAbs_yy#8 1.60000e+00 2.40000e+00
  val: 1 2 0.236594 0.0608946 -0.0988624
  err: 1 0 0.00140026
