%!PS-Adobe-2.0 EPSF-2.0
%%BoundingBox:  0 0 567 407
%%Title: plots/eps/HGamEFTScanner_N_j_30_cHW:cHWt_cHW_cHWt.eps: SMEFT Run2
%%Creator: ROOT Version 6.08/02
%%CreationDate: Sun Jul 11 09:01:39 2021
%%DocumentNeededResources: ProcSet (FontSetInit)
%%EndComments
%%BeginProlog
80 dict begin
/s {stroke} def /l {lineto} def /m {moveto} def /t {translate} def
/r {rotate} def /rl {roll}  def /R {repeat} def
/d {rlineto} def /rm {rmoveto} def /gr {grestore} def /f {eofill} def
/c {setrgbcolor} def /black {0 setgray} def /sd {setdash} def
/cl {closepath} def /sf {scalefont setfont} def /lw {setlinewidth} def
/box {m dup 0 exch d exch 0 d 0 exch neg d cl} def
/NC{systemdict begin initclip end}def/C{NC box clip newpath}def
/bl {box s} def /bf {gsave box gsave f grestore 1 lw [] 0 sd s grestore} def /Y { 0 exch d} def /X { 0 d} def 
/K {{pop pop 0 moveto} exch kshow} bind def
/ita {/ang 15 def gsave [1 0 ang dup sin exch cos div 1 0 0] concat} def 
/mp {newpath /y exch def /x exch def} def
/side {[w .77 mul w .23 mul] .385 w mul sd w 0 l currentpoint t -144 r} def
/mr {mp x y w2 0 360 arc} def /m24 {mr s} def /m20 {mr f} def
/mb {mp x y w2 add m w2 neg 0 d 0 w neg d w 0 d 0 w d cl} def
/mt {mp x y w2 add m w2 neg w neg d w 0 d cl} def
/m21 {mb f} def /m25 {mb s} def /m22 {mt f} def /m26{mt s} def
/m23 {mp x y w2 sub m w2 w d w neg 0 d cl f} def
/m27 {mp x y w2 add m w3 neg w2 neg d w3 w2 neg d w3 w2 d cl s} def
/m28 {mp x w2 sub y w2 sub w3 add m w3 0 d  0 w3 neg d w3 0 d 0 w3 d w3 0 d  0 w3 d w3 neg 0 d 0 w3 d w3 neg 0 d 0 w3 neg d w3 neg 0 d cl s } def
/m29 {mp gsave x w2 sub y w2 add w3 sub m currentpoint t 4 {side} repeat cl fill gr} def
/m30 {mp gsave x w2 sub y w2 add w3 sub m currentpoint t 4 {side} repeat cl s gr} def
/m31 {mp x y w2 sub m 0 w d x w2 sub y m w 0 d x w2 sub y w2 add m w w neg d x w2 sub y w2 sub m w w d s} def
/m32 {mp x y w2 sub m w2 w d w neg 0 d cl s} def
/m33 {mp x y w2 add m w3 neg w2 neg d w3 w2 neg d w3 w2 d cl f} def
/m34 {mp x w2 sub y w2 sub w3 add m w3 0 d  0 w3 neg d w3 0 d 0 w3 d w3 0 d  0 w3 d w3 neg 0 d 0 w3 d w3 neg 0 d 0 w3 neg d w3 neg 0 d cl f } def
/m2 {mp x y w2 sub m 0 w d x w2 sub y m w 0 d s} def
/m5 {mp x w2 sub y w2 sub m w w d x w2 sub y w2 add m w w neg d s} def
%%IncludeResource: ProcSet (FontSetInit)
%%IncludeResource: font Times-Roman
%%IncludeResource: font Times-Italic
%%IncludeResource: font Times-Bold
%%IncludeResource: font Times-BoldItalic
%%IncludeResource: font Helvetica
%%IncludeResource: font Helvetica-Oblique
%%IncludeResource: font Helvetica-Bold
%%IncludeResource: font Helvetica-BoldOblique
%%IncludeResource: font Courier
%%IncludeResource: font Courier-Oblique
%%IncludeResource: font Courier-Bold
%%IncludeResource: font Courier-BoldOblique
%%IncludeResource: font Symbol
%%IncludeResource: font ZapfDingbats
/reEncode {exch findfont dup length dict begin {1 index /FID eq  {pop pop} {def} ifelse } forall /Encoding exch def currentdict end dup /FontName get exch definefont pop } def [/Times-Bold /Times-Italic /Times-BoldItalic /Helvetica /Helvetica-Oblique
 /Helvetica-Bold /Helvetica-BoldOblique /Courier /Courier-Oblique /Courier-Bold /Courier-BoldOblique /Times-Roman /AvantGarde-Book /AvantGarde-BookOblique /AvantGarde-Demi /AvantGarde-DemiOblique /Bookman-Demi /Bookman-DemiItalic /Bookman-Light
 /Bookman-LightItalic /Helvetica-Narrow /Helvetica-Narrow-Bold /Helvetica-Narrow-BoldOblique /Helvetica-Narrow-Oblique /NewCenturySchlbk-Roman /NewCenturySchlbk-Bold /NewCenturySchlbk-BoldItalic /NewCenturySchlbk-Italic /Palatino-Bold
 /Palatino-BoldItalic /Palatino-Italic /Palatino-Roman ] {ISOLatin1Encoding reEncode } forall
%%EndProlog
%%BeginSetup
%%EndSetup
newpath  gsave  .25 .25 scale  gsave  0 0 t black[  ] 0 sd 3 lw 1 1 1 c 2268 1630 0 0 bf black 1 1 1 c 1791 1271 363 277 bf black 1791 1271 363 277 bl 1 1 1 c 1791 1271 363 277 bf black 1791 1271 363 277 bl 363 277 m 1791 X s
 gsave  2268 1630 0 0 C 2019.86 25.64 t 0 r /Times-Italic findfont 79.7689 sf 0 0 m (HW) show NC gr 
 gsave  2268 1630 0 0 C 1934.4 62.6756 t 0 r /Times-Italic findfont 119.653 sf 0 0 m (C) show NC gr  6 lw 1934 151 m 86 X s 3 lw 363 277 m 1271 Y s
 gsave  2268 1630 0 0 C 170.933 1415.9 t 90 r /Times-Italic findfont 79.7689 sf 0 0 m (HW) show NC gr 
 gsave  2268 1630 0 0 C 133.898 1330.43 t 90 r /Times-Italic findfont 119.653 sf 0 0 m (C) show NC gr 
 gsave  2268 1630 0 0 C 68.3734 1373.17 t 90 r  -32 0 t /Times-Italic findfont 119.653 sf 0 0 m (~) show NC gr  0.827451 0.913725 1 c black 0.827451 0.913725 1 c 1908 1002 m 5 -26 d 3 -25 d 1 -26 d -25 Y -1 -26 d -3 -25 d -5 -25 d -5 -26 d -6 -25 d
 -7 -26 d -4 -13 d -6 -12 d -12 -26 d -12 -25 d -6 -13 d -8 -12 d -17 -26 d -11 -18 d -6 -7 d -21 -26 d -9 -10 d -14 -15 d -22 -23 d -3 -2 d -29 -26 d -4 -2 d -30 -23 d -5 -4 d -34 -22 d -2 -1 d -36 -20 d -8 -4 d -28 -12 d -30 -14 d -6 -2 d -36 -11 d
 -35 -12 d -1 X -35 -7 d -36 -6 d -36 -5 d -36 -3 d -36 -1 d -35 1 d -36 3 d -36 5 d -36 6 d -34 7 d -2 1 d -35 11 d -36 11 d -6 2 d -30 14 d -27 12 d -9 5 d -36 19 d -2 1 d -34 23 d -4 3 d -31 23 d -3 2 d -29 26 d -4 3 d -21 22 d -15 15 d -8 10 d
 -21 26 d -7 8 d -11 17 d -16 26 d -9 13 d -6 12 d -11 25 d -12 26 d -7 14 d -3 11 d -7 26 d -6 25 d -5 26 d -5 25 d -3 25 d -1 26 d 25 Y 1 26 d 3 25 d 5 26 d 5 25 d 6 25 d 7 26 d 3 11 d 7 14 d 12 26 d 11 25 d 6 12 d 9 13 d 16 26 d 11 17 d 7 8 d 21
 26 d 8 10 d 15 15 d 21 22 d 4 4 d 29 25 d 3 2 d 31 23 d 4 4 d 34 22 d 2 1 d 36 19 d 9 5 d 27 12 d 31 14 d 5 2 d 36 11 d 35 12 d 2 X 34 7 d 36 6 d 36 5 d 36 3 d 35 1 d 36 -1 d 36 -3 d 36 -5 d 36 -6 d 35 -7 d 1 X 35 -12 d 36 -11 d 6 -2 d 30 -14 d 27
 -12 d 9 -4 d 36 -20 d 2 -1 d 34 -22 d 5 -4 d 30 -22 d 4 -3 d 29 -25 d 3 -3 d 22 -23 d 14 -14 d 9 -11 d 21 -26 d 6 -7 d 11 -18 d 17 -26 d 8 -11 d 6 -14 d 12 -25 d 12 -26 d 6 -12 d 4 -13 d 7 -26 d 6 -25 d 5 -25 d -180 -26 d -5 26 d -8 25 d -9 21 d -1
 4 d -11 26 d -14 25 d -9 13 d -8 13 d -20 25 d -8 9 d -15 16 d -21 20 d -7 6 d -29 22 d -5 3 d -31 20 d -10 6 d -26 13 d -29 12 d -6 3 d -36 12 d -36 9 d -11 2 d -25 4 d -36 4 d -36 1 d -35 -1 d -36 -4 d -21 -4 d -15 -3 d -36 -9 d -36 -13 d -2 -1 d
 -33 -14 d -22 -11 d -14 -8 d -27 -18 d -9 -6 d -25 -19 d -11 -10 d -17 -16 d -19 -21 d -4 -4 d -20 -25 d -12 -19 d -4 -7 d -15 -25 d -11 -26 d -5 -14 d -5 -11 d -8 -25 d -5 -26 d -4 -25 d -2 -26 d -25 Y 2 -26 d 4 -25 d 5 -25 d 8 -26 d 5 -11 d 5 -14
 d 11 -26 d 15 -25 d 4 -7 d 12 -19 d 20 -25 d 4 -4 d 19 -21 d 17 -16 d 11 -10 d 25 -19 d 9 -6 d 27 -18 d 14 -8 d 22 -11 d 33 -14 d 2 -1 d 36 -13 d 36 -9 d 15 -2 d 21 -5 d 36 -4 d 35 -1 d 36 1 d 36 4 d 25 5 d 11 1 d 36 9 d 36 12 d 6 3 d 29 12 d 26 13
 d 10 6 d 31 20 d 5 3 d 29 22 d 7 6 d 21 20 d 15 16 d 8 9 d 20 25 d 8 13 d 9 13 d 14 25 d 11 26 d 1 4 d 9 21 d 8 26 d 5 25 d 4 25 d 2 26 d 25 Y -2 26 d -4 25 d f 0.35 0.33 0.85 c 6 lw 0.884975 0.752825 0.292488 c black 0.35 0.33 0.85 c 1455 1459 m 1
 X 35 -12 d 36 -11 d 6 -2 d 30 -14 d 27 -12 d 9 -4 d 36 -20 d 2 -1 d 34 -22 d 5 -4 d 30 -22 d 4 -3 d 29 -25 d 3 -3 d 22 -23 d 14 -14 d 9 -11 d 21 -26 d 6 -7 d 11 -18 d 17 -26 d 8 -11 d 6 -14 d 12 -25 d 12 -26 d 6 -12 d 4 -13 d 7 -26 d 6 -25 d 5 -25 d
 5 -26 d 3 -25 d 1 -26 d -25 Y -1 -26 d -3 -25 d -5 -25 d -5 -26 d -6 -25 d -7 -26 d -4 -13 d -6 -12 d -12 -26 d -12 -25 d -6 -13 d -8 -12 d -17 -26 d -11 -18 d -6 -7 d -21 -26 d -9 -10 d -14 -15 d -22 -23 d -3 -2 d -29 -26 d -4 -2 d -30 -23 d -5 -4
 d -34 -22 d -2 -1 d -36 -20 d -8 -4 d -28 -12 d -30 -14 d -6 -2 d -36 -11 d -35 -12 d -1 X -35 -7 d -36 -6 d -36 -5 d -36 -3 d -36 -1 d -35 1 d -36 3 d -36 5 d -36 6 d -34 7 d -2 1 d -35 11 d -36 11 d -6 2 d -30 14 d -27 12 d -9 5 d -36 19 d -2 1 d
 -34 23 d -4 3 d -31 23 d -3 2 d -29 26 d -4 3 d -21 22 d -15 15 d -8 10 d -21 26 d -7 8 d -11 17 d -16 26 d -9 13 d -6 12 d -11 25 d -12 26 d -7 14 d -3 11 d -7 26 d -6 25 d -5 26 d -5 25 d -3 25 d -1 26 d 25 Y 1 26 d 3 25 d 5 26 d 5 25 d 6 25 d 7
 26 d 3 11 d 7 14 d 12 26 d 11 25 d 6 12 d 9 13 d 16 26 d 11 17 d 7 8 d 21 26 d 8 10 d 15 15 d 21 22 d 4 4 d 29 25 d 3 2 d 31 23 d 4 4 d 34 22 d 2 1 d 36 19 d 9 5 d 27 12 d 31 14 d 5 2 d 36 11 d 35 12 d 2 X 34 7 d 36 6 d 36 5 d 36 3 d 35 1 d 36 -1 d
 36 -3 d 36 -5 d 36 -6 d 35 -7 d cl s 0.884975 0.752825 0.292488 c black 0.35 0.33 0.85 c 1348 1311 m -36 4 d -36 1 d -35 -1 d -36 -4 d -21 -4 d -15 -3 d -36 -9 d -36 -13 d -2 -1 d -33 -14 d -22 -11 d -14 -8 d -27 -18 d -9 -6 d -25 -19 d -11 -10 d
 -17 -16 d -19 -21 d -4 -4 d -20 -25 d -12 -19 d -4 -7 d -15 -25 d -11 -26 d -5 -14 d -5 -11 d -8 -25 d -5 -26 d -4 -25 d -2 -26 d -25 Y 2 -26 d 4 -25 d 5 -25 d 8 -26 d 5 -11 d 5 -14 d 11 -26 d 15 -25 d 4 -7 d 12 -19 d 20 -25 d 4 -4 d 19 -21 d 17 -16
 d 11 -10 d 25 -19 d 9 -6 d 27 -18 d 14 -8 d 22 -11 d 33 -14 d 2 -1 d 36 -13 d 36 -9 d 15 -2 d 21 -5 d 36 -4 d 35 -1 d 36 1 d 36 4 d 25 5 d 11 1 d 36 9 d 36 12 d 6 3 d 29 12 d 26 13 d 10 6 d 31 20 d 5 3 d 29 22 d 7 6 d 21 20 d 15 16 d 8 9 d 20 25 d 8
 13 d 9 13 d 14 25 d 11 26 d 1 4 d 9 21 d 8 26 d 5 25 d 4 25 d 2 26 d 25 Y -2 26 d -4 25 d -5 26 d -8 25 d -9 21 d -1 4 d -11 26 d -14 25 d -9 13 d -8 13 d -20 25 d -8 9 d -15 16 d -21 20 d -7 6 d -29 22 d -5 3 d -31 20 d -10 6 d -26 13 d -29 12 d -6
 3 d -36 12 d -36 9 d -11 2 d -25 4 d cl s black 3 lw 0.745098 0.905882 0.992157 c black 0.745098 0.905882 0.992157 c 1863 773 m -7 -26 d -6 -19 d -4 -6 d -13 -26 d -12 -25 d -7 -13 d -9 -12 d -18 -26 d -9 -14 d -10 -11 d -21 -26 d -5 -5 d -22 -20 d
 -14 -14 d -14 -11 d -21 -18 d -11 -8 d -25 -17 d -14 -8 d -22 -13 d -23 -13 d -13 -6 d -36 -16 d -8 -3 d -28 -9 d -35 -11 d -19 -6 d -17 -3 d -36 -6 d -36 -4 d -36 -3 d -36 -1 d -35 1 d -36 3 d -36 4 d -36 6 d -16 3 d -20 6 d -35 12 d -26 8 d -10 4
 d -36 16 d -11 5 d -25 14 d -21 12 d -15 9 d -23 16 d -13 9 d -20 17 d -15 13 d -13 12 d -23 21 d -4 4 d -20 26 d -12 13 d -8 12 d -17 26 d -11 14 d -5 11 d -12 25 d -14 26 d -5 10 d -5 15 d -7 26 d -6 25 d -6 26 d -5 25 d -4 25 d -2 26 d 25 Y 2 26
 d 4 25 d 5 26 d 6 25 d 6 25 d 7 26 d 5 15 d 5 10 d 14 26 d 12 25 d 5 11 d 11 14 d 17 26 d 8 12 d 12 13 d 20 26 d 4 4 d 23 21 d 13 13 d 15 13 d 20 16 d 13 9 d 23 16 d 15 9 d 21 12 d 25 14 d 11 5 d 36 16 d 10 4 d 26 8 d 35 12 d 20 6 d 16 3 d 36 6 d 36
 4 d 36 3 d 35 1 d 36 -1 d 36 -2 d 36 -5 d 36 -6 d 17 -3 d 19 -6 d 35 -11 d 28 -9 d 8 -3 d 36 -16 d 13 -6 d 23 -13 d 22 -13 d 14 -8 d 25 -17 d 11 -8 d 21 -17 d 14 -12 d 14 -14 d 22 -20 d 5 -5 d 21 -26 d 10 -11 d 9 -14 d 18 -26 d 9 -11 d 7 -14 d 12
 -25 d 13 -26 d 4 -6 d 6 -19 d 7 -26 d 7 -25 d 6 -25 d 5 -26 d 4 -25 d 1 -8 d -60 Y -1 -9 d -4 -25 d -5 -25 d -6 -26 d -7 -25 d -103 25 d 6 26 d 5 25 d 3 25 d 1 26 d 25 Y -1 26 d -3 25 d -5 26 d -6 25 d -9 25 d -9 17 d -3 9 d -11 25 d -16 26 d -6 7 d
 -11 18 d -21 25 d -3 4 d -20 22 d -16 15 d -12 10 d -24 19 d -9 7 d -27 18 d -12 7 d -24 14 d -27 12 d -9 4 d -35 14 d -27 7 d -9 3 d -36 9 d -36 6 d -36 3 d -36 1 d -35 -2 d -36 -3 d -36 -6 d -36 -9 d -6 -2 d -30 -8 d -35 -15 d -6 -2 d -30 -14 d
 -20 -12 d -16 -9 d -24 -16 d -12 -9 d -21 -17 d -15 -13 d -13 -12 d -22 -26 d -1 -1 d -21 -24 d -14 -24 d -2 -1 d -16 -26 d -12 -25 d -6 -17 d -5 -9 d -9 -25 d -7 -25 d -5 -26 d -3 -25 d -1 -26 d -25 Y 1 -26 d 3 -25 d 5 -25 d 7 -26 d 9 -25 d 5 -9 d
 6 -17 d 12 -25 d 16 -26 d 2 -1 d 14 -24 d 21 -24 d 1 -1 d 22 -26 d 13 -11 d 15 -14 d 21 -17 d 12 -9 d 24 -16 d 16 -9 d 20 -12 d 30 -13 d 6 -3 d 35 -15 d 30 -8 d 6 -2 d 36 -9 d 36 -6 d 36 -3 d 35 -1 d 36 X 36 4 d 36 5 d 36 9 d 9 3 d 27 7 d 35 14 d 9
 5 d 27 12 d 24 13 d 12 7 d 27 18 d 9 7 d 24 19 d 12 10 d 16 15 d 20 22 d 3 4 d 21 25 d 11 18 d 6 7 d 16 26 d 11 25 d 3 9 d 9 17 d 9 25 d f black 0.0941176 0.666667 0.905882 c black 0.0941176 0.666667 0.905882 c 1 lw << /PatternType 1 /PaintType 2
 /TilingType 1 /BBox [ 0 0 100 100 ] /XStep 100 /YStep 100 /PaintProc { begin gsave 0 100 m 100 0 l s gr end } >> [ 0.24 0 0 0.24 0 0 ] makepattern /P05 exch def /cs {[/Pattern /DeviceRGB] setcolorspace} def /FA {f [/DeviceRGB] setcolorspace} def cs
 0.0941176 0.666667 0.905882 P05 setcolor 1863 773 m -7 -26 d -6 -19 d -4 -6 d -13 -26 d -12 -25 d -7 -13 d -9 -12 d -18 -26 d -9 -14 d -10 -11 d -21 -26 d -5 -5 d -22 -20 d -14 -14 d -14 -11 d -21 -18 d -11 -8 d -25 -17 d -14 -8 d -22 -13 d -23 -13
 d -13 -6 d -36 -16 d -8 -3 d -28 -9 d -35 -11 d -19 -6 d -17 -3 d -36 -6 d -36 -4 d -36 -3 d -36 -1 d -35 1 d -36 3 d -36 4 d -36 6 d -16 3 d -20 6 d -35 12 d -26 8 d -10 4 d -36 16 d -11 5 d -25 14 d -21 12 d -15 9 d -23 16 d -13 9 d -20 17 d -15
 13 d -13 12 d -23 21 d -4 4 d -20 26 d -12 13 d -8 12 d -17 26 d -11 14 d -5 11 d -12 25 d -14 26 d -5 10 d -5 15 d -7 26 d -6 25 d -6 26 d -5 25 d -4 25 d -2 26 d 25 Y 2 26 d 4 25 d 5 26 d 6 25 d 6 25 d 7 26 d 5 15 d 5 10 d 14 26 d 12 25 d 5 11 d
 11 14 d 17 26 d 8 12 d 12 13 d 20 26 d 4 4 d 23 21 d 13 13 d 15 13 d 20 16 d 13 9 d 23 16 d 15 9 d 21 12 d 25 14 d 11 5 d 36 16 d 10 4 d 26 8 d 35 12 d 20 6 d 16 3 d 36 6 d 36 4 d 36 3 d 35 1 d 36 -1 d 36 -2 d 36 -5 d 36 -6 d 17 -3 d 19 -6 d 35 -11
 d 28 -9 d 8 -3 d 36 -16 d 13 -6 d 23 -13 d 22 -13 d 14 -8 d 25 -17 d 11 -8 d 21 -17 d 14 -12 d 14 -14 d 22 -20 d 5 -5 d 21 -26 d 10 -11 d 9 -14 d 18 -26 d 9 -11 d 7 -14 d 12 -25 d 13 -26 d 4 -6 d 6 -19 d 7 -26 d 7 -25 d 6 -25 d 5 -26 d 4 -25 d 1 -8
 d -60 Y -1 -9 d -4 -25 d -5 -25 d -6 -26 d -7 -25 d -103 25 d 6 26 d 5 25 d 3 25 d 1 26 d 25 Y -1 26 d -3 25 d -5 26 d -6 25 d -9 25 d -9 17 d -3 9 d -11 25 d -16 26 d -6 7 d -11 18 d -21 25 d -3 4 d -20 22 d -16 15 d -12 10 d -24 19 d -9 7 d -27 18
 d -12 7 d -24 14 d -27 12 d -9 4 d -35 14 d -27 7 d -9 3 d -36 9 d -36 6 d -36 3 d -36 1 d -35 -2 d -36 -3 d -36 -6 d -36 -9 d -6 -2 d -30 -8 d -35 -15 d -6 -2 d -30 -14 d -20 -12 d -16 -9 d -24 -16 d -12 -9 d -21 -17 d -15 -13 d -13 -12 d -22 -26 d
 -1 -1 d -21 -24 d -14 -24 d -2 -1 d -16 -26 d -12 -25 d -6 -17 d -5 -9 d -9 -25 d -7 -25 d -5 -26 d -3 -25 d -1 -26 d -25 Y 1 -26 d 3 -25 d 5 -25 d 7 -26 d 9 -25 d 5 -9 d 6 -17 d 12 -25 d 16 -26 d 2 -1 d 14 -24 d 21 -24 d 1 -1 d 22 -26 d 13 -11 d 15
 -14 d 21 -17 d 12 -9 d 24 -16 d 16 -9 d 20 -12 d 30 -13 d 6 -3 d 35 -15 d 30 -8 d 6 -2 d 36 -9 d 36 -6 d 36 -3 d 35 -1 d 36 X 36 4 d 36 5 d 36 9 d 9 3 d 27 7 d 35 14 d 9 5 d 27 12 d 24 13 d 12 7 d 27 18 d 9 7 d 24 19 d 12 10 d 16 15 d 20 22 d 3 4 d
 21 25 d 11 18 d 6 7 d 16 26 d 11 25 d 3 9 d 9 17 d 9 25 d FA 3 lw 0.0941176 0.666667 0.905882 c 6 lw 0.977 0.977044 0.0583656 c black 0.0941176 0.666667 0.905882 c 1456 1428 m 35 -11 d 28 -9 d 8 -3 d 36 -16 d 13 -6 d 23 -13 d 22 -13 d 14 -8 d 25 -17
 d 11 -8 d 21 -17 d 14 -12 d 14 -14 d 22 -20 d 5 -5 d 21 -26 d 10 -11 d 9 -14 d 18 -26 d 9 -11 d 7 -14 d 12 -25 d 13 -26 d 4 -6 d 6 -19 d 7 -26 d 7 -25 d 6 -25 d 5 -26 d 4 -25 d 1 -8 d -60 Y -1 -9 d -4 -25 d -5 -25 d -6 -26 d -7 -25 d -7 -26 d -6 -19
 d -4 -6 d -13 -26 d -12 -25 d -7 -13 d -9 -12 d -18 -26 d -9 -14 d -10 -11 d -21 -26 d -5 -5 d -22 -20 d -14 -14 d -14 -11 d -21 -18 d -11 -8 d -25 -17 d -14 -8 d -22 -13 d -23 -13 d -13 -6 d -36 -16 d -8 -3 d -28 -9 d -35 -11 d -19 -6 d -17 -3 d
 -36 -6 d -36 -4 d -36 -3 d -36 -1 d -35 1 d -36 3 d -36 4 d -36 6 d -16 3 d -20 6 d -35 12 d -26 8 d -10 4 d -36 16 d -11 5 d -25 14 d -21 12 d -15 9 d -23 16 d -13 9 d -20 17 d -15 13 d -13 12 d -23 21 d -4 4 d -20 26 d -12 13 d -8 12 d -17 26 d
 -11 14 d -5 11 d -12 25 d -14 26 d -5 10 d -5 15 d -7 26 d -6 25 d -6 26 d -5 25 d -4 25 d -2 26 d 25 Y 2 26 d 4 25 d 5 26 d 6 25 d 6 25 d 7 26 d 5 15 d 5 10 d 14 26 d 12 25 d 5 11 d 11 14 d 17 26 d 8 12 d 12 13 d 20 26 d 4 4 d 23 21 d 13 13 d 15 13
 d 20 16 d 13 9 d 23 16 d 15 9 d 21 12 d 25 14 d 11 5 d 36 16 d 10 4 d 26 8 d 35 12 d 20 6 d 16 3 d 36 6 d 36 4 d 36 3 d 35 1 d 36 -1 d 36 -2 d 36 -5 d 36 -6 d 17 -3 d 19 -6 d cl s 0.977 0.977044 0.0583656 c black 0.0941176 0.666667 0.905882 c 1420
 1335 m -36 9 d -36 6 d -36 3 d -36 1 d -35 -2 d -36 -3 d -36 -6 d -36 -9 d -6 -2 d -30 -8 d -35 -15 d -6 -2 d -30 -14 d -20 -12 d -16 -9 d -24 -16 d -12 -9 d -21 -17 d -15 -13 d -13 -12 d -22 -26 d -1 -1 d -21 -24 d -14 -24 d -2 -1 d -16 -26 d -12
 -25 d -6 -17 d -5 -9 d -9 -25 d -7 -25 d -5 -26 d -3 -25 d -1 -26 d -25 Y 1 -26 d 3 -25 d 5 -25 d 7 -26 d 9 -25 d 5 -9 d 6 -17 d 12 -25 d 16 -26 d 2 -1 d 14 -24 d 21 -24 d 1 -1 d 22 -26 d 13 -11 d 15 -14 d 21 -17 d 12 -9 d 24 -16 d 16 -9 d 20 -12 d
 30 -13 d 6 -3 d 35 -15 d 30 -8 d 6 -2 d 36 -9 d 36 -6 d 36 -3 d 35 -1 d 36 X 36 4 d 36 5 d 36 9 d 9 3 d 27 7 d 35 14 d 9 5 d 27 12 d 24 13 d 12 7 d 27 18 d 9 7 d 24 19 d 12 10 d 16 15 d 20 22 d 3 4 d 21 25 d 11 18 d 6 7 d 16 26 d 11 25 d 3 9 d 9 17
 d 9 25 d 6 26 d 5 25 d 3 25 d 1 26 d 25 Y -1 26 d -3 25 d -5 26 d -6 25 d -9 25 d -9 17 d -3 9 d -11 25 d -16 26 d -6 7 d -11 18 d -21 25 d -3 4 d -20 22 d -16 15 d -12 10 d -24 19 d -9 7 d -27 18 d -12 7 d -24 14 d -27 12 d -9 4 d -35 14 d -27 7 d
 -9 3 d cl s 0.35 0.33 0.85 c[ 12 12] 0 sd 0.884975 0.752825 0.292488 c black 0.35 0.33 0.85 c 1455 1459 m 1 X 35 -12 d 36 -11 d 6 -2 d 30 -14 d 27 -12 d 9 -4 d 36 -20 d 2 -1 d 34 -22 d 5 -4 d 30 -22 d 4 -3 d 29 -25 d 3 -3 d 22 -23 d 14 -14 d 9 -11 d
 21 -26 d 6 -7 d 11 -18 d 17 -26 d 8 -11 d 6 -14 d 12 -25 d 12 -26 d 6 -12 d 4 -13 d 7 -26 d 6 -25 d 5 -25 d 5 -26 d 3 -25 d 1 -26 d -25 Y -1 -26 d -3 -25 d -5 -25 d -5 -26 d -6 -25 d -7 -26 d -4 -13 d -6 -12 d -12 -26 d -12 -25 d -6 -13 d -8 -12 d
 -17 -26 d -11 -18 d -6 -7 d -21 -26 d -9 -10 d -14 -15 d -22 -23 d -3 -2 d -29 -26 d -4 -2 d -30 -23 d -5 -4 d -34 -22 d -2 -1 d -36 -20 d -8 -4 d -28 -12 d -30 -14 d -6 -2 d -36 -11 d -35 -12 d -1 X -35 -7 d -36 -6 d -36 -5 d -36 -3 d -36 -1 d -35
 1 d -36 3 d -36 5 d -36 6 d -34 7 d -2 1 d -35 11 d -36 11 d -6 2 d -30 14 d -27 12 d -9 5 d -36 19 d -2 1 d -34 23 d -4 3 d -31 23 d -3 2 d -29 26 d -4 3 d -21 22 d -15 15 d -8 10 d -21 26 d -7 8 d -11 17 d -16 26 d -9 13 d -6 12 d -11 25 d -12 26
 d -7 14 d -3 11 d -7 26 d -6 25 d -5 26 d -5 25 d -3 25 d -1 26 d 25 Y 1 26 d 3 25 d 5 26 d 5 25 d 6 25 d 7 26 d 3 11 d 7 14 d 12 26 d 11 25 d 6 12 d 9 13 d 16 26 d 11 17 d 7 8 d 21 26 d 8 10 d 15 15 d 21 22 d 4 4 d 29 25 d 3 2 d 31 23 d 4 4 d 34 22
 d 2 1 d 36 19 d 9 5 d 27 12 d 31 14 d 5 2 d 36 11 d 35 12 d 2 X 34 7 d 36 6 d 36 5 d 36 3 d 35 1 d 36 -1 d 36 -3 d 36 -5 d 36 -6 d 35 -7 d cl s 0.884975 0.752825 0.292488 c black 0.35 0.33 0.85 c 1348 1311 m -36 4 d -36 1 d -35 -1 d -36 -4 d -21 -4
 d -15 -3 d -36 -9 d -36 -13 d -2 -1 d -33 -14 d -22 -11 d -14 -8 d -27 -18 d -9 -6 d -25 -19 d -11 -10 d -17 -16 d -19 -21 d -4 -4 d -20 -25 d -12 -19 d -4 -7 d -15 -25 d -11 -26 d -5 -14 d -5 -11 d -8 -25 d -5 -26 d -4 -25 d -2 -26 d -25 Y 2 -26 d
 4 -25 d 5 -25 d 8 -26 d 5 -11 d 5 -14 d 11 -26 d 15 -25 d 4 -7 d 12 -19 d 20 -25 d 4 -4 d 19 -21 d 17 -16 d 11 -10 d 25 -19 d 9 -6 d 27 -18 d 14 -8 d 22 -11 d 33 -14 d 2 -1 d 36 -13 d 36 -9 d 15 -2 d 21 -5 d 36 -4 d 35 -1 d 36 1 d 36 4 d 25 5 d 11 1
 d 36 9 d 36 12 d 6 3 d 29 12 d 26 13 d 10 6 d 31 20 d 5 3 d 29 22 d 7 6 d 21 20 d 15 16 d 8 9 d 20 25 d 8 13 d 9 13 d 14 25 d 11 26 d 1 4 d 9 21 d 8 26 d 5 25 d 4 25 d 2 26 d 25 Y -2 26 d -4 25 d -5 26 d -8 25 d -9 21 d -1 4 d -11 26 d -14 25 d -9
 13 d -8 13 d -20 25 d -8 9 d -15 16 d -21 20 d -7 6 d -29 22 d -5 3 d -31 20 d -10 6 d -26 13 d -29 12 d -6 3 d -36 12 d -36 9 d -11 2 d -25 4 d cl s 0.0941176 0.666667 0.905882 c 0.977 0.977044 0.0583656 c black 0.0941176 0.666667 0.905882 c 1456
 1428 m 35 -11 d 28 -9 d 8 -3 d 36 -16 d 13 -6 d 23 -13 d 22 -13 d 14 -8 d 25 -17 d 11 -8 d 21 -17 d 14 -12 d 14 -14 d 22 -20 d 5 -5 d 21 -26 d 10 -11 d 9 -14 d 18 -26 d 9 -11 d 7 -14 d 12 -25 d 13 -26 d 4 -6 d 6 -19 d 7 -26 d 7 -25 d 6 -25 d 5 -26 d
 4 -25 d 1 -8 d -60 Y -1 -9 d -4 -25 d -5 -25 d -6 -26 d -7 -25 d -7 -26 d -6 -19 d -4 -6 d -13 -26 d -12 -25 d -7 -13 d -9 -12 d -18 -26 d -9 -14 d -10 -11 d -21 -26 d -5 -5 d -22 -20 d -14 -14 d -14 -11 d -21 -18 d -11 -8 d -25 -17 d -14 -8 d -22
 -13 d -23 -13 d -13 -6 d -36 -16 d -8 -3 d -28 -9 d -35 -11 d -19 -6 d -17 -3 d -36 -6 d -36 -4 d -36 -3 d -36 -1 d -35 1 d -36 3 d -36 4 d -36 6 d -16 3 d -20 6 d -35 12 d -26 8 d -10 4 d -36 16 d -11 5 d -25 14 d -21 12 d -15 9 d -23 16 d -13 9 d
 -20 17 d -15 13 d -13 12 d -23 21 d -4 4 d -20 26 d -12 13 d -8 12 d -17 26 d -11 14 d -5 11 d -12 25 d -14 26 d -5 10 d -5 15 d -7 26 d -6 25 d -6 26 d -5 25 d -4 25 d -2 26 d 25 Y 2 26 d 4 25 d 5 26 d 6 25 d 6 25 d 7 26 d 5 15 d 5 10 d 14 26 d 12
 25 d 5 11 d 11 14 d 17 26 d 8 12 d 12 13 d 20 26 d 4 4 d 23 21 d 13 13 d 15 13 d 20 16 d 13 9 d 23 16 d 15 9 d 21 12 d 25 14 d 11 5 d 36 16 d 10 4 d 26 8 d 35 12 d 20 6 d 16 3 d 36 6 d 36 4 d 36 3 d 35 1 d 36 -1 d 36 -2 d 36 -5 d 36 -6 d 17 -3 d 19
 -6 d cl s 0.977 0.977044 0.0583656 c black 0.0941176 0.666667 0.905882 c 1420 1335 m -36 9 d -36 6 d -36 3 d -36 1 d -35 -2 d -36 -3 d -36 -6 d -36 -9 d -6 -2 d -30 -8 d -35 -15 d -6 -2 d -30 -14 d -20 -12 d -16 -9 d -24 -16 d -12 -9 d -21 -17 d -15
 -13 d -13 -12 d -22 -26 d -1 -1 d -21 -24 d -14 -24 d -2 -1 d -16 -26 d -12 -25 d -6 -17 d -5 -9 d -9 -25 d -7 -25 d -5 -26 d -3 -25 d -1 -26 d -25 Y 1 -26 d 3 -25 d 5 -25 d 7 -26 d 9 -25 d 5 -9 d 6 -17 d 12 -25 d 16 -26 d 2 -1 d 14 -24 d 21 -24 d 1
 -1 d 22 -26 d 13 -11 d 15 -14 d 21 -17 d 12 -9 d 24 -16 d 16 -9 d 20 -12 d 30 -13 d 6 -3 d 35 -15 d 30 -8 d 6 -2 d 36 -9 d 36 -6 d 36 -3 d 35 -1 d 36 X 36 4 d 36 5 d 36 9 d 9 3 d 27 7 d 35 14 d 9 5 d 27 12 d 24 13 d 12 7 d 27 18 d 9 7 d 24 19 d 12
 10 d 16 15 d 20 22 d 3 4 d 21 25 d 11 18 d 6 7 d 16 26 d 11 25 d 3 9 d 9 17 d 9 25 d 6 26 d 5 25 d 3 25 d 1 26 d 25 Y -1 26 d -3 25 d -5 26 d -6 25 d -9 25 d -9 17 d -3 9 d -11 25 d -16 26 d -6 7 d -11 18 d -21 25 d -3 4 d -20 22 d -16 15 d -12 10 d
 -24 19 d -9 7 d -27 18 d -12 7 d -24 14 d -27 12 d -9 4 d -35 14 d -27 7 d -9 3 d cl s black[  ] 0 sd 3 lw 363 1548 m 1791 X s 363 1509 m 39 Y s 542 1529 m 19 Y s 721 1509 m 39 Y s 900 1529 m 19 Y s 1079 1509 m 39 Y s 1259 1529 m 19 Y s 1438 1509 m
 39 Y s 1617 1529 m 19 Y s 1796 1509 m 39 Y s 1975 1529 m 19 Y s 2154 1509 m 39 Y s 363 1509 m 39 Y s 2154 1509 m 39 Y s 363 277 m 1791 X s 363 316 m -39 Y s 542 296 m -19 Y s 721 316 m -39 Y s 900 296 m -19 Y s 1079 316 m -39 Y s 1259 296 m -19 Y s
 1438 316 m -39 Y s 1617 296 m -19 Y s 1796 316 m -39 Y s 1975 296 m -19 Y s 2154 316 m -39 Y s 363 316 m -39 Y s 2154 316 m -39 Y s
 gsave  2268 1630 0 0 C 282.04 190.876 t 0 r /Times-Roman findfont 94.0134 sf 0 0 m (0.005) show NC gr 
 gsave  2268 1630 0 0 C 230.76 190.876 t 0 r /Symbol findfont 94.0134 sf 0 0 m (-) show NC gr 
 gsave  2268 1630 0 0 C 697.978 190.876 t 0 r /Times-Roman findfont 94.0134 sf 0 0 m (0) show NC gr 
 gsave  2268 1630 0 0 C 971.472 190.876 t 0 r /Times-Roman findfont 94.0134 sf 0 0 m (0.005) show NC gr 
 gsave  2268 1630 0 0 C 1356.07 190.876 t 0 r /Times-Roman findfont 94.0134 sf 0 0 m (0.01) show NC gr 
 gsave  2268 1630 0 0 C 1689.39 190.876 t 0 r /Times-Roman findfont 94.0134 sf 0 0 m (0.015) show NC gr 
 gsave  2268 1630 0 0 C 2071.14 190.876 t 0 r /Times-Roman findfont 94.0134 sf 0 0 m (0.02) show NC gr  363 277 m 1271 Y s 416 277 m -53 X s 389 436 m -26 X s 416 595 m -53 X s 389 754 m -26 X s 416 913 m -53 X s 389 1071 m -26 X s 416 1230 m -53 X s
 389 1389 m -26 X s 416 1548 m -53 X s 416 277 m -53 X s 416 1548 m -53 X s
 gsave  2268 1630 0 0 C 182.329 245.005 t 0 r /Times-Roman findfont 94.0134 sf 0 0 m (0.01) show NC gr 
 gsave  2268 1630 0 0 C 131.049 245.005 t 0 r /Symbol findfont 94.0134 sf 0 0 m (-) show NC gr 
 gsave  2268 1630 0 0 C 131.049 561.231 t 0 r /Times-Roman findfont 94.0134 sf 0 0 m (0.005) show NC gr 
 gsave  2268 1630 0 0 C 79.7689 561.231 t 0 r /Symbol findfont 94.0134 sf 0 0 m (-) show NC gr 
 gsave  2268 1630 0 0 C 293.436 880.307 t 0 r /Times-Roman findfont 94.0134 sf 0 0 m (0) show NC gr 
 gsave  2268 1630 0 0 C 131.049 1196.53 t 0 r /Times-Roman findfont 94.0134 sf 0 0 m (0.005) show NC gr 
 gsave  2268 1630 0 0 C 182.329 1515.61 t 0 r /Times-Roman findfont 94.0134 sf 0 0 m (0.01) show NC gr  2154 277 m 1271 Y s 2101 277 m 53 X s 2128 436 m 26 X s 2101 595 m 53 X s 2128 754 m 26 X s 2101 913 m 53 X s 2128 1071 m 26 X s 2101 1230 m 53 X
 s 2128 1389 m 26 X s 2101 1548 m 53 X s 2101 277 m 53 X s 2101 1548 m 53 X s 0.35 0.33 0.85 c /w 36 def /w2 {w 2 div} def /w3 {w 3 div} def 731 822 m31 1833 902 m31 black
 gsave  2268 1630 0 0 C 598.267 1316.19 t 0 r /Times-Roman findfont 76.92 sf 0 0 m (SMEFT Run2) show NC gr 
 gsave  2268 1630 0 0 C 1227.87 1324.73 t 0 r /Times-Roman findfont 119.653 sf 0 0 m (GammaCombo) show NC gr  0.6 0.6 0.6 c black 0.6 0.6 0.6 c
 gsave  2268 1630 0 0 C 407.391 330.471 t 0 r /Times-Roman findfont 56.9778 sf 0 0 m (contours hold 68%, 95% CL) show NC gr 
 gr  gr showpage
end
%%EOF
