%!PS-Adobe-2.0 EPSF-2.0
%%BoundingBox:  0 0 567 407
%%Title: plots/eps/HGamEFTScanner_marginal_linear_quad_exp_cg:cgt_cg_cgt.eps: SMEFT Run2
%%Creator: ROOT Version 6.08/02
%%CreationDate: Mon Jul 12 10:37:10 2021
%%DocumentNeededResources: ProcSet (FontSetInit)
%%EndComments
%%BeginProlog
80 dict begin
/s {stroke} def /l {lineto} def /m {moveto} def /t {translate} def
/r {rotate} def /rl {roll}  def /R {repeat} def
/d {rlineto} def /rm {rmoveto} def /gr {grestore} def /f {eofill} def
/c {setrgbcolor} def /black {0 setgray} def /sd {setdash} def
/cl {closepath} def /sf {scalefont setfont} def /lw {setlinewidth} def
/box {m dup 0 exch d exch 0 d 0 exch neg d cl} def
/NC{systemdict begin initclip end}def/C{NC box clip newpath}def
/bl {box s} def /bf {gsave box gsave f grestore 1 lw [] 0 sd s grestore} def /Y { 0 exch d} def /X { 0 d} def 
/K {{pop pop 0 moveto} exch kshow} bind def
/ita {/ang 15 def gsave [1 0 ang dup sin exch cos div 1 0 0] concat} def 
/mp {newpath /y exch def /x exch def} def
/side {[w .77 mul w .23 mul] .385 w mul sd w 0 l currentpoint t -144 r} def
/mr {mp x y w2 0 360 arc} def /m24 {mr s} def /m20 {mr f} def
/mb {mp x y w2 add m w2 neg 0 d 0 w neg d w 0 d 0 w d cl} def
/mt {mp x y w2 add m w2 neg w neg d w 0 d cl} def
/m21 {mb f} def /m25 {mb s} def /m22 {mt f} def /m26{mt s} def
/m23 {mp x y w2 sub m w2 w d w neg 0 d cl f} def
/m27 {mp x y w2 add m w3 neg w2 neg d w3 w2 neg d w3 w2 d cl s} def
/m28 {mp x w2 sub y w2 sub w3 add m w3 0 d  0 w3 neg d w3 0 d 0 w3 d w3 0 d  0 w3 d w3 neg 0 d 0 w3 d w3 neg 0 d 0 w3 neg d w3 neg 0 d cl s } def
/m29 {mp gsave x w2 sub y w2 add w3 sub m currentpoint t 4 {side} repeat cl fill gr} def
/m30 {mp gsave x w2 sub y w2 add w3 sub m currentpoint t 4 {side} repeat cl s gr} def
/m31 {mp x y w2 sub m 0 w d x w2 sub y m w 0 d x w2 sub y w2 add m w w neg d x w2 sub y w2 sub m w w d s} def
/m32 {mp x y w2 sub m w2 w d w neg 0 d cl s} def
/m33 {mp x y w2 add m w3 neg w2 neg d w3 w2 neg d w3 w2 d cl f} def
/m34 {mp x w2 sub y w2 sub w3 add m w3 0 d  0 w3 neg d w3 0 d 0 w3 d w3 0 d  0 w3 d w3 neg 0 d 0 w3 d w3 neg 0 d 0 w3 neg d w3 neg 0 d cl f } def
/m2 {mp x y w2 sub m 0 w d x w2 sub y m w 0 d s} def
/m5 {mp x w2 sub y w2 sub m w w d x w2 sub y w2 add m w w neg d s} def
%%IncludeResource: ProcSet (FontSetInit)
%%IncludeResource: font Times-Roman
%%IncludeResource: font Times-Italic
%%IncludeResource: font Times-Bold
%%IncludeResource: font Times-BoldItalic
%%IncludeResource: font Helvetica
%%IncludeResource: font Helvetica-Oblique
%%IncludeResource: font Helvetica-Bold
%%IncludeResource: font Helvetica-BoldOblique
%%IncludeResource: font Courier
%%IncludeResource: font Courier-Oblique
%%IncludeResource: font Courier-Bold
%%IncludeResource: font Courier-BoldOblique
%%IncludeResource: font Symbol
%%IncludeResource: font ZapfDingbats
/reEncode {exch findfont dup length dict begin {1 index /FID eq  {pop pop} {def} ifelse } forall /Encoding exch def currentdict end dup /FontName get exch definefont pop } def [/Times-Bold /Times-Italic /Times-BoldItalic /Helvetica /Helvetica-Oblique
 /Helvetica-Bold /Helvetica-BoldOblique /Courier /Courier-Oblique /Courier-Bold /Courier-BoldOblique /Times-Roman /AvantGarde-Book /AvantGarde-BookOblique /AvantGarde-Demi /AvantGarde-DemiOblique /Bookman-Demi /Bookman-DemiItalic /Bookman-Light
 /Bookman-LightItalic /Helvetica-Narrow /Helvetica-Narrow-Bold /Helvetica-Narrow-BoldOblique /Helvetica-Narrow-Oblique /NewCenturySchlbk-Roman /NewCenturySchlbk-Bold /NewCenturySchlbk-BoldItalic /NewCenturySchlbk-Italic /Palatino-Bold
 /Palatino-BoldItalic /Palatino-Italic /Palatino-Roman ] {ISOLatin1Encoding reEncode } forall
%%EndProlog
%%BeginSetup
%%EndSetup
newpath  gsave  .25 .25 scale  gsave  0 0 t black[  ] 0 sd 3 lw 1 1 1 c 2268 1630 0 0 bf black 1 1 1 c 1791 1271 363 277 bf black 1791 1271 363 277 bl 1 1 1 c 1791 1271 363 277 bf black 1791 1271 363 277 bl 363 277 m 1791 X s
 gsave  2268 1630 0 0 C 2036.96 25.64 t 0 r /Times-Italic findfont 79.7689 sf 0 0 m (HG) show NC gr 
 gsave  2268 1630 0 0 C 1951.49 62.6756 t 0 r /Times-Italic findfont 119.653 sf 0 0 m (C) show NC gr  6 lw 1951 151 m 86 X s 3 lw 363 277 m 1271 Y s
 gsave  2268 1630 0 0 C 170.933 1432.99 t 90 r /Times-Italic findfont 79.7689 sf 0 0 m (HG) show NC gr 
 gsave  2268 1630 0 0 C 133.898 1347.53 t 90 r /Times-Italic findfont 119.653 sf 0 0 m (C) show NC gr 
 gsave  2268 1630 0 0 C 68.3734 1390.26 t 90 r  -32 0 t /Times-Italic findfont 119.653 sf 0 0 m (~) show NC gr  0.827451 0.913725 1 c black 0.827451 0.913725 1 c 632 1265 m 35 16 d 1 X 35 8 d 36 7 d 36 5 d 36 4 d 36 X 35 -2 d 36 -4 d 36 -6 d 36 -7 d
 18 -5 d 18 -6 d 36 -12 d 18 -7 d 17 -8 d 36 -17 d 1 -1 d 35 -22 d 5 -3 d 31 -23 d 3 -3 d 28 -25 d 5 -4 d 18 -21 d 17 -20 d 4 -6 d 16 -25 d 16 -26 d 10 -25 d 8 -25 d 7 -26 d 5 -25 d 3 -26 d -1 -25 d -2 -26 d -6 -25 d -7 -25 d -8 -26 d -9 -21 d -2 -4
 d -16 -26 d -16 -25 d -2 -3 d -20 -23 d -15 -17 d -9 -8 d -27 -25 d -35 -26 d -1 -1 d -36 -21 d -5 -3 d -31 -15 d -23 -11 d -12 -4 d -36 -13 d -26 -8 d -10 -3 d -36 -7 d -36 -5 d -36 -5 d -35 -2 d -36 1 d -36 3 d -36 5 d -36 6 d -32 7 d -4 1 d -35
 15 d -25 9 d -11 9 d -28 17 d -8 24 d -1 1 d 1 1 d 36 1 d 36 -1 d 8 -1 d 27 -2 d 36 -1 d 36 1 d 19 2 d 17 1 d 36 4 d 36 7 d 35 9 d 12 5 d 24 7 d 36 15 d 5 3 d 31 16 d 15 9 d 21 14 d 15 12 d 21 18 d 7 7 d 22 26 d 6 8 d 12 17 d 14 26 d 9 25 d 1 3 d 7
 22 d 3 26 d 1 25 d -3 26 d -7 25 d -1 3 d -7 23 d -13 25 d -16 23 d -1 2 d -21 26 d -13 13 d -14 12 d -22 18 d -11 8 d -25 16 d -18 9 d -18 9 d -36 15 d -5 1 d -31 11 d -35 9 d -33 6 d -3 1 d -36 5 d -36 3 d -36 1 d -36 X -35 -1 d -36 X -22 16 d 22
 14 d 12 12 d 24 9 d f 0.35 0.33 0.85 c 6 lw 0.884975 0.752825 0.292488 c black 0.35 0.33 0.85 c 632 1265 m 35 16 d 1 X 35 8 d 36 7 d 36 5 d 36 4 d 36 X 35 -2 d 36 -4 d 36 -6 d 36 -7 d 18 -5 d 18 -6 d 36 -12 d 18 -7 d 17 -8 d 36 -17 d 1 -1 d 35 -22 d
 5 -3 d 31 -23 d 3 -3 d 28 -25 d 5 -4 d 18 -21 d 17 -20 d 4 -6 d 16 -25 d 16 -26 d 10 -25 d 8 -25 d 7 -26 d 5 -25 d 3 -26 d -1 -25 d -2 -26 d -6 -25 d -7 -25 d -8 -26 d -9 -21 d -2 -4 d -16 -26 d -16 -25 d -2 -3 d -20 -23 d -15 -17 d -9 -8 d -27 -25
 d -35 -26 d -1 -1 d -36 -21 d -5 -3 d -31 -15 d -23 -11 d -12 -4 d -36 -13 d -26 -8 d -10 -3 d -36 -7 d -36 -5 d -36 -5 d -35 -2 d -36 1 d -36 3 d -36 5 d -36 6 d -32 7 d -4 1 d -35 15 d -25 9 d -11 9 d -28 17 d -8 24 d -1 1 d 1 1 d 36 1 d 36 -1 d 8
 -1 d 27 -2 d 36 -1 d 36 1 d 19 2 d 17 1 d 36 4 d 36 7 d 35 9 d 12 5 d 24 7 d 36 15 d 5 3 d 31 16 d 15 9 d 21 14 d 15 12 d 21 18 d 7 7 d 22 26 d 6 8 d 12 17 d 14 26 d 9 25 d 1 3 d 7 22 d 3 26 d 1 25 d -3 26 d -7 25 d -1 3 d -7 23 d -13 25 d -16 23 d
 -1 2 d -21 26 d -13 13 d -14 12 d -22 18 d -11 8 d -25 16 d -18 9 d -18 9 d -36 15 d -5 1 d -31 11 d -35 9 d -33 6 d -3 1 d -36 5 d -36 3 d -36 1 d -36 X -35 -1 d -36 X -22 16 d 22 14 d 12 12 d 24 9 d cl s black 3 lw 0.745098 0.905882 0.992157 c
 black 0.745098 0.905882 0.992157 c 1049 1230 m 13 -4 d 35 -15 d 12 -6 d 24 -13 d 19 -13 d 17 -11 d 18 -14 d 18 -14 d 10 -11 d 26 -26 d 16 -25 d 18 -26 d 1 -1 d 10 -24 d 9 -25 d 8 -26 d 6 -25 d 3 -26 d -25 Y -4 -26 d -6 -25 d -8 -25 d -9 -26 d -9 -20
 d -3 -5 d -18 -26 d -14 -23 d -3 -2 d -25 -26 d -8 -8 d -21 -17 d -15 -13 d -19 -12 d -17 -11 d -26 -15 d -10 -5 d -35 -15 d -14 -5 d -22 -6 d -36 -8 d -36 -6 d -36 9 d -3 11 d 3 1 d 36 17 d 9 7 d 27 13 d 18 13 d 18 10 d 21 15 d 15 11 d 17 14 d 18
 18 d 9 8 d 22 25 d 5 8 d 14 18 d 14 25 d 8 19 d 3 7 d 10 25 d 6 25 d 3 26 d 25 Y -2 26 d -5 25 d -8 26 d -7 13 d -4 12 d -13 25 d -19 25 d 1 Y -20 25 d -16 16 d -9 10 d -26 22 d -5 3 d -31 23 d -4 2 d -32 22 d -9 4 d -27 20 d -13 5 d 13 12 d 36 X 36
 -6 d 23 -6 d f black 0.0941176 0.666667 0.905882 c black 0.0941176 0.666667 0.905882 c 1 lw << /PatternType 1 /PaintType 2 /TilingType 1 /BBox [ 0 0 100 100 ] /XStep 100 /YStep 100 /PaintProc { begin gsave 0 100 m 100 0 l s gr end } >> [ 0.24 0 0
 0.24 0 0 ] makepattern /P05 exch def /cs {[/Pattern /DeviceRGB] setcolorspace} def /FA {f [/DeviceRGB] setcolorspace} def cs 0.0941176 0.666667 0.905882 P05 setcolor 1049 1230 m 13 -4 d 35 -15 d 12 -6 d 24 -13 d 19 -13 d 17 -11 d 18 -14 d 18 -14 d
 10 -11 d 26 -26 d 16 -25 d 18 -26 d 1 -1 d 10 -24 d 9 -25 d 8 -26 d 6 -25 d 3 -26 d -25 Y -4 -26 d -6 -25 d -8 -25 d -9 -26 d -9 -20 d -3 -5 d -18 -26 d -14 -23 d -3 -2 d -25 -26 d -8 -8 d -21 -17 d -15 -13 d -19 -12 d -17 -11 d -26 -15 d -10 -5 d
 -35 -15 d -14 -5 d -22 -6 d -36 -8 d -36 -6 d -36 9 d -3 11 d 3 1 d 36 17 d 9 7 d 27 13 d 18 13 d 18 10 d 21 15 d 15 11 d 17 14 d 18 18 d 9 8 d 22 25 d 5 8 d 14 18 d 14 25 d 8 19 d 3 7 d 10 25 d 6 25 d 3 26 d 25 Y -2 26 d -5 25 d -8 26 d -7 13 d -4
 12 d -13 25 d -19 25 d 1 Y -20 25 d -16 16 d -9 10 d -26 22 d -5 3 d -31 23 d -4 2 d -32 22 d -9 4 d -27 20 d -13 5 d 13 12 d 36 X 36 -6 d 23 -6 d FA 3 lw 0.0941176 0.666667 0.905882 c 6 lw 0.977 0.977044 0.0583656 c black 0.0941176 0.666667
 0.905882 c 1049 1230 m 13 -4 d 35 -15 d 12 -6 d 24 -13 d 19 -13 d 17 -11 d 18 -14 d 18 -14 d 10 -11 d 26 -26 d 16 -25 d 18 -26 d 1 -1 d 10 -24 d 9 -25 d 8 -26 d 6 -25 d 3 -26 d -25 Y -4 -26 d -6 -25 d -8 -25 d -9 -26 d -9 -20 d -3 -5 d -18 -26 d -14
 -23 d -3 -2 d -25 -26 d -8 -8 d -21 -17 d -15 -13 d -19 -12 d -17 -11 d -26 -15 d -10 -5 d -35 -15 d -14 -5 d -22 -6 d -36 -8 d -36 -6 d -36 9 d -3 11 d 3 1 d 36 17 d 9 7 d 27 13 d 18 13 d 18 10 d 21 15 d 15 11 d 17 14 d 18 18 d 9 8 d 22 25 d 5 8 d
 14 18 d 14 25 d 8 19 d 3 7 d 10 25 d 6 25 d 3 26 d 25 Y -2 26 d -5 25 d -8 26 d -7 13 d -4 12 d -13 25 d -19 25 d 1 Y -20 25 d -16 16 d -9 10 d -26 22 d -5 3 d -31 23 d -4 2 d -32 22 d -9 4 d -27 20 d -13 5 d 13 12 d 36 X 36 -6 d 23 -6 d cl s 0.35
 0.33 0.85 c[ 12 12] 0 sd 0.884975 0.752825 0.292488 c black 0.35 0.33 0.85 c 632 1265 m 35 16 d 1 X 35 8 d 36 7 d 36 5 d 36 4 d 36 X 35 -2 d 36 -4 d 36 -6 d 36 -7 d 18 -5 d 18 -6 d 36 -12 d 18 -7 d 17 -8 d 36 -17 d 1 -1 d 35 -22 d 5 -3 d 31 -23 d 3
 -3 d 28 -25 d 5 -4 d 18 -21 d 17 -20 d 4 -6 d 16 -25 d 16 -26 d 10 -25 d 8 -25 d 7 -26 d 5 -25 d 3 -26 d -1 -25 d -2 -26 d -6 -25 d -7 -25 d -8 -26 d -9 -21 d -2 -4 d -16 -26 d -16 -25 d -2 -3 d -20 -23 d -15 -17 d -9 -8 d -27 -25 d -35 -26 d -1 -1
 d -36 -21 d -5 -3 d -31 -15 d -23 -11 d -12 -4 d -36 -13 d -26 -8 d -10 -3 d -36 -7 d -36 -5 d -36 -5 d -35 -2 d -36 1 d -36 3 d -36 5 d -36 6 d -32 7 d -4 1 d -35 15 d -25 9 d -11 9 d -28 17 d -8 24 d -1 1 d 1 1 d 36 1 d 36 -1 d 8 -1 d 27 -2 d 36
 -1 d 36 1 d 19 2 d 17 1 d 36 4 d 36 7 d 35 9 d 12 5 d 24 7 d 36 15 d 5 3 d 31 16 d 15 9 d 21 14 d 15 12 d 21 18 d 7 7 d 22 26 d 6 8 d 12 17 d 14 26 d 9 25 d 1 3 d 7 22 d 3 26 d 1 25 d -3 26 d -7 25 d -1 3 d -7 23 d -13 25 d -16 23 d -1 2 d -21 26 d
 -13 13 d -14 12 d -22 18 d -11 8 d -25 16 d -18 9 d -18 9 d -36 15 d -5 1 d -31 11 d -35 9 d -33 6 d -3 1 d -36 5 d -36 3 d -36 1 d -36 X -35 -1 d -36 X -22 16 d 22 14 d 12 12 d 24 9 d cl s 0.0941176 0.666667 0.905882 c 0.977 0.977044 0.0583656 c
 black 0.0941176 0.666667 0.905882 c 1049 1230 m 13 -4 d 35 -15 d 12 -6 d 24 -13 d 19 -13 d 17 -11 d 18 -14 d 18 -14 d 10 -11 d 26 -26 d 16 -25 d 18 -26 d 1 -1 d 10 -24 d 9 -25 d 8 -26 d 6 -25 d 3 -26 d -25 Y -4 -26 d -6 -25 d -8 -25 d -9 -26 d -9
 -20 d -3 -5 d -18 -26 d -14 -23 d -3 -2 d -25 -26 d -8 -8 d -21 -17 d -15 -13 d -19 -12 d -17 -11 d -26 -15 d -10 -5 d -35 -15 d -14 -5 d -22 -6 d -36 -8 d -36 -6 d -36 9 d -3 11 d 3 1 d 36 17 d 9 7 d 27 13 d 18 13 d 18 10 d 21 15 d 15 11 d 17 14 d
 18 18 d 9 8 d 22 25 d 5 8 d 14 18 d 14 25 d 8 19 d 3 7 d 10 25 d 6 25 d 3 26 d 25 Y -2 26 d -5 25 d -8 26 d -7 13 d -4 12 d -13 25 d -19 25 d 1 Y -20 25 d -16 16 d -9 10 d -26 22 d -5 3 d -31 23 d -4 2 d -32 22 d -9 4 d -27 20 d -13 5 d 13 12 d 36 X
 36 -6 d 23 -6 d cl s black[  ] 0 sd 3 lw 363 1548 m 1791 X s 542 1509 m 39 Y s 632 1529 m 19 Y s 721 1529 m 19 Y s 811 1529 m 19 Y s 900 1509 m 39 Y s 990 1529 m 19 Y s 1079 1529 m 19 Y s 1169 1529 m 19 Y s 1259 1509 m 39 Y s 1348 1529 m 19 Y s 1438
 1529 m 19 Y s 1527 1529 m 19 Y s 1617 1509 m 39 Y s 1706 1529 m 19 Y s 1796 1529 m 19 Y s 1886 1529 m 19 Y s 1975 1509 m 39 Y s 542 1509 m 39 Y s 452 1529 m 19 Y s 1975 1509 m 39 Y s 2065 1529 m 19 Y s 363 277 m 1791 X s 542 316 m -39 Y s 632 296 m
 -19 Y s 721 296 m -19 Y s 811 296 m -19 Y s 900 316 m -39 Y s 990 296 m -19 Y s 1079 296 m -19 Y s 1169 296 m -19 Y s 1259 316 m -39 Y s 1348 296 m -19 Y s 1438 296 m -19 Y s 1527 296 m -19 Y s 1617 316 m -39 Y s 1706 296 m -19 Y s 1796 296 m -19 Y
 s 1886 296 m -19 Y s 1975 316 m -39 Y s 542 316 m -39 Y s 452 296 m -19 Y s 1975 316 m -39 Y s 2065 296 m -19 Y s
 gsave  2268 1630 0 0 C 458.671 190.876 t 0 r /Times-Roman findfont 94.0134 sf 0 0 m (0.004) show NC gr 
 gsave  2268 1630 0 0 C 410.24 190.876 t 0 r /Symbol findfont 94.0134 sf 0 0 m (-) show NC gr 
 gsave  2268 1630 0 0 C 817.631 190.876 t 0 r /Times-Roman findfont 94.0134 sf 0 0 m (0.002) show NC gr 
 gsave  2268 1630 0 0 C 769.2 190.876 t 0 r /Symbol findfont 94.0134 sf 0 0 m (-) show NC gr 
 gsave  2268 1630 0 0 C 1233.57 190.876 t 0 r /Times-Roman findfont 94.0134 sf 0 0 m (0) show NC gr 
 gsave  2268 1630 0 0 C 1509.91 190.876 t 0 r /Times-Roman findfont 94.0134 sf 0 0 m (0.002) show NC gr 
 gsave  2268 1630 0 0 C 1868.87 190.876 t 0 r /Times-Roman findfont 94.0134 sf 0 0 m (0.004) show NC gr  363 277 m 1271 Y s 416 404 m -53 X s 389 468 m -26 X s 389 531 m -26 X s 389 595 m -26 X s 416 658 m -53 X s 389 722 m -26 X s 389 785 m -26 X s
 389 849 m -26 X s 416 913 m -53 X s 389 976 m -26 X s 389 1040 m -26 X s 389 1103 m -26 X s 416 1167 m -53 X s 389 1230 m -26 X s 389 1294 m -26 X s 389 1357 m -26 X s 416 1421 m -53 X s 416 404 m -53 X s 389 341 m -26 X s 416 1421 m -53 X s 389
 1485 m -26 X s
 gsave  2268 1630 0 0 C 128.2 370.356 t 0 r /Times-Roman findfont 94.0134 sf 0 0 m (0.004) show NC gr 
 gsave  2268 1630 0 0 C 76.92 370.356 t 0 r /Symbol findfont 94.0134 sf 0 0 m (-) show NC gr 
 gsave  2268 1630 0 0 C 128.2 626.756 t 0 r /Times-Roman findfont 94.0134 sf 0 0 m (0.002) show NC gr 
 gsave  2268 1630 0 0 C 76.92 626.756 t 0 r /Symbol findfont 94.0134 sf 0 0 m (-) show NC gr 
 gsave  2268 1630 0 0 C 293.436 880.307 t 0 r /Times-Roman findfont 94.0134 sf 0 0 m (0) show NC gr 
 gsave  2268 1630 0 0 C 128.2 1133.86 t 0 r /Times-Roman findfont 94.0134 sf 0 0 m (0.002) show NC gr 
 gsave  2268 1630 0 0 C 128.2 1387.41 t 0 r /Times-Roman findfont 94.0134 sf 0 0 m (0.004) show NC gr  2154 277 m 1271 Y s 2101 404 m 53 X s 2128 468 m 26 X s 2128 531 m 26 X s 2128 595 m 26 X s 2101 658 m 53 X s 2128 722 m 26 X s 2128 785 m 26 X s
 2128 849 m 26 X s 2101 913 m 53 X s 2128 976 m 26 X s 2128 1040 m 26 X s 2128 1103 m 26 X s 2101 1167 m 53 X s 2128 1230 m 26 X s 2128 1294 m 26 X s 2128 1357 m 26 X s 2101 1421 m 53 X s 2101 404 m 53 X s 2128 341 m 26 X s 2101 1421 m 53 X s 2128
 1485 m 26 X s 0.35 0.33 0.85 c /w 36 def /w2 {w 2 div} def /w3 {w 3 div} def 1248 880 m31 black
 gsave  2268 1630 0 0 C 598.267 1316.19 t 0 r /Times-Roman findfont 76.92 sf 0 0 m (SMEFT Run2) show NC gr 
 gsave  2268 1630 0 0 C 1227.87 1324.73 t 0 r /Times-Roman findfont 119.653 sf 0 0 m (GammaCombo) show NC gr  0.6 0.6 0.6 c black 0.6 0.6 0.6 c
 gsave  2268 1630 0 0 C 407.391 330.471 t 0 r /Times-Roman findfont 56.9778 sf 0 0 m (contours hold 68%, 95% CL) show NC gr 
 gr  gr showpage
end
%%EOF
