%!PS-Adobe-2.0 EPSF-2.0
%%BoundingBox:  0 0 567 407
%%Title: plots/eps/HGamEFTScanner_cHW:cHWt_pTH_cg_cgt_full.eps: EFT Run 2 Scan of cHW:~cHW: pTH only
%%Creator: ROOT Version 6.08/02
%%CreationDate: Fri Nov 30 16:31:42 2018
%%DocumentNeededResources: ProcSet (FontSetInit)
%%EndComments
%%BeginProlog
80 dict begin
/s {stroke} def /l {lineto} def /m {moveto} def /t {translate} def
/r {rotate} def /rl {roll}  def /R {repeat} def
/d {rlineto} def /rm {rmoveto} def /gr {grestore} def /f {eofill} def
/c {setrgbcolor} def /black {0 setgray} def /sd {setdash} def
/cl {closepath} def /sf {scalefont setfont} def /lw {setlinewidth} def
/box {m dup 0 exch d exch 0 d 0 exch neg d cl} def
/NC{systemdict begin initclip end}def/C{NC box clip newpath}def
/bl {box s} def /bf {gsave box gsave f grestore 1 lw [] 0 sd s grestore} def /Y { 0 exch d} def /X { 0 d} def 
/K {{pop pop 0 moveto} exch kshow} bind def
/ita {/ang 15 def gsave [1 0 ang dup sin exch cos div 1 0 0] concat} def 
/mp {newpath /y exch def /x exch def} def
/side {[w .77 mul w .23 mul] .385 w mul sd w 0 l currentpoint t -144 r} def
/mr {mp x y w2 0 360 arc} def /m24 {mr s} def /m20 {mr f} def
/mb {mp x y w2 add m w2 neg 0 d 0 w neg d w 0 d 0 w d cl} def
/mt {mp x y w2 add m w2 neg w neg d w 0 d cl} def
/m21 {mb f} def /m25 {mb s} def /m22 {mt f} def /m26{mt s} def
/m23 {mp x y w2 sub m w2 w d w neg 0 d cl f} def
/m27 {mp x y w2 add m w3 neg w2 neg d w3 w2 neg d w3 w2 d cl s} def
/m28 {mp x w2 sub y w2 sub w3 add m w3 0 d  0 w3 neg d w3 0 d 0 w3 d w3 0 d  0 w3 d w3 neg 0 d 0 w3 d w3 neg 0 d 0 w3 neg d w3 neg 0 d cl s } def
/m29 {mp gsave x w2 sub y w2 add w3 sub m currentpoint t 4 {side} repeat cl fill gr} def
/m30 {mp gsave x w2 sub y w2 add w3 sub m currentpoint t 4 {side} repeat cl s gr} def
/m31 {mp x y w2 sub m 0 w d x w2 sub y m w 0 d x w2 sub y w2 add m w w neg d x w2 sub y w2 sub m w w d s} def
/m32 {mp x y w2 sub m w2 w d w neg 0 d cl s} def
/m33 {mp x y w2 add m w3 neg w2 neg d w3 w2 neg d w3 w2 d cl f} def
/m34 {mp x w2 sub y w2 sub w3 add m w3 0 d  0 w3 neg d w3 0 d 0 w3 d w3 0 d  0 w3 d w3 neg 0 d 0 w3 d w3 neg 0 d 0 w3 neg d w3 neg 0 d cl f } def
/m2 {mp x y w2 sub m 0 w d x w2 sub y m w 0 d s} def
/m5 {mp x w2 sub y w2 sub m w w d x w2 sub y w2 add m w w neg d s} def
%%IncludeResource: ProcSet (FontSetInit)
%%IncludeResource: font Times-Roman
%%IncludeResource: font Times-Italic
%%IncludeResource: font Times-Bold
%%IncludeResource: font Times-BoldItalic
%%IncludeResource: font Helvetica
%%IncludeResource: font Helvetica-Oblique
%%IncludeResource: font Helvetica-Bold
%%IncludeResource: font Helvetica-BoldOblique
%%IncludeResource: font Courier
%%IncludeResource: font Courier-Oblique
%%IncludeResource: font Courier-Bold
%%IncludeResource: font Courier-BoldOblique
%%IncludeResource: font Symbol
%%IncludeResource: font ZapfDingbats
/reEncode {exch findfont dup length dict begin {1 index /FID eq  {pop pop} {def} ifelse } forall /Encoding exch def currentdict end dup /FontName get exch definefont pop } def [/Times-Bold /Times-Italic /Times-BoldItalic /Helvetica /Helvetica-Oblique
 /Helvetica-Bold /Helvetica-BoldOblique /Courier /Courier-Oblique /Courier-Bold /Courier-BoldOblique /Times-Roman /AvantGarde-Book /AvantGarde-BookOblique /AvantGarde-Demi /AvantGarde-DemiOblique /Bookman-Demi /Bookman-DemiItalic /Bookman-Light
 /Bookman-LightItalic /Helvetica-Narrow /Helvetica-Narrow-Bold /Helvetica-Narrow-BoldOblique /Helvetica-Narrow-Oblique /NewCenturySchlbk-Roman /NewCenturySchlbk-Bold /NewCenturySchlbk-BoldItalic /NewCenturySchlbk-Italic /Palatino-Bold
 /Palatino-BoldItalic /Palatino-Italic /Palatino-Roman ] {ISOLatin1Encoding reEncode } forall
%%EndProlog
%%BeginSetup
%%EndSetup
newpath  gsave  .25 .25 scale  gsave  0 0 t black[  ] 0 sd 3 lw 1 1 1 c 2268 1630 0 0 bf black 1 1 1 c 1701 1304 227 163 bf black 1701 1304 227 163 bl 1 1 1 c 1701 1304 227 163 bf black 1701 1304 227 163 bl 1 1 1 c 0.198587 0.178884 0.551177 c 34 26
 227 163 bf 34 26 261 163 bf 34 26 295 163 bf 34 26 329 163 bf 34 26 363 163 bf 34 26 397 163 bf 34 26 431 163 bf 34 26 465 163 bf 34 26 499 163 bf 34 26 533 163 bf 34 26 567 163 bf 34 26 601 163 bf 34 26 635 163 bf 34 26 669 163 bf 34 26 703 163 bf
 34 26 737 163 bf 34 26 771 163 bf 34 26 805 163 bf 34 26 839 163 bf 34 26 873 163 bf 34 26 907 163 bf 34 26 941 163 bf 34 26 975 163 bf 34 26 1009 163 bf 34 26 1043 163 bf 34 26 1077 163 bf 34 26 1111 163 bf 34 26 1145 163 bf 34 26 1179 163 bf 34 26
 1213 163 bf 34 26 1247 163 bf 34 26 1281 163 bf 34 26 1315 163 bf 34 26 1349 163 bf 34 26 1383 163 bf 34 26 1417 163 bf 34 26 1451 163 bf 34 26 1485 163 bf 34 26 1519 163 bf 34 26 1553 163 bf 34 26 1587 163 bf 34 26 1621 163 bf 34 26 1655 163 bf 34
 26 1689 163 bf 34 26 1723 163 bf 34 26 1757 163 bf 35 26 1791 163 bf 34 26 1826 163 bf 34 26 1860 163 bf 34 26 1894 163 bf 34 26 227 189 bf 34 26 261 189 bf 34 26 295 189 bf 34 26 329 189 bf 34 26 363 189 bf 34 26 397 189 bf 34 26 431 189 bf 34 26
 465 189 bf 34 26 499 189 bf 34 26 533 189 bf 34 26 567 189 bf 34 26 601 189 bf 34 26 635 189 bf 34 26 669 189 bf 34 26 703 189 bf 34 26 737 189 bf 34 26 771 189 bf 34 26 805 189 bf 34 26 839 189 bf 34 26 873 189 bf 34 26 907 189 bf 34 26 941 189 bf
 34 26 975 189 bf 34 26 1009 189 bf 34 26 1043 189 bf 34 26 1077 189 bf 34 26 1111 189 bf 34 26 1145 189 bf 34 26 1179 189 bf 34 26 1213 189 bf 34 26 1247 189 bf 34 26 1281 189 bf 34 26 1315 189 bf 34 26 1349 189 bf 34 26 1383 189 bf 34 26 1417 189
 bf 34 26 1451 189 bf 34 26 1485 189 bf 34 26 1519 189 bf 34 26 1553 189 bf 34 26 1587 189 bf 34 26 1621 189 bf 34 26 1655 189 bf 34 26 1689 189 bf 34 26 1723 189 bf 34 26 1757 189 bf 35 26 1791 189 bf 34 26 1826 189 bf 34 26 1860 189 bf 34 26 1894
 189 bf 34 26 227 215 bf 34 26 261 215 bf 34 26 295 215 bf 34 26 329 215 bf 34 26 363 215 bf 34 26 397 215 bf 34 26 431 215 bf 34 26 465 215 bf 34 26 499 215 bf 34 26 533 215 bf 34 26 567 215 bf 34 26 601 215 bf 34 26 635 215 bf 34 26 669 215 bf 34
 26 703 215 bf 34 26 737 215 bf 34 26 771 215 bf 34 26 805 215 bf 34 26 839 215 bf 34 26 873 215 bf 34 26 907 215 bf 34 26 941 215 bf 34 26 975 215 bf 34 26 1009 215 bf 34 26 1043 215 bf 34 26 1077 215 bf 34 26 1111 215 bf 34 26 1145 215 bf 34 26
 1179 215 bf 34 26 1213 215 bf 34 26 1247 215 bf 34 26 1281 215 bf 34 26 1315 215 bf 34 26 1349 215 bf 34 26 1383 215 bf 34 26 1417 215 bf 34 26 1451 215 bf 34 26 1485 215 bf 34 26 1519 215 bf 34 26 1553 215 bf 34 26 1587 215 bf 34 26 1621 215 bf 34
 26 1655 215 bf 34 26 1689 215 bf 34 26 1723 215 bf 34 26 1757 215 bf 35 26 1791 215 bf 34 26 1826 215 bf 34 26 1860 215 bf 34 26 1894 215 bf 34 26 227 241 bf 34 26 261 241 bf 34 26 295 241 bf 34 26 329 241 bf 34 26 363 241 bf 34 26 397 241 bf 34 26
 431 241 bf 34 26 465 241 bf 34 26 499 241 bf 34 26 533 241 bf 34 26 567 241 bf 34 26 601 241 bf 34 26 635 241 bf 34 26 669 241 bf 34 26 703 241 bf 34 26 737 241 bf 34 26 771 241 bf 34 26 805 241 bf 34 26 839 241 bf 34 26 873 241 bf 34 26 907 241 bf
 34 26 941 241 bf 34 26 975 241 bf 34 26 1009 241 bf 34 26 1043 241 bf 34 26 1077 241 bf 34 26 1111 241 bf 34 26 1145 241 bf 34 26 1179 241 bf 34 26 1213 241 bf 34 26 1247 241 bf 34 26 1281 241 bf 34 26 1315 241 bf 34 26 1349 241 bf 34 26 1383 241 bf
 34 26 1417 241 bf 34 26 1451 241 bf 34 26 1485 241 bf 34 26 1519 241 bf 34 26 1553 241 bf 34 26 1587 241 bf 34 26 1621 241 bf 34 26 1655 241 bf 34 26 1689 241 bf 34 26 1723 241 bf 34 26 1757 241 bf 35 26 1791 241 bf 34 26 1826 241 bf 34 26 1860 241
 bf 34 26 1894 241 bf 34 26 227 267 bf 34 26 261 267 bf 34 26 295 267 bf 34 26 329 267 bf 34 26 363 267 bf 34 26 397 267 bf 34 26 431 267 bf 34 26 465 267 bf 34 26 499 267 bf 34 26 533 267 bf 34 26 567 267 bf 34 26 601 267 bf 34 26 635 267 bf 34 26
 669 267 bf 34 26 703 267 bf 34 26 737 267 bf 34 26 771 267 bf 34 26 805 267 bf 34 26 839 267 bf 34 26 873 267 bf 34 26 907 267 bf 34 26 941 267 bf 34 26 975 267 bf 34 26 1009 267 bf 34 26 1043 267 bf 34 26 1077 267 bf 34 26 1111 267 bf 34 26 1145
 267 bf 34 26 1179 267 bf 34 26 1213 267 bf 34 26 1247 267 bf 34 26 1281 267 bf 34 26 1315 267 bf 34 26 1349 267 bf 34 26 1383 267 bf 34 26 1417 267 bf 34 26 1451 267 bf 34 26 1485 267 bf 34 26 1519 267 bf 34 26 1553 267 bf 34 26 1587 267 bf 34 26
 1621 267 bf 34 26 1655 267 bf 34 26 1689 267 bf 34 26 1723 267 bf 34 26 1757 267 bf 35 26 1791 267 bf 34 26 1826 267 bf 34 26 1860 267 bf 34 26 1894 267 bf 34 26 227 293 bf 34 26 261 293 bf 34 26 295 293 bf 34 26 329 293 bf 34 26 363 293 bf 34 26
 397 293 bf 34 26 431 293 bf 34 26 465 293 bf 34 26 499 293 bf 34 26 533 293 bf 34 26 567 293 bf 34 26 601 293 bf 34 26 635 293 bf 34 26 669 293 bf 34 26 703 293 bf 34 26 737 293 bf 34 26 771 293 bf 34 26 805 293 bf 34 26 839 293 bf 34 26 873 293 bf
 34 26 907 293 bf 34 26 941 293 bf 34 26 975 293 bf 34 26 1009 293 bf 34 26 1043 293 bf 34 26 1077 293 bf 34 26 1111 293 bf 34 26 1145 293 bf 34 26 1179 293 bf 34 26 1213 293 bf 34 26 1247 293 bf 34 26 1281 293 bf 34 26 1315 293 bf 34 26 1349 293 bf
 34 26 1383 293 bf 34 26 1417 293 bf 34 26 1451 293 bf 34 26 1485 293 bf 34 26 1519 293 bf 34 26 1553 293 bf 34 26 1587 293 bf 34 26 1621 293 bf 34 26 1655 293 bf 34 26 1689 293 bf 34 26 1723 293 bf 34 26 1757 293 bf 35 26 1791 293 bf 34 26 1826 293
 bf 34 26 1860 293 bf 34 26 1894 293 bf 34 26 227 319 bf 34 26 261 319 bf 34 26 295 319 bf 34 26 329 319 bf 34 26 363 319 bf 34 26 397 319 bf 34 26 431 319 bf 34 26 465 319 bf 34 26 499 319 bf 34 26 533 319 bf 34 26 567 319 bf 34 26 601 319 bf 34 26
 635 319 bf 34 26 669 319 bf 34 26 703 319 bf 34 26 737 319 bf 34 26 771 319 bf 34 26 805 319 bf 34 26 839 319 bf 34 26 873 319 bf 34 26 907 319 bf 34 26 941 319 bf 34 26 975 319 bf 34 26 1009 319 bf 34 26 1043 319 bf 34 26 1077 319 bf 34 26 1111 319
 bf 34 26 1145 319 bf 34 26 1179 319 bf 34 26 1213 319 bf 34 26 1247 319 bf 34 26 1281 319 bf 34 26 1315 319 bf 34 26 1349 319 bf 34 26 1383 319 bf 34 26 1417 319 bf 34 26 1451 319 bf 34 26 1485 319 bf 34 26 1519 319 bf 34 26 1553 319 bf 34 26 1587
 319 bf 34 26 1621 319 bf 34 26 1655 319 bf 34 26 1689 319 bf 34 26 1723 319 bf 34 26 1757 319 bf 35 26 1791 319 bf 34 26 1826 319 bf 34 26 1860 319 bf 34 26 1894 319 bf 34 27 227 345 bf 34 27 261 345 bf 34 27 295 345 bf 34 27 329 345 bf 34 27 363
 345 bf 34 27 397 345 bf 34 27 431 345 bf 34 27 465 345 bf 34 27 499 345 bf 34 27 533 345 bf 34 27 567 345 bf 34 27 601 345 bf 34 27 635 345 bf 34 27 669 345 bf 34 27 703 345 bf 34 27 737 345 bf 34 27 771 345 bf 34 27 805 345 bf 34 27 839 345 bf 34
 27 873 345 bf 34 27 907 345 bf 34 27 941 345 bf 34 27 975 345 bf 34 27 1009 345 bf 34 27 1043 345 bf 34 27 1077 345 bf 34 27 1111 345 bf 34 27 1145 345 bf 34 27 1179 345 bf 34 27 1213 345 bf 34 27 1247 345 bf 34 27 1281 345 bf 34 27 1315 345 bf 34
 27 1349 345 bf 34 27 1383 345 bf 34 27 1417 345 bf 34 27 1451 345 bf 34 27 1485 345 bf 34 27 1519 345 bf 34 27 1553 345 bf 34 27 1587 345 bf 34 27 1621 345 bf 34 27 1655 345 bf 34 27 1689 345 bf 34 27 1723 345 bf 34 27 1757 345 bf 35 27 1791 345 bf
 34 27 1826 345 bf 34 27 1860 345 bf 34 27 1894 345 bf 34 26 227 372 bf 34 26 261 372 bf 34 26 295 372 bf 34 26 329 372 bf 34 26 363 372 bf 34 26 397 372 bf 34 26 431 372 bf 34 26 465 372 bf 34 26 499 372 bf 34 26 533 372 bf 34 26 567 372 bf 34 26
 601 372 bf 34 26 635 372 bf 34 26 669 372 bf 34 26 703 372 bf 34 26 737 372 bf 34 26 771 372 bf 34 26 805 372 bf 34 26 839 372 bf 34 26 873 372 bf 34 26 907 372 bf 34 26 941 372 bf 34 26 975 372 bf 34 26 1009 372 bf 34 26 1043 372 bf 34 26 1077 372
 bf 34 26 1111 372 bf 34 26 1145 372 bf 34 26 1179 372 bf 34 26 1213 372 bf 34 26 1247 372 bf 34 26 1281 372 bf 34 26 1315 372 bf 34 26 1349 372 bf 34 26 1383 372 bf 34 26 1417 372 bf 34 26 1451 372 bf 34 26 1485 372 bf 34 26 1519 372 bf 34 26 1553
 372 bf 34 26 1587 372 bf 34 26 1621 372 bf 34 26 1655 372 bf 34 26 1689 372 bf 34 26 1723 372 bf 34 26 1757 372 bf 35 26 1791 372 bf 34 26 1826 372 bf 34 26 1860 372 bf 34 26 1894 372 bf 34 26 227 398 bf 34 26 261 398 bf 34 26 295 398 bf 34 26 329
 398 bf 34 26 363 398 bf 34 26 397 398 bf 34 26 431 398 bf 34 26 465 398 bf 34 26 499 398 bf 34 26 533 398 bf 34 26 567 398 bf 34 26 601 398 bf 34 26 635 398 bf 34 26 669 398 bf 34 26 703 398 bf 34 26 737 398 bf 34 26 771 398 bf 34 26 805 398 bf 34
 26 839 398 bf 34 26 873 398 bf 34 26 907 398 bf 34 26 941 398 bf 34 26 975 398 bf 34 26 1009 398 bf 34 26 1043 398 bf 34 26 1077 398 bf 34 26 1111 398 bf 34 26 1145 398 bf 34 26 1179 398 bf 34 26 1213 398 bf 34 26 1247 398 bf 34 26 1281 398 bf 34 26
 1315 398 bf 34 26 1349 398 bf 34 26 1383 398 bf 34 26 1417 398 bf 34 26 1451 398 bf 34 26 1485 398 bf 34 26 1519 398 bf 34 26 1553 398 bf 34 26 1587 398 bf 34 26 1621 398 bf 34 26 1655 398 bf 34 26 1689 398 bf 34 26 1723 398 bf 34 26 1757 398 bf 35
 26 1791 398 bf 34 26 1826 398 bf 34 26 1860 398 bf 34 26 1894 398 bf 34 26 227 424 bf 34 26 261 424 bf 34 26 295 424 bf 34 26 329 424 bf 34 26 363 424 bf 34 26 397 424 bf 34 26 431 424 bf 34 26 465 424 bf 34 26 499 424 bf 34 26 533 424 bf 34 26 567
 424 bf 34 26 601 424 bf 34 26 635 424 bf 34 26 669 424 bf 34 26 703 424 bf 34 26 737 424 bf 34 26 771 424 bf 34 26 805 424 bf 34 26 839 424 bf 34 26 873 424 bf 34 26 907 424 bf 34 26 941 424 bf 34 26 975 424 bf 34 26 1009 424 bf 34 26 1043 424 bf 34
 26 1077 424 bf 34 26 1111 424 bf 34 26 1145 424 bf 34 26 1179 424 bf 34 26 1213 424 bf 34 26 1247 424 bf 34 26 1281 424 bf 34 26 1315 424 bf 34 26 1349 424 bf 34 26 1383 424 bf 34 26 1417 424 bf 34 26 1451 424 bf 34 26 1485 424 bf 34 26 1519 424 bf
 34 26 1553 424 bf 34 26 1587 424 bf 34 26 1621 424 bf 34 26 1655 424 bf 34 26 1689 424 bf 34 26 1723 424 bf 34 26 1757 424 bf 35 26 1791 424 bf 34 26 1826 424 bf 34 26 1860 424 bf 34 26 1894 424 bf 34 26 227 450 bf 34 26 261 450 bf 34 26 295 450 bf
 34 26 329 450 bf 34 26 363 450 bf 34 26 397 450 bf 34 26 431 450 bf 34 26 465 450 bf 34 26 499 450 bf 34 26 533 450 bf 34 26 567 450 bf 34 26 601 450 bf 34 26 635 450 bf 34 26 669 450 bf 34 26 703 450 bf 34 26 737 450 bf 34 26 771 450 bf 34 26 805
 450 bf 34 26 839 450 bf 34 26 873 450 bf 34 26 907 450 bf 34 26 941 450 bf 34 26 975 450 bf 34 26 1009 450 bf 34 26 1043 450 bf 34 26 1077 450 bf 34 26 1111 450 bf 34 26 1145 450 bf 34 26 1179 450 bf 34 26 1213 450 bf 34 26 1247 450 bf 34 26 1281
 450 bf 34 26 1315 450 bf 34 26 1349 450 bf 34 26 1383 450 bf 34 26 1417 450 bf 34 26 1451 450 bf 34 26 1485 450 bf 34 26 1519 450 bf 34 26 1553 450 bf 34 26 1587 450 bf 34 26 1621 450 bf 34 26 1655 450 bf 34 26 1689 450 bf 34 26 1723 450 bf 34 26
 1757 450 bf 35 26 1791 450 bf 34 26 1826 450 bf 34 26 1860 450 bf 34 26 1894 450 bf 34 26 227 476 bf 34 26 261 476 bf 34 26 295 476 bf 34 26 329 476 bf 34 26 363 476 bf 34 26 397 476 bf 34 26 431 476 bf 34 26 465 476 bf 34 26 499 476 bf 34 26 533
 476 bf 34 26 567 476 bf 34 26 601 476 bf 34 26 635 476 bf 34 26 669 476 bf 34 26 703 476 bf 34 26 737 476 bf 34 26 771 476 bf 34 26 805 476 bf 34 26 839 476 bf 34 26 873 476 bf 34 26 907 476 bf 34 26 941 476 bf 34 26 975 476 bf 34 26 1009 476 bf 34
 26 1043 476 bf 34 26 1077 476 bf 34 26 1111 476 bf 34 26 1145 476 bf 34 26 1179 476 bf 34 26 1213 476 bf 34 26 1247 476 bf 34 26 1281 476 bf 34 26 1315 476 bf 34 26 1349 476 bf 34 26 1383 476 bf 34 26 1417 476 bf 34 26 1451 476 bf 34 26 1485 476 bf
 34 26 1519 476 bf 34 26 1553 476 bf 34 26 1587 476 bf 34 26 1621 476 bf 34 26 1655 476 bf 34 26 1689 476 bf 34 26 1723 476 bf 34 26 1757 476 bf 35 26 1791 476 bf 34 26 1826 476 bf 34 26 1860 476 bf 34 26 1894 476 bf 34 26 227 502 bf 34 26 261 502 bf
 34 26 295 502 bf 34 26 329 502 bf 34 26 363 502 bf 34 26 397 502 bf 34 26 431 502 bf 34 26 465 502 bf 34 26 499 502 bf 34 26 533 502 bf 34 26 567 502 bf 34 26 601 502 bf 34 26 635 502 bf 34 26 669 502 bf 34 26 703 502 bf 34 26 737 502 bf 34 26 771
 502 bf 34 26 805 502 bf 34 26 839 502 bf 34 26 873 502 bf 34 26 907 502 bf 34 26 941 502 bf 34 26 975 502 bf 34 26 1009 502 bf 34 26 1043 502 bf 34 26 1077 502 bf 34 26 1111 502 bf 34 26 1145 502 bf 34 26 1179 502 bf 34 26 1213 502 bf 34 26 1247 502
 bf 34 26 1281 502 bf 34 26 1315 502 bf 34 26 1349 502 bf 34 26 1383 502 bf 34 26 1417 502 bf 34 26 1451 502 bf 34 26 1485 502 bf 34 26 1519 502 bf 34 26 1553 502 bf 34 26 1587 502 bf 34 26 1621 502 bf 34 26 1655 502 bf 34 26 1689 502 bf 34 26 1723
 502 bf 34 26 1757 502 bf 35 26 1791 502 bf 34 26 1826 502 bf 34 26 1860 502 bf 34 26 1894 502 bf 34 26 227 528 bf 34 26 261 528 bf 34 26 295 528 bf 34 26 329 528 bf 34 26 363 528 bf 34 26 397 528 bf 34 26 431 528 bf 34 26 465 528 bf 34 26 499 528 bf
 34 26 533 528 bf 34 26 567 528 bf 34 26 601 528 bf 34 26 635 528 bf 34 26 669 528 bf 34 26 703 528 bf 34 26 737 528 bf 34 26 771 528 bf 34 26 805 528 bf 34 26 839 528 bf 34 26 873 528 bf 34 26 907 528 bf 34 26 941 528 bf 34 26 975 528 bf 34 26 1009
 528 bf 34 26 1043 528 bf 34 26 1077 528 bf 34 26 1111 528 bf 34 26 1145 528 bf 34 26 1179 528 bf 34 26 1213 528 bf 34 26 1247 528 bf 34 26 1281 528 bf 34 26 1315 528 bf 34 26 1349 528 bf 34 26 1383 528 bf 34 26 1417 528 bf 34 26 1451 528 bf 34 26
 1485 528 bf 34 26 1519 528 bf 34 26 1553 528 bf 34 26 1587 528 bf 34 26 1621 528 bf 34 26 1655 528 bf 34 26 1689 528 bf 34 26 1723 528 bf 34 26 1757 528 bf 35 26 1791 528 bf 34 26 1826 528 bf 34 26 1860 528 bf 34 26 1894 528 bf 34 26 227 554 bf 34
 26 261 554 bf 34 26 295 554 bf 34 26 329 554 bf 34 26 363 554 bf 34 26 397 554 bf 34 26 431 554 bf 34 26 465 554 bf 34 26 499 554 bf 34 26 533 554 bf 34 26 567 554 bf 34 26 601 554 bf 34 26 635 554 bf 34 26 669 554 bf 34 26 703 554 bf 34 26 737 554
 bf 34 26 771 554 bf 34 26 805 554 bf 34 26 839 554 bf 34 26 873 554 bf 34 26 907 554 bf 34 26 941 554 bf 34 26 975 554 bf 34 26 1009 554 bf 34 26 1043 554 bf 34 26 1077 554 bf 34 26 1111 554 bf 34 26 1145 554 bf 34 26 1179 554 bf 34 26 1213 554 bf
 34 26 1247 554 bf 34 26 1281 554 bf 34 26 1315 554 bf 34 26 1349 554 bf 34 26 1383 554 bf 34 26 1417 554 bf 34 26 1451 554 bf 34 26 1485 554 bf 34 26 1519 554 bf 34 26 1553 554 bf 34 26 1587 554 bf 34 26 1621 554 bf 34 26 1655 554 bf 34 26 1689 554
 bf 34 26 1723 554 bf 34 26 1757 554 bf 35 26 1791 554 bf 34 26 1826 554 bf 34 26 1860 554 bf 34 26 1894 554 bf 34 26 227 580 bf 34 26 261 580 bf 34 26 295 580 bf 34 26 329 580 bf 34 26 363 580 bf 34 26 397 580 bf 34 26 431 580 bf 34 26 465 580 bf 34
 26 499 580 bf 34 26 533 580 bf 34 26 567 580 bf 34 26 601 580 bf 34 26 635 580 bf 34 26 669 580 bf 34 26 703 580 bf 34 26 737 580 bf 34 26 771 580 bf 34 26 805 580 bf 34 26 839 580 bf 34 26 873 580 bf 34 26 907 580 bf 34 26 941 580 bf 34 26 975 580
 bf 34 26 1009 580 bf 34 26 1043 580 bf 34 26 1077 580 bf 34 26 1111 580 bf 34 26 1145 580 bf 34 26 1179 580 bf 34 26 1213 580 bf 34 26 1247 580 bf 34 26 1281 580 bf 34 26 1315 580 bf 34 26 1349 580 bf 34 26 1383 580 bf 34 26 1417 580 bf 34 26 1451
 580 bf 34 26 1485 580 bf 34 26 1519 580 bf 34 26 1553 580 bf 34 26 1587 580 bf 34 26 1621 580 bf 34 26 1655 580 bf 34 26 1689 580 bf 34 26 1723 580 bf 34 26 1757 580 bf 35 26 1791 580 bf 34 26 1826 580 bf 34 26 1860 580 bf 34 26 1894 580 bf 34 26
 227 606 bf 34 26 261 606 bf 34 26 295 606 bf 34 26 329 606 bf 34 26 363 606 bf 34 26 397 606 bf 34 26 431 606 bf 34 26 465 606 bf 34 26 499 606 bf 34 26 533 606 bf 34 26 567 606 bf 34 26 601 606 bf 34 26 635 606 bf 34 26 669 606 bf 34 26 703 606 bf
 34 26 737 606 bf 34 26 771 606 bf 34 26 805 606 bf 34 26 839 606 bf 34 26 873 606 bf 34 26 907 606 bf 34 26 941 606 bf 34 26 975 606 bf 34 26 1009 606 bf 34 26 1043 606 bf 34 26 1077 606 bf 34 26 1111 606 bf 34 26 1145 606 bf 34 26 1179 606 bf 34 26
 1213 606 bf 34 26 1247 606 bf 34 26 1281 606 bf 34 26 1315 606 bf 34 26 1349 606 bf 34 26 1383 606 bf 34 26 1417 606 bf 34 26 1451 606 bf 34 26 1485 606 bf 34 26 1519 606 bf 34 26 1553 606 bf 34 26 1587 606 bf 34 26 1621 606 bf 34 26 1655 606 bf 34
 26 1689 606 bf 34 26 1723 606 bf 34 26 1757 606 bf 35 26 1791 606 bf 34 26 1826 606 bf 34 26 1860 606 bf 34 26 1894 606 bf 34 26 227 632 bf 34 26 261 632 bf 34 26 295 632 bf 34 26 329 632 bf 34 26 363 632 bf 34 26 397 632 bf 34 26 431 632 bf 34 26
 465 632 bf 34 26 499 632 bf 34 26 533 632 bf 34 26 567 632 bf 34 26 601 632 bf 34 26 635 632 bf 34 26 669 632 bf 34 26 703 632 bf 34 26 737 632 bf 34 26 771 632 bf 34 26 805 632 bf 34 26 839 632 bf 34 26 873 632 bf 34 26 907 632 bf 34 26 941 632 bf
 34 26 975 632 bf 34 26 1009 632 bf 34 26 1043 632 bf 34 26 1077 632 bf 34 26 1111 632 bf 34 26 1145 632 bf 34 26 1179 632 bf 34 26 1213 632 bf 34 26 1247 632 bf 34 26 1281 632 bf 34 26 1315 632 bf 34 26 1349 632 bf 34 26 1383 632 bf 34 26 1417 632
 bf 34 26 1451 632 bf 34 26 1485 632 bf 34 26 1519 632 bf 34 26 1553 632 bf 34 26 1587 632 bf 34 26 1621 632 bf 34 26 1655 632 bf 34 26 1689 632 bf 34 26 1723 632 bf 34 26 1757 632 bf 35 26 1791 632 bf 34 26 1826 632 bf 34 26 1860 632 bf 34 26 1894
 632 bf 34 26 227 658 bf 34 26 261 658 bf 34 26 295 658 bf 34 26 329 658 bf 34 26 363 658 bf 34 26 397 658 bf 34 26 431 658 bf 34 26 465 658 bf 34 26 499 658 bf 34 26 533 658 bf 34 26 567 658 bf 34 26 601 658 bf 34 26 635 658 bf 34 26 669 658 bf 34
 26 703 658 bf 34 26 737 658 bf 34 26 771 658 bf 34 26 805 658 bf 34 26 839 658 bf 34 26 873 658 bf 34 26 907 658 bf 34 26 941 658 bf 34 26 975 658 bf 34 26 1009 658 bf 34 26 1043 658 bf 34 26 1077 658 bf 34 26 1111 658 bf 34 26 1145 658 bf 34 26
 1179 658 bf 34 26 1213 658 bf 34 26 1247 658 bf 34 26 1281 658 bf 34 26 1315 658 bf 34 26 1349 658 bf 34 26 1383 658 bf 34 26 1417 658 bf 34 26 1451 658 bf 34 26 1485 658 bf 34 26 1519 658 bf 34 26 1553 658 bf 34 26 1587 658 bf 34 26 1621 658 bf 34
 26 1655 658 bf 34 26 1689 658 bf 34 26 1723 658 bf 34 26 1757 658 bf 35 26 1791 658 bf 34 26 1826 658 bf 34 26 1860 658 bf 34 26 1894 658 bf 34 26 227 684 bf 34 26 261 684 bf 34 26 295 684 bf 34 26 329 684 bf 34 26 363 684 bf 34 26 397 684 bf 34 26
 431 684 bf 34 26 465 684 bf 34 26 499 684 bf 34 26 533 684 bf 34 26 567 684 bf 34 26 601 684 bf 34 26 635 684 bf 34 26 669 684 bf 34 26 703 684 bf 34 26 737 684 bf 34 26 771 684 bf 34 26 805 684 bf 34 26 839 684 bf 34 26 873 684 bf 34 26 907 684 bf
 34 26 941 684 bf 34 26 975 684 bf 34 26 1009 684 bf 34 26 1043 684 bf 34 26 1077 684 bf 34 26 1111 684 bf 34 26 1145 684 bf 34 26 1179 684 bf 34 26 1213 684 bf 34 26 1247 684 bf 34 26 1281 684 bf 34 26 1315 684 bf 34 26 1349 684 bf 34 26 1383 684 bf
 34 26 1417 684 bf 34 26 1451 684 bf 34 26 1485 684 bf 34 26 1519 684 bf 34 26 1553 684 bf 34 26 1587 684 bf 34 26 1621 684 bf 34 26 1655 684 bf 34 26 1689 684 bf 34 26 1723 684 bf 34 26 1757 684 bf 35 26 1791 684 bf 34 26 1826 684 bf 34 26 1860 684
 bf 34 26 1894 684 bf 34 27 227 710 bf 34 27 261 710 bf 34 27 295 710 bf 34 27 329 710 bf 34 27 363 710 bf 34 27 397 710 bf 34 27 431 710 bf 34 27 465 710 bf 34 27 499 710 bf 34 27 533 710 bf 34 27 567 710 bf 34 27 601 710 bf 34 27 635 710 bf 34 27
 669 710 bf 34 27 703 710 bf 34 27 737 710 bf 34 27 771 710 bf 34 27 805 710 bf 34 27 839 710 bf 34 27 873 710 bf 34 27 907 710 bf 34 27 941 710 bf 34 27 975 710 bf 34 27 1009 710 bf 34 27 1043 710 bf 34 27 1077 710 bf 34 27 1111 710 bf 34 27 1145
 710 bf 34 27 1179 710 bf 34 27 1213 710 bf 34 27 1247 710 bf 34 27 1281 710 bf 34 27 1315 710 bf 34 27 1349 710 bf 34 27 1383 710 bf 34 27 1417 710 bf 34 27 1451 710 bf 34 27 1485 710 bf 34 27 1519 710 bf 34 27 1553 710 bf 34 27 1587 710 bf 34 27
 1621 710 bf 34 27 1655 710 bf 34 27 1689 710 bf 34 27 1723 710 bf 34 27 1757 710 bf 35 27 1791 710 bf 34 27 1826 710 bf 34 27 1860 710 bf 34 27 1894 710 bf 34 26 227 737 bf 34 26 261 737 bf 34 26 295 737 bf 34 26 329 737 bf 34 26 363 737 bf 34 26
 397 737 bf 34 26 431 737 bf 34 26 465 737 bf 34 26 499 737 bf 34 26 533 737 bf 34 26 567 737 bf 34 26 601 737 bf 34 26 635 737 bf 34 26 669 737 bf 34 26 703 737 bf 34 26 737 737 bf 34 26 771 737 bf 34 26 805 737 bf 34 26 839 737 bf 34 26 873 737 bf
 34 26 907 737 bf 34 26 941 737 bf 34 26 975 737 bf 34 26 1009 737 bf 34 26 1043 737 bf 34 26 1077 737 bf 34 26 1111 737 bf 34 26 1145 737 bf 34 26 1179 737 bf 34 26 1213 737 bf 34 26 1247 737 bf 34 26 1281 737 bf 34 26 1315 737 bf 34 26 1349 737 bf
 34 26 1383 737 bf 34 26 1417 737 bf 34 26 1451 737 bf 34 26 1485 737 bf 34 26 1519 737 bf 34 26 1553 737 bf 34 26 1587 737 bf 34 26 1621 737 bf 34 26 1655 737 bf 34 26 1689 737 bf 34 26 1723 737 bf 34 26 1757 737 bf 35 26 1791 737 bf 34 26 1826 737
 bf 34 26 1860 737 bf 34 26 1894 737 bf 34 26 227 763 bf 34 26 261 763 bf 34 26 295 763 bf 34 26 329 763 bf 34 26 363 763 bf 34 26 397 763 bf 34 26 431 763 bf 34 26 465 763 bf 34 26 499 763 bf 34 26 533 763 bf 34 26 567 763 bf 34 26 601 763 bf 34 26
 635 763 bf 34 26 669 763 bf 34 26 703 763 bf 34 26 737 763 bf 34 26 771 763 bf 34 26 805 763 bf 34 26 839 763 bf 34 26 873 763 bf 34 26 907 763 bf 34 26 941 763 bf 34 26 975 763 bf 34 26 1009 763 bf 0.977 0.977044 0.0583656 c 34 26 1043 763 bf
 0.9782 0.964731 0.0672969 c 34 26 1077 763 bf 0.198587 0.178884 0.551177 c 34 26 1111 763 bf 34 26 1145 763 bf 34 26 1179 763 bf 34 26 1213 763 bf 34 26 1247 763 bf 34 26 1281 763 bf 34 26 1315 763 bf 34 26 1349 763 bf 34 26 1383 763 bf 34 26 1417
 763 bf 34 26 1451 763 bf 34 26 1485 763 bf 34 26 1519 763 bf 34 26 1553 763 bf 34 26 1587 763 bf 34 26 1621 763 bf 34 26 1655 763 bf 34 26 1689 763 bf 34 26 1723 763 bf 34 26 1757 763 bf 35 26 1791 763 bf 34 26 1826 763 bf 34 26 1860 763 bf 34 26
 1894 763 bf 34 26 227 789 bf 34 26 261 789 bf 34 26 295 789 bf 34 26 329 789 bf 34 26 363 789 bf 34 26 397 789 bf 34 26 431 789 bf 34 26 465 789 bf 34 26 499 789 bf 34 26 533 789 bf 34 26 567 789 bf 34 26 601 789 bf 34 26 635 789 bf 34 26 669 789 bf
 34 26 703 789 bf 34 26 737 789 bf 34 26 771 789 bf 34 26 805 789 bf 34 26 839 789 bf 34 26 873 789 bf 34 26 907 789 bf 34 26 941 789 bf 0.0644875 0.400456 0.859991 c 34 26 975 789 bf 0.198587 0.178884 0.551177 c 34 26 1009 789 bf 0.0832323 0.32869
 0.813706 c 34 26 1043 789 bf 0.107265 0.297481 0.759013 c 34 26 1077 789 bf 0.198587 0.178884 0.551177 c 34 26 1111 789 bf 34 26 1145 789 bf 34 26 1179 789 bf 34 26 1213 789 bf 34 26 1247 789 bf 34 26 1281 789 bf 34 26 1315 789 bf 34 26 1349 789 bf
 34 26 1383 789 bf 34 26 1417 789 bf 34 26 1451 789 bf 34 26 1485 789 bf 34 26 1519 789 bf 34 26 1553 789 bf 34 26 1587 789 bf 34 26 1621 789 bf 34 26 1655 789 bf 34 26 1689 789 bf 34 26 1723 789 bf 34 26 1757 789 bf 35 26 1791 789 bf 34 26 1826 789
 bf 34 26 1860 789 bf 34 26 1894 789 bf 34 26 227 815 bf 34 26 261 815 bf 34 26 295 815 bf 34 26 329 815 bf 34 26 363 815 bf 34 26 397 815 bf 34 26 431 815 bf 34 26 465 815 bf 34 26 499 815 bf 34 26 533 815 bf 34 26 567 815 bf 34 26 601 815 bf 34 26
 635 815 bf 34 26 669 815 bf 34 26 703 815 bf 34 26 737 815 bf 34 26 771 815 bf 34 26 805 815 bf 34 26 839 815 bf 34 26 873 815 bf 34 26 907 815 bf 34 26 941 815 bf 0.0644875 0.400456 0.859991 c 34 26 975 815 bf 0.198587 0.178884 0.551177 c 34 26
 1009 815 bf 0.0832323 0.32869 0.813706 c 34 26 1043 815 bf 0.107265 0.297481 0.759013 c 34 26 1077 815 bf 0.198587 0.178884 0.551177 c 34 26 1111 815 bf 34 26 1145 815 bf 34 26 1179 815 bf 34 26 1213 815 bf 34 26 1247 815 bf 34 26 1281 815 bf 34 26
 1315 815 bf 34 26 1349 815 bf 34 26 1383 815 bf 34 26 1417 815 bf 34 26 1451 815 bf 34 26 1485 815 bf 34 26 1519 815 bf 34 26 1553 815 bf 34 26 1587 815 bf 34 26 1621 815 bf 34 26 1655 815 bf 34 26 1689 815 bf 34 26 1723 815 bf 34 26 1757 815 bf 35
 26 1791 815 bf 34 26 1826 815 bf 34 26 1860 815 bf 34 26 1894 815 bf 34 26 227 841 bf 34 26 261 841 bf 34 26 295 841 bf 34 26 329 841 bf 34 26 363 841 bf 34 26 397 841 bf 34 26 431 841 bf 34 26 465 841 bf 34 26 499 841 bf 34 26 533 841 bf 34 26 567
 841 bf 34 26 601 841 bf 34 26 635 841 bf 34 26 669 841 bf 34 26 703 841 bf 34 26 737 841 bf 34 26 771 841 bf 34 26 805 841 bf 34 26 839 841 bf 34 26 873 841 bf 34 26 907 841 bf 34 26 941 841 bf 34 26 975 841 bf 34 26 1009 841 bf 34 26 1043 841 bf 34
 26 1077 841 bf 34 26 1111 841 bf 34 26 1145 841 bf 34 26 1179 841 bf 34 26 1213 841 bf 34 26 1247 841 bf 34 26 1281 841 bf 34 26 1315 841 bf 34 26 1349 841 bf 34 26 1383 841 bf 34 26 1417 841 bf 34 26 1451 841 bf 34 26 1485 841 bf 34 26 1519 841 bf
 34 26 1553 841 bf 34 26 1587 841 bf 34 26 1621 841 bf 34 26 1655 841 bf 34 26 1689 841 bf 34 26 1723 841 bf 34 26 1757 841 bf 35 26 1791 841 bf 34 26 1826 841 bf 34 26 1860 841 bf 34 26 1894 841 bf 34 26 227 867 bf 34 26 261 867 bf 34 26 295 867 bf
 34 26 329 867 bf 34 26 363 867 bf 34 26 397 867 bf 34 26 431 867 bf 34 26 465 867 bf 34 26 499 867 bf 34 26 533 867 bf 34 26 567 867 bf 34 26 601 867 bf 34 26 635 867 bf 34 26 669 867 bf 34 26 703 867 bf 34 26 737 867 bf 34 26 771 867 bf 34 26 805
 867 bf 34 26 839 867 bf 34 26 873 867 bf 34 26 907 867 bf 34 26 941 867 bf 34 26 975 867 bf 34 26 1009 867 bf 34 26 1043 867 bf 34 26 1077 867 bf 34 26 1111 867 bf 34 26 1145 867 bf 34 26 1179 867 bf 34 26 1213 867 bf 34 26 1247 867 bf 34 26 1281
 867 bf 34 26 1315 867 bf 34 26 1349 867 bf 34 26 1383 867 bf 34 26 1417 867 bf 34 26 1451 867 bf 34 26 1485 867 bf 34 26 1519 867 bf 34 26 1553 867 bf 34 26 1587 867 bf 34 26 1621 867 bf 34 26 1655 867 bf 34 26 1689 867 bf 34 26 1723 867 bf 34 26
 1757 867 bf 35 26 1791 867 bf 34 26 1826 867 bf 34 26 1860 867 bf 34 26 1894 867 bf 34 26 227 893 bf 34 26 261 893 bf 34 26 295 893 bf 34 26 329 893 bf 34 26 363 893 bf 34 26 397 893 bf 34 26 431 893 bf 34 26 465 893 bf 34 26 499 893 bf 34 26 533
 893 bf 34 26 567 893 bf 34 26 601 893 bf 34 26 635 893 bf 34 26 669 893 bf 34 26 703 893 bf 34 26 737 893 bf 34 26 771 893 bf 34 26 805 893 bf 34 26 839 893 bf 34 26 873 893 bf 34 26 907 893 bf 34 26 941 893 bf 34 26 975 893 bf 34 26 1009 893 bf 34
 26 1043 893 bf 34 26 1077 893 bf 34 26 1111 893 bf 34 26 1145 893 bf 34 26 1179 893 bf 34 26 1213 893 bf 34 26 1247 893 bf 34 26 1281 893 bf 34 26 1315 893 bf 34 26 1349 893 bf 34 26 1383 893 bf 34 26 1417 893 bf 34 26 1451 893 bf 34 26 1485 893 bf
 34 26 1519 893 bf 34 26 1553 893 bf 34 26 1587 893 bf 34 26 1621 893 bf 34 26 1655 893 bf 34 26 1689 893 bf 34 26 1723 893 bf 34 26 1757 893 bf 35 26 1791 893 bf 34 26 1826 893 bf 34 26 1860 893 bf 34 26 1894 893 bf 34 26 227 919 bf 34 26 261 919 bf
 34 26 295 919 bf 34 26 329 919 bf 34 26 363 919 bf 34 26 397 919 bf 34 26 431 919 bf 34 26 465 919 bf 34 26 499 919 bf 34 26 533 919 bf 34 26 567 919 bf 34 26 601 919 bf 34 26 635 919 bf 34 26 669 919 bf 34 26 703 919 bf 34 26 737 919 bf 34 26 771
 919 bf 34 26 805 919 bf 34 26 839 919 bf 34 26 873 919 bf 34 26 907 919 bf 34 26 941 919 bf 34 26 975 919 bf 34 26 1009 919 bf 34 26 1043 919 bf 34 26 1077 919 bf 34 26 1111 919 bf 34 26 1145 919 bf 34 26 1179 919 bf 34 26 1213 919 bf 34 26 1247 919
 bf 34 26 1281 919 bf 34 26 1315 919 bf 34 26 1349 919 bf 34 26 1383 919 bf 34 26 1417 919 bf 34 26 1451 919 bf 34 26 1485 919 bf 34 26 1519 919 bf 34 26 1553 919 bf 34 26 1587 919 bf 34 26 1621 919 bf 34 26 1655 919 bf 34 26 1689 919 bf 34 26 1723
 919 bf 34 26 1757 919 bf 35 26 1791 919 bf 34 26 1826 919 bf 34 26 1860 919 bf 34 26 1894 919 bf 34 26 227 945 bf 34 26 261 945 bf 34 26 295 945 bf 34 26 329 945 bf 34 26 363 945 bf 34 26 397 945 bf 34 26 431 945 bf 34 26 465 945 bf 34 26 499 945 bf
 34 26 533 945 bf 34 26 567 945 bf 34 26 601 945 bf 34 26 635 945 bf 34 26 669 945 bf 34 26 703 945 bf 34 26 737 945 bf 34 26 771 945 bf 34 26 805 945 bf 34 26 839 945 bf 34 26 873 945 bf 34 26 907 945 bf 34 26 941 945 bf 34 26 975 945 bf 34 26 1009
 945 bf 34 26 1043 945 bf 34 26 1077 945 bf 34 26 1111 945 bf 34 26 1145 945 bf 34 26 1179 945 bf 34 26 1213 945 bf 34 26 1247 945 bf 34 26 1281 945 bf 34 26 1315 945 bf 34 26 1349 945 bf 34 26 1383 945 bf 34 26 1417 945 bf 34 26 1451 945 bf 34 26
 1485 945 bf 34 26 1519 945 bf 34 26 1553 945 bf 34 26 1587 945 bf 34 26 1621 945 bf 34 26 1655 945 bf 34 26 1689 945 bf 34 26 1723 945 bf 34 26 1757 945 bf 35 26 1791 945 bf 34 26 1826 945 bf 34 26 1860 945 bf 34 26 1894 945 bf 34 26 227 971 bf 34
 26 261 971 bf 34 26 295 971 bf 34 26 329 971 bf 34 26 363 971 bf 34 26 397 971 bf 34 26 431 971 bf 34 26 465 971 bf 34 26 499 971 bf 34 26 533 971 bf 34 26 567 971 bf 34 26 601 971 bf 34 26 635 971 bf 34 26 669 971 bf 34 26 703 971 bf 34 26 737 971
 bf 34 26 771 971 bf 34 26 805 971 bf 34 26 839 971 bf 34 26 873 971 bf 34 26 907 971 bf 34 26 941 971 bf 34 26 975 971 bf 34 26 1009 971 bf 34 26 1043 971 bf 34 26 1077 971 bf 34 26 1111 971 bf 34 26 1145 971 bf 34 26 1179 971 bf 34 26 1213 971 bf
 34 26 1247 971 bf 34 26 1281 971 bf 34 26 1315 971 bf 34 26 1349 971 bf 34 26 1383 971 bf 34 26 1417 971 bf 34 26 1451 971 bf 34 26 1485 971 bf 34 26 1519 971 bf 34 26 1553 971 bf 34 26 1587 971 bf 34 26 1621 971 bf 34 26 1655 971 bf 34 26 1689 971
 bf 34 26 1723 971 bf 34 26 1757 971 bf 35 26 1791 971 bf 34 26 1826 971 bf 34 26 1860 971 bf 34 26 1894 971 bf 34 26 227 997 bf 34 26 261 997 bf 34 26 295 997 bf 34 26 329 997 bf 34 26 363 997 bf 34 26 397 997 bf 34 26 431 997 bf 34 26 465 997 bf 34
 26 499 997 bf 34 26 533 997 bf 34 26 567 997 bf 34 26 601 997 bf 34 26 635 997 bf 34 26 669 997 bf 34 26 703 997 bf 34 26 737 997 bf 34 26 771 997 bf 34 26 805 997 bf 34 26 839 997 bf 34 26 873 997 bf 34 26 907 997 bf 34 26 941 997 bf 34 26 975 997
 bf 34 26 1009 997 bf 34 26 1043 997 bf 34 26 1077 997 bf 34 26 1111 997 bf 34 26 1145 997 bf 34 26 1179 997 bf 34 26 1213 997 bf 34 26 1247 997 bf 34 26 1281 997 bf 34 26 1315 997 bf 34 26 1349 997 bf 34 26 1383 997 bf 34 26 1417 997 bf 34 26 1451
 997 bf 34 26 1485 997 bf 34 26 1519 997 bf 34 26 1553 997 bf 34 26 1587 997 bf 34 26 1621 997 bf 34 26 1655 997 bf 34 26 1689 997 bf 34 26 1723 997 bf 34 26 1757 997 bf 35 26 1791 997 bf 34 26 1826 997 bf 34 26 1860 997 bf 34 26 1894 997 bf 34 26
 227 1023 bf 34 26 261 1023 bf 34 26 295 1023 bf 34 26 329 1023 bf 34 26 363 1023 bf 34 26 397 1023 bf 34 26 431 1023 bf 34 26 465 1023 bf 34 26 499 1023 bf 34 26 533 1023 bf 34 26 567 1023 bf 34 26 601 1023 bf 34 26 635 1023 bf 34 26 669 1023 bf 34
 26 703 1023 bf 34 26 737 1023 bf 34 26 771 1023 bf 34 26 805 1023 bf 34 26 839 1023 bf 34 26 873 1023 bf 34 26 907 1023 bf 34 26 941 1023 bf 34 26 975 1023 bf 34 26 1009 1023 bf 34 26 1043 1023 bf 34 26 1077 1023 bf 34 26 1111 1023 bf 34 26 1145
 1023 bf 34 26 1179 1023 bf 34 26 1213 1023 bf 34 26 1247 1023 bf 34 26 1281 1023 bf 34 26 1315 1023 bf 34 26 1349 1023 bf 34 26 1383 1023 bf 34 26 1417 1023 bf 34 26 1451 1023 bf 34 26 1485 1023 bf 34 26 1519 1023 bf 34 26 1553 1023 bf 34 26 1587
 1023 bf 34 26 1621 1023 bf 34 26 1655 1023 bf 34 26 1689 1023 bf 34 26 1723 1023 bf 34 26 1757 1023 bf 35 26 1791 1023 bf 34 26 1826 1023 bf 34 26 1860 1023 bf 34 26 1894 1023 bf 34 27 227 1049 bf 34 27 261 1049 bf 34 27 295 1049 bf 34 27 329 1049
 bf 34 27 363 1049 bf 34 27 397 1049 bf 34 27 431 1049 bf 34 27 465 1049 bf 34 27 499 1049 bf 34 27 533 1049 bf 34 27 567 1049 bf 34 27 601 1049 bf 34 27 635 1049 bf 34 27 669 1049 bf 34 27 703 1049 bf 34 27 737 1049 bf 34 27 771 1049 bf 34 27 805
 1049 bf 34 27 839 1049 bf 34 27 873 1049 bf 34 27 907 1049 bf 34 27 941 1049 bf 34 27 975 1049 bf 34 27 1009 1049 bf 34 27 1043 1049 bf 34 27 1077 1049 bf 34 27 1111 1049 bf 34 27 1145 1049 bf 34 27 1179 1049 bf 34 27 1213 1049 bf 34 27 1247 1049 bf
 34 27 1281 1049 bf 34 27 1315 1049 bf 34 27 1349 1049 bf 34 27 1383 1049 bf 34 27 1417 1049 bf 34 27 1451 1049 bf 34 27 1485 1049 bf 34 27 1519 1049 bf 34 27 1553 1049 bf 34 27 1587 1049 bf 34 27 1621 1049 bf 34 27 1655 1049 bf 34 27 1689 1049 bf 34
 27 1723 1049 bf 34 27 1757 1049 bf 35 27 1791 1049 bf 34 27 1826 1049 bf 34 27 1860 1049 bf 34 27 1894 1049 bf 34 26 227 1076 bf 34 26 261 1076 bf 34 26 295 1076 bf 34 26 329 1076 bf 34 26 363 1076 bf 34 26 397 1076 bf 34 26 431 1076 bf 34 26 465
 1076 bf 34 26 499 1076 bf 34 26 533 1076 bf 34 26 567 1076 bf 34 26 601 1076 bf 34 26 635 1076 bf 34 26 669 1076 bf 34 26 703 1076 bf 34 26 737 1076 bf 34 26 771 1076 bf 34 26 805 1076 bf 34 26 839 1076 bf 34 26 873 1076 bf 34 26 907 1076 bf 34 26
 941 1076 bf 34 26 975 1076 bf 34 26 1009 1076 bf 34 26 1043 1076 bf 34 26 1077 1076 bf 34 26 1111 1076 bf 34 26 1145 1076 bf 34 26 1179 1076 bf 34 26 1213 1076 bf 34 26 1247 1076 bf 34 26 1281 1076 bf 34 26 1315 1076 bf 34 26 1349 1076 bf 34 26 1383
 1076 bf 34 26 1417 1076 bf 34 26 1451 1076 bf 34 26 1485 1076 bf 34 26 1519 1076 bf 34 26 1553 1076 bf 34 26 1587 1076 bf 34 26 1621 1076 bf 34 26 1655 1076 bf 34 26 1689 1076 bf 34 26 1723 1076 bf 34 26 1757 1076 bf 35 26 1791 1076 bf 34 26 1826
 1076 bf 34 26 1860 1076 bf 34 26 1894 1076 bf 34 26 227 1102 bf 34 26 261 1102 bf 34 26 295 1102 bf 34 26 329 1102 bf 34 26 363 1102 bf 34 26 397 1102 bf 34 26 431 1102 bf 34 26 465 1102 bf 34 26 499 1102 bf 34 26 533 1102 bf 34 26 567 1102 bf 34 26
 601 1102 bf 34 26 635 1102 bf 34 26 669 1102 bf 34 26 703 1102 bf 34 26 737 1102 bf 34 26 771 1102 bf 34 26 805 1102 bf 34 26 839 1102 bf 34 26 873 1102 bf 34 26 907 1102 bf 34 26 941 1102 bf 34 26 975 1102 bf 34 26 1009 1102 bf 34 26 1043 1102 bf
 34 26 1077 1102 bf 34 26 1111 1102 bf 34 26 1145 1102 bf 34 26 1179 1102 bf 34 26 1213 1102 bf 34 26 1247 1102 bf 34 26 1281 1102 bf 34 26 1315 1102 bf 34 26 1349 1102 bf 34 26 1383 1102 bf 34 26 1417 1102 bf 34 26 1451 1102 bf 34 26 1485 1102 bf 34
 26 1519 1102 bf 34 26 1553 1102 bf 34 26 1587 1102 bf 34 26 1621 1102 bf 34 26 1655 1102 bf 34 26 1689 1102 bf 34 26 1723 1102 bf 34 26 1757 1102 bf 35 26 1791 1102 bf 34 26 1826 1102 bf 34 26 1860 1102 bf 34 26 1894 1102 bf 34 26 227 1128 bf 34 26
 261 1128 bf 34 26 295 1128 bf 34 26 329 1128 bf 34 26 363 1128 bf 34 26 397 1128 bf 34 26 431 1128 bf 34 26 465 1128 bf 34 26 499 1128 bf 34 26 533 1128 bf 34 26 567 1128 bf 34 26 601 1128 bf 34 26 635 1128 bf 34 26 669 1128 bf 34 26 703 1128 bf 34
 26 737 1128 bf 34 26 771 1128 bf 34 26 805 1128 bf 34 26 839 1128 bf 34 26 873 1128 bf 34 26 907 1128 bf 34 26 941 1128 bf 34 26 975 1128 bf 34 26 1009 1128 bf 34 26 1043 1128 bf 34 26 1077 1128 bf 34 26 1111 1128 bf 34 26 1145 1128 bf 34 26 1179
 1128 bf 34 26 1213 1128 bf 34 26 1247 1128 bf 34 26 1281 1128 bf 34 26 1315 1128 bf 34 26 1349 1128 bf 34 26 1383 1128 bf 34 26 1417 1128 bf 34 26 1451 1128 bf 34 26 1485 1128 bf 34 26 1519 1128 bf 34 26 1553 1128 bf 34 26 1587 1128 bf 34 26 1621
 1128 bf 34 26 1655 1128 bf 34 26 1689 1128 bf 34 26 1723 1128 bf 34 26 1757 1128 bf 35 26 1791 1128 bf 34 26 1826 1128 bf 34 26 1860 1128 bf 34 26 1894 1128 bf 34 26 227 1154 bf 34 26 261 1154 bf 34 26 295 1154 bf 34 26 329 1154 bf 34 26 363 1154 bf
 34 26 397 1154 bf 34 26 431 1154 bf 34 26 465 1154 bf 34 26 499 1154 bf 34 26 533 1154 bf 34 26 567 1154 bf 34 26 601 1154 bf 34 26 635 1154 bf 34 26 669 1154 bf 34 26 703 1154 bf 34 26 737 1154 bf 34 26 771 1154 bf 34 26 805 1154 bf 34 26 839 1154
 bf 34 26 873 1154 bf 34 26 907 1154 bf 34 26 941 1154 bf 34 26 975 1154 bf 34 26 1009 1154 bf 34 26 1043 1154 bf 34 26 1077 1154 bf 34 26 1111 1154 bf 34 26 1145 1154 bf 34 26 1179 1154 bf 34 26 1213 1154 bf 34 26 1247 1154 bf 34 26 1281 1154 bf 34
 26 1315 1154 bf 34 26 1349 1154 bf 34 26 1383 1154 bf 34 26 1417 1154 bf 34 26 1451 1154 bf 34 26 1485 1154 bf 34 26 1519 1154 bf 34 26 1553 1154 bf 34 26 1587 1154 bf 34 26 1621 1154 bf 34 26 1655 1154 bf 34 26 1689 1154 bf 34 26 1723 1154 bf 34 26
 1757 1154 bf 35 26 1791 1154 bf 34 26 1826 1154 bf 34 26 1860 1154 bf 34 26 1894 1154 bf 34 26 227 1180 bf 34 26 261 1180 bf 34 26 295 1180 bf 34 26 329 1180 bf 34 26 363 1180 bf 34 26 397 1180 bf 34 26 431 1180 bf 34 26 465 1180 bf 34 26 499 1180
 bf 34 26 533 1180 bf 34 26 567 1180 bf 34 26 601 1180 bf 34 26 635 1180 bf 34 26 669 1180 bf 34 26 703 1180 bf 34 26 737 1180 bf 34 26 771 1180 bf 34 26 805 1180 bf 34 26 839 1180 bf 34 26 873 1180 bf 34 26 907 1180 bf 34 26 941 1180 bf 34 26 975
 1180 bf 34 26 1009 1180 bf 34 26 1043 1180 bf 34 26 1077 1180 bf 34 26 1111 1180 bf 34 26 1145 1180 bf 34 26 1179 1180 bf 34 26 1213 1180 bf 34 26 1247 1180 bf 34 26 1281 1180 bf 34 26 1315 1180 bf 34 26 1349 1180 bf 34 26 1383 1180 bf 34 26 1417
 1180 bf 34 26 1451 1180 bf 34 26 1485 1180 bf 34 26 1519 1180 bf 34 26 1553 1180 bf 34 26 1587 1180 bf 34 26 1621 1180 bf 34 26 1655 1180 bf 34 26 1689 1180 bf 34 26 1723 1180 bf 34 26 1757 1180 bf 35 26 1791 1180 bf 34 26 1826 1180 bf 34 26 1860
 1180 bf 34 26 1894 1180 bf 34 26 227 1206 bf 34 26 261 1206 bf 34 26 295 1206 bf 34 26 329 1206 bf 34 26 363 1206 bf 34 26 397 1206 bf 34 26 431 1206 bf 34 26 465 1206 bf 34 26 499 1206 bf 34 26 533 1206 bf 34 26 567 1206 bf 34 26 601 1206 bf 34 26
 635 1206 bf 34 26 669 1206 bf 34 26 703 1206 bf 34 26 737 1206 bf 34 26 771 1206 bf 34 26 805 1206 bf 34 26 839 1206 bf 34 26 873 1206 bf 34 26 907 1206 bf 34 26 941 1206 bf 34 26 975 1206 bf 34 26 1009 1206 bf 34 26 1043 1206 bf 34 26 1077 1206 bf
 34 26 1111 1206 bf 34 26 1145 1206 bf 34 26 1179 1206 bf 34 26 1213 1206 bf 34 26 1247 1206 bf 34 26 1281 1206 bf 34 26 1315 1206 bf 34 26 1349 1206 bf 34 26 1383 1206 bf 34 26 1417 1206 bf 34 26 1451 1206 bf 34 26 1485 1206 bf 34 26 1519 1206 bf 34
 26 1553 1206 bf 34 26 1587 1206 bf 34 26 1621 1206 bf 34 26 1655 1206 bf 34 26 1689 1206 bf 34 26 1723 1206 bf 34 26 1757 1206 bf 35 26 1791 1206 bf 34 26 1826 1206 bf 34 26 1860 1206 bf 34 26 1894 1206 bf 34 26 227 1232 bf 34 26 261 1232 bf 34 26
 295 1232 bf 34 26 329 1232 bf 34 26 363 1232 bf 34 26 397 1232 bf 34 26 431 1232 bf 34 26 465 1232 bf 34 26 499 1232 bf 34 26 533 1232 bf 34 26 567 1232 bf 34 26 601 1232 bf 34 26 635 1232 bf 34 26 669 1232 bf 34 26 703 1232 bf 34 26 737 1232 bf 34
 26 771 1232 bf 34 26 805 1232 bf 34 26 839 1232 bf 34 26 873 1232 bf 34 26 907 1232 bf 34 26 941 1232 bf 34 26 975 1232 bf 34 26 1009 1232 bf 34 26 1043 1232 bf 34 26 1077 1232 bf 34 26 1111 1232 bf 34 26 1145 1232 bf 34 26 1179 1232 bf 34 26 1213
 1232 bf 34 26 1247 1232 bf 34 26 1281 1232 bf 34 26 1315 1232 bf 34 26 1349 1232 bf 34 26 1383 1232 bf 34 26 1417 1232 bf 34 26 1451 1232 bf 34 26 1485 1232 bf 34 26 1519 1232 bf 34 26 1553 1232 bf 34 26 1587 1232 bf 34 26 1621 1232 bf 34 26 1655
 1232 bf 34 26 1689 1232 bf 34 26 1723 1232 bf 34 26 1757 1232 bf 35 26 1791 1232 bf 34 26 1826 1232 bf 34 26 1860 1232 bf 34 26 1894 1232 bf 34 26 227 1258 bf 34 26 261 1258 bf 34 26 295 1258 bf 34 26 329 1258 bf 34 26 363 1258 bf 34 26 397 1258 bf
 34 26 431 1258 bf 34 26 465 1258 bf 34 26 499 1258 bf 34 26 533 1258 bf 34 26 567 1258 bf 34 26 601 1258 bf 34 26 635 1258 bf 34 26 669 1258 bf 34 26 703 1258 bf 34 26 737 1258 bf 34 26 771 1258 bf 34 26 805 1258 bf 34 26 839 1258 bf 34 26 873 1258
 bf 34 26 907 1258 bf 34 26 941 1258 bf 34 26 975 1258 bf 34 26 1009 1258 bf 34 26 1043 1258 bf 34 26 1077 1258 bf 34 26 1111 1258 bf 34 26 1145 1258 bf 34 26 1179 1258 bf 34 26 1213 1258 bf 34 26 1247 1258 bf 34 26 1281 1258 bf 34 26 1315 1258 bf 34
 26 1349 1258 bf 34 26 1383 1258 bf 34 26 1417 1258 bf 34 26 1451 1258 bf 34 26 1485 1258 bf 34 26 1519 1258 bf 34 26 1553 1258 bf 34 26 1587 1258 bf 34 26 1621 1258 bf 34 26 1655 1258 bf 34 26 1689 1258 bf 34 26 1723 1258 bf 34 26 1757 1258 bf 35 26
 1791 1258 bf 34 26 1826 1258 bf 34 26 1860 1258 bf 34 26 1894 1258 bf 34 26 227 1284 bf 34 26 261 1284 bf 34 26 295 1284 bf 34 26 329 1284 bf 34 26 363 1284 bf 34 26 397 1284 bf 34 26 431 1284 bf 34 26 465 1284 bf 34 26 499 1284 bf 34 26 533 1284 bf
 34 26 567 1284 bf 34 26 601 1284 bf 34 26 635 1284 bf 34 26 669 1284 bf 34 26 703 1284 bf 34 26 737 1284 bf 34 26 771 1284 bf 34 26 805 1284 bf 34 26 839 1284 bf 34 26 873 1284 bf 34 26 907 1284 bf 34 26 941 1284 bf 34 26 975 1284 bf 34 26 1009 1284
 bf 34 26 1043 1284 bf 34 26 1077 1284 bf 34 26 1111 1284 bf 34 26 1145 1284 bf 34 26 1179 1284 bf 34 26 1213 1284 bf 34 26 1247 1284 bf 34 26 1281 1284 bf 34 26 1315 1284 bf 34 26 1349 1284 bf 34 26 1383 1284 bf 34 26 1417 1284 bf 34 26 1451 1284 bf
 34 26 1485 1284 bf 34 26 1519 1284 bf 34 26 1553 1284 bf 34 26 1587 1284 bf 34 26 1621 1284 bf 34 26 1655 1284 bf 34 26 1689 1284 bf 34 26 1723 1284 bf 34 26 1757 1284 bf 35 26 1791 1284 bf 34 26 1826 1284 bf 34 26 1860 1284 bf 34 26 1894 1284 bf 34
 26 227 1310 bf 34 26 261 1310 bf 34 26 295 1310 bf 34 26 329 1310 bf 34 26 363 1310 bf 34 26 397 1310 bf 34 26 431 1310 bf 34 26 465 1310 bf 34 26 499 1310 bf 34 26 533 1310 bf 34 26 567 1310 bf 34 26 601 1310 bf 34 26 635 1310 bf 34 26 669 1310 bf
 34 26 703 1310 bf 34 26 737 1310 bf 34 26 771 1310 bf 34 26 805 1310 bf 34 26 839 1310 bf 34 26 873 1310 bf 34 26 907 1310 bf 34 26 941 1310 bf 34 26 975 1310 bf 34 26 1009 1310 bf 34 26 1043 1310 bf 34 26 1077 1310 bf 34 26 1111 1310 bf 34 26 1145
 1310 bf 34 26 1179 1310 bf 34 26 1213 1310 bf 34 26 1247 1310 bf 34 26 1281 1310 bf 34 26 1315 1310 bf 34 26 1349 1310 bf 34 26 1383 1310 bf 34 26 1417 1310 bf 34 26 1451 1310 bf 34 26 1485 1310 bf 34 26 1519 1310 bf 34 26 1553 1310 bf 34 26 1587
 1310 bf 34 26 1621 1310 bf 34 26 1655 1310 bf 34 26 1689 1310 bf 34 26 1723 1310 bf 34 26 1757 1310 bf 35 26 1791 1310 bf 34 26 1826 1310 bf 34 26 1860 1310 bf 34 26 1894 1310 bf 34 26 227 1336 bf 34 26 261 1336 bf 34 26 295 1336 bf 34 26 329 1336
 bf 34 26 363 1336 bf 34 26 397 1336 bf 34 26 431 1336 bf 34 26 465 1336 bf 34 26 499 1336 bf 34 26 533 1336 bf 34 26 567 1336 bf 34 26 601 1336 bf 34 26 635 1336 bf 34 26 669 1336 bf 34 26 703 1336 bf 34 26 737 1336 bf 34 26 771 1336 bf 34 26 805
 1336 bf 34 26 839 1336 bf 34 26 873 1336 bf 34 26 907 1336 bf 34 26 941 1336 bf 34 26 975 1336 bf 34 26 1009 1336 bf 34 26 1043 1336 bf 34 26 1077 1336 bf 34 26 1111 1336 bf 34 26 1145 1336 bf 34 26 1179 1336 bf 34 26 1213 1336 bf 34 26 1247 1336 bf
 34 26 1281 1336 bf 34 26 1315 1336 bf 34 26 1349 1336 bf 34 26 1383 1336 bf 34 26 1417 1336 bf 34 26 1451 1336 bf 34 26 1485 1336 bf 34 26 1519 1336 bf 34 26 1553 1336 bf 34 26 1587 1336 bf 34 26 1621 1336 bf 34 26 1655 1336 bf 34 26 1689 1336 bf 34
 26 1723 1336 bf 34 26 1757 1336 bf 35 26 1791 1336 bf 34 26 1826 1336 bf 34 26 1860 1336 bf 34 26 1894 1336 bf 34 26 227 1362 bf 34 26 261 1362 bf 34 26 295 1362 bf 34 26 329 1362 bf 34 26 363 1362 bf 34 26 397 1362 bf 34 26 431 1362 bf 34 26 465
 1362 bf 34 26 499 1362 bf 34 26 533 1362 bf 34 26 567 1362 bf 34 26 601 1362 bf 34 26 635 1362 bf 34 26 669 1362 bf 34 26 703 1362 bf 34 26 737 1362 bf 34 26 771 1362 bf 34 26 805 1362 bf 34 26 839 1362 bf 34 26 873 1362 bf 34 26 907 1362 bf 34 26
 941 1362 bf 34 26 975 1362 bf 34 26 1009 1362 bf 34 26 1043 1362 bf 34 26 1077 1362 bf 34 26 1111 1362 bf 34 26 1145 1362 bf 34 26 1179 1362 bf 34 26 1213 1362 bf 34 26 1247 1362 bf 34 26 1281 1362 bf 34 26 1315 1362 bf 34 26 1349 1362 bf 34 26 1383
 1362 bf 34 26 1417 1362 bf 34 26 1451 1362 bf 34 26 1485 1362 bf 34 26 1519 1362 bf 34 26 1553 1362 bf 34 26 1587 1362 bf 34 26 1621 1362 bf 34 26 1655 1362 bf 34 26 1689 1362 bf 34 26 1723 1362 bf 34 26 1757 1362 bf 35 26 1791 1362 bf 34 26 1826
 1362 bf 34 26 1860 1362 bf 34 26 1894 1362 bf 34 26 227 1388 bf 34 26 261 1388 bf 34 26 295 1388 bf 34 26 329 1388 bf 34 26 363 1388 bf 34 26 397 1388 bf 34 26 431 1388 bf 34 26 465 1388 bf 34 26 499 1388 bf 34 26 533 1388 bf 34 26 567 1388 bf 34 26
 601 1388 bf 34 26 635 1388 bf 34 26 669 1388 bf 34 26 703 1388 bf 34 26 737 1388 bf 34 26 771 1388 bf 34 26 805 1388 bf 34 26 839 1388 bf 34 26 873 1388 bf 34 26 907 1388 bf 34 26 941 1388 bf 34 26 975 1388 bf 34 26 1009 1388 bf 34 26 1043 1388 bf
 34 26 1077 1388 bf 34 26 1111 1388 bf 34 26 1145 1388 bf 34 26 1179 1388 bf 34 26 1213 1388 bf 34 26 1247 1388 bf 34 26 1281 1388 bf 34 26 1315 1388 bf 34 26 1349 1388 bf 34 26 1383 1388 bf 34 26 1417 1388 bf 34 26 1451 1388 bf 34 26 1485 1388 bf 34
 26 1519 1388 bf 34 26 1553 1388 bf 34 26 1587 1388 bf 34 26 1621 1388 bf 34 26 1655 1388 bf 34 26 1689 1388 bf 34 26 1723 1388 bf 34 26 1757 1388 bf 35 26 1791 1388 bf 34 26 1826 1388 bf 34 26 1860 1388 bf 34 26 1894 1388 bf 34 27 227 1414 bf 34 27
 261 1414 bf 34 27 295 1414 bf 34 27 329 1414 bf 34 27 363 1414 bf 34 27 397 1414 bf 34 27 431 1414 bf 34 27 465 1414 bf 34 27 499 1414 bf 34 27 533 1414 bf 34 27 567 1414 bf 34 27 601 1414 bf 34 27 635 1414 bf 34 27 669 1414 bf 34 27 703 1414 bf 34
 27 737 1414 bf 34 27 771 1414 bf 34 27 805 1414 bf 34 27 839 1414 bf 34 27 873 1414 bf 34 27 907 1414 bf 34 27 941 1414 bf 34 27 975 1414 bf 34 27 1009 1414 bf 34 27 1043 1414 bf 34 27 1077 1414 bf 34 27 1111 1414 bf 34 27 1145 1414 bf 34 27 1179
 1414 bf 34 27 1213 1414 bf 34 27 1247 1414 bf 34 27 1281 1414 bf 34 27 1315 1414 bf 34 27 1349 1414 bf 34 27 1383 1414 bf 34 27 1417 1414 bf 34 27 1451 1414 bf 34 27 1485 1414 bf 34 27 1519 1414 bf 34 27 1553 1414 bf 34 27 1587 1414 bf 34 27 1621
 1414 bf 34 27 1655 1414 bf 34 27 1689 1414 bf 34 27 1723 1414 bf 34 27 1757 1414 bf 35 27 1791 1414 bf 34 27 1826 1414 bf 34 27 1860 1414 bf 34 27 1894 1414 bf 34 26 227 1441 bf 34 26 261 1441 bf 34 26 295 1441 bf 34 26 329 1441 bf 34 26 363 1441 bf
 34 26 397 1441 bf 34 26 431 1441 bf 34 26 465 1441 bf 34 26 499 1441 bf 34 26 533 1441 bf 34 26 567 1441 bf 34 26 601 1441 bf 34 26 635 1441 bf 34 26 669 1441 bf 34 26 703 1441 bf 34 26 737 1441 bf 34 26 771 1441 bf 34 26 805 1441 bf 34 26 839 1441
 bf 34 26 873 1441 bf 34 26 907 1441 bf 34 26 941 1441 bf 34 26 975 1441 bf 34 26 1009 1441 bf 34 26 1043 1441 bf 34 26 1077 1441 bf 34 26 1111 1441 bf 34 26 1145 1441 bf 34 26 1179 1441 bf 34 26 1213 1441 bf 34 26 1247 1441 bf 34 26 1281 1441 bf 34
 26 1315 1441 bf 34 26 1349 1441 bf 34 26 1383 1441 bf 34 26 1417 1441 bf 34 26 1451 1441 bf 34 26 1485 1441 bf 34 26 1519 1441 bf 34 26 1553 1441 bf 34 26 1587 1441 bf 34 26 1621 1441 bf 34 26 1655 1441 bf 34 26 1689 1441 bf 34 26 1723 1441 bf 34 26
 1757 1441 bf 35 26 1791 1441 bf 34 26 1826 1441 bf 34 26 1860 1441 bf 34 26 1894 1441 bf 1 1 1 c black 227 163 m 1701 X s
 gsave  2268 1630 0 0 C 1908.76 45.5822 t 0 r /Helvetica findfont 34.1867 sf 0 0 m (g) show NC gr 
 gsave  2268 1630 0 0 C 1883.12 59.8267 t 0 r /Helvetica findfont 54.1289 sf 0 0 m (c) show NC gr  1883 94 m 26 X s 227 200 m -37 Y s 269 181 m -18 Y s 312 181 m -18 Y s 354 181 m -18 Y s 397 200 m -37 Y s 439 181 m -18 Y s 482 181 m -18 Y s 524 181
 m -18 Y s 567 200 m -37 Y s 609 181 m -18 Y s 652 181 m -18 Y s 694 181 m -18 Y s 737 200 m -37 Y s 780 181 m -18 Y s 822 181 m -18 Y s 865 181 m -18 Y s 907 200 m -37 Y s 950 181 m -18 Y s 992 181 m -18 Y s 1035 181 m -18 Y s 1077 200 m -37 Y s
 1120 181 m -18 Y s 1162 181 m -18 Y s 1205 181 m -18 Y s 1247 200 m -37 Y s 1290 181 m -18 Y s 1332 181 m -18 Y s 1375 181 m -18 Y s 1417 200 m -37 Y s 1460 181 m -18 Y s 1502 181 m -18 Y s 1545 181 m -18 Y s 1587 200 m -37 Y s 1630 181 m -18 Y s
 1672 181 m -18 Y s 1715 181 m -18 Y s 1757 200 m -37 Y s 1800 181 m -18 Y s 1843 181 m -18 Y s 1885 181 m -18 Y s 1928 200 m -37 Y s 227 200 m -37 Y s
 gsave  2268 1630 0 0 C 227.911 111.107 t 0 r /Helvetica findfont 54.1289 sf 0 0 m (1) show NC gr 
 gsave  2268 1630 0 0 C 199.422 111.107 t 0 r /Symbol findfont 54.1289 sf 0 0 m (-) show NC gr 
 gsave  2268 1630 0 0 C 373.205 111.107 t 0 r /Helvetica findfont 54.1289 sf 0 0 m (0.8) show NC gr 
 gsave  2268 1630 0 0 C 341.867 111.107 t 0 r /Symbol findfont 54.1289 sf 0 0 m (-) show NC gr 
 gsave  2268 1630 0 0 C 544.138 111.107 t 0 r /Helvetica findfont 54.1289 sf 0 0 m (0.6) show NC gr 
 gsave  2268 1630 0 0 C 512.8 111.107 t 0 r /Symbol findfont 54.1289 sf 0 0 m (-) show NC gr 
 gsave  2268 1630 0 0 C 712.223 111.107 t 0 r /Helvetica findfont 54.1289 sf 0 0 m (0.4) show NC gr 
 gsave  2268 1630 0 0 C 680.885 111.107 t 0 r /Symbol findfont 54.1289 sf 0 0 m (-) show NC gr 
 gsave  2268 1630 0 0 C 883.156 111.107 t 0 r /Helvetica findfont 54.1289 sf 0 0 m (0.2) show NC gr 
 gsave  2268 1630 0 0 C 851.818 111.107 t 0 r /Symbol findfont 54.1289 sf 0 0 m (-) show NC gr 
 gsave  2268 1630 0 0 C 1062.64 111.107 t 0 r /Helvetica findfont 54.1289 sf 0 0 m (0) show NC gr 
 gsave  2268 1630 0 0 C 1207.93 111.107 t 0 r /Helvetica findfont 54.1289 sf 0 0 m (0.2) show NC gr 
 gsave  2268 1630 0 0 C 1378.86 111.107 t 0 r /Helvetica findfont 54.1289 sf 0 0 m (0.4) show NC gr 
 gsave  2268 1630 0 0 C 1549.8 111.107 t 0 r /Helvetica findfont 54.1289 sf 0 0 m (0.6) show NC gr 
 gsave  2268 1630 0 0 C 1717.88 111.107 t 0 r /Helvetica findfont 54.1289 sf 0 0 m (0.8) show NC gr 
 gsave  2268 1630 0 0 C 1914.45 111.107 t 0 r /Helvetica findfont 54.1289 sf 0 0 m (1) show NC gr  227 163 m 1304 Y s
 gsave  2268 1630 0 0 C 128.2 1450.09 t 90 r /Helvetica findfont 34.1867 sf 0 0 m (g) show NC gr 
 gsave  2268 1630 0 0 C 113.956 1424.45 t 90 r /Helvetica findfont 54.1289 sf 0 0 m (c) show NC gr 
 gsave  2268 1630 0 0 C 91.1645 1438.69 t 90 r  -15 0 t /Helvetica findfont 54.1289 sf 0 0 m (~) show NC gr  281 163 m -54 X s 254 196 m -27 X s 254 228 m -27 X s 254 261 m -27 X s 281 293 m -54 X s 254 326 m -27 X s 254 359 m -27 X s 254 391 m -27 X
 s 281 424 m -54 X s 254 456 m -27 X s 254 489 m -27 X s 254 521 m -27 X s 281 554 m -54 X s 254 587 m -27 X s 254 619 m -27 X s 254 652 m -27 X s 281 684 m -54 X s 254 717 m -27 X s 254 750 m -27 X s 254 782 m -27 X s 281 815 m -54 X s 254 847 m -27
 X s 254 880 m -27 X s 254 913 m -27 X s 281 945 m -54 X s 254 978 m -27 X s 254 1010 m -27 X s 254 1043 m -27 X s 281 1076 m -54 X s 254 1108 m -27 X s 254 1141 m -27 X s 254 1173 m -27 X s 281 1206 m -54 X s 254 1238 m -27 X s 254 1271 m -27 X s
 254 1304 m -27 X s 281 1336 m -54 X s 254 1369 m -27 X s 254 1401 m -27 X s 254 1434 m -27 X s 281 1467 m -54 X s 281 163 m -54 X s
 gsave  2268 1630 0 0 C 182.329 142.445 t 0 r /Helvetica findfont 54.1289 sf 0 0 m (1) show NC gr 
 gsave  2268 1630 0 0 C 150.991 142.445 t 0 r /Symbol findfont 54.1289 sf 0 0 m (-) show NC gr 
 gsave  2268 1630 0 0 C 128.2 273.493 t 0 r /Helvetica findfont 54.1289 sf 0 0 m (0.8) show NC gr 
 gsave  2268 1630 0 0 C 96.8623 273.493 t 0 r /Symbol findfont 54.1289 sf 0 0 m (-) show NC gr 
 gsave  2268 1630 0 0 C 128.2 404.542 t 0 r /Helvetica findfont 54.1289 sf 0 0 m (0.6) show NC gr 
 gsave  2268 1630 0 0 C 96.8623 404.542 t 0 r /Symbol findfont 54.1289 sf 0 0 m (-) show NC gr 
 gsave  2268 1630 0 0 C 128.2 535.591 t 0 r /Helvetica findfont 54.1289 sf 0 0 m (0.4) show NC gr 
 gsave  2268 1630 0 0 C 96.8623 535.591 t 0 r /Symbol findfont 54.1289 sf 0 0 m (-) show NC gr 
 gsave  2268 1630 0 0 C 128.2 666.64 t 0 r /Helvetica findfont 54.1289 sf 0 0 m (0.2) show NC gr 
 gsave  2268 1630 0 0 C 96.8623 666.64 t 0 r /Symbol findfont 54.1289 sf 0 0 m (-) show NC gr 
 gsave  2268 1630 0 0 C 173.782 794.84 t 0 r /Helvetica findfont 54.1289 sf 0 0 m (0) show NC gr 
 gsave  2268 1630 0 0 C 128.2 925.889 t 0 r /Helvetica findfont 54.1289 sf 0 0 m (0.2) show NC gr 
 gsave  2268 1630 0 0 C 128.2 1056.94 t 0 r /Helvetica findfont 54.1289 sf 0 0 m (0.4) show NC gr 
 gsave  2268 1630 0 0 C 128.2 1187.99 t 0 r /Helvetica findfont 54.1289 sf 0 0 m (0.6) show NC gr 
 gsave  2268 1630 0 0 C 128.2 1319.04 t 0 r /Helvetica findfont 54.1289 sf 0 0 m (0.8) show NC gr 
 gsave  2268 1630 0 0 C 182.329 1444.39 t 0 r /Helvetica findfont 54.1289 sf 0 0 m (1) show NC gr  0.198587 0.178884 0.551177 c 102 14 1939 163 bf 0.184168 0.19761 0.583994 c 102 13 1939 177 bf 0.169748 0.216335 0.61681 c 102 14 1939 190 bf 0.160135
 0.228819 0.638687 c 102 14 1939 204 bf 0.145716 0.247545 0.671503 c 102 14 1939 218 bf 0.131297 0.266271 0.704319 c 102 13 1939 232 bf 0.121684 0.278755 0.726197 c 102 14 1939 245 bf 0.107265 0.297481 0.759013 c 102 14 1939 259 bf 0.0928452 0.316206
 0.791829 c 102 13 1939 273 bf 0.0832323 0.32869 0.813706 c 102 14 1939 286 bf 0.0688129 0.347416 0.846523 c 102 14 1939 300 bf 0.0597875 0.364406 0.867466 c 102 14 1939 314 bf 0.0609625 0.373419 0.865597 c 102 13 1939 328 bf 0.062725 0.386937
 0.862794 c 102 14 1939 341 bf 0.0644875 0.400456 0.859991 c 102 14 1939 355 bf 0.0656625 0.409469 0.858122 c 102 14 1939 369 bf 0.067425 0.422987 0.855319 c 102 13 1939 383 bf 0.0691875 0.436506 0.852516 c 102 14 1939 396 bf 0.0703625 0.445519
 0.850647 c 102 14 1939 410 bf 0.072125 0.459038 0.847844 c 102 13 1939 424 bf 0.0738875 0.472556 0.845041 c 102 14 1939 437 bf 0.07565 0.486075 0.842237 c 102 14 1939 451 bf 0.076825 0.495088 0.840369 c 102 14 1939 465 bf 0.0762875 0.508406 0.837028
 c 102 13 1939 479 bf 0.07115 0.521325 0.832613 c 102 14 1939 492 bf 0.067725 0.529938 0.829669 c 102 14 1939 506 bf 0.0625875 0.542856 0.825253 c 102 13 1939 520 bf 0.05745 0.555775 0.820837 c 102 14 1939 533 bf 0.054025 0.564388 0.817894 c 102 14
 1939 547 bf 0.0488875 0.577306 0.813478 c 102 14 1939 561 bf 0.04375 0.590225 0.809062 c 102 13 1939 575 bf 0.040325 0.598837 0.806119 c 102 14 1939 588 bf 0.0351875 0.611756 0.801703 c 102 14 1939 602 bf 0.03005 0.624675 0.797288 c 102 14 1939 616
 bf 0.026625 0.633287 0.794344 c 102 13 1939 630 bf 0.0281062 0.644272 0.786747 c 102 14 1939 643 bf 0.042825 0.651388 0.772788 c 102 14 1939 657 bf 0.0526375 0.656131 0.763481 c 102 13 1939 671 bf 0.0673563 0.663247 0.749522 c 102 14 1939 684 bf
 0.082075 0.670362 0.735563 c 102 14 1939 698 bf 0.0967937 0.677478 0.721603 c 102 14 1939 712 bf 0.106606 0.682222 0.712297 c 102 13 1939 726 bf 0.121325 0.689337 0.698337 c 102 14 1939 739 bf 0.136044 0.696453 0.684378 c 102 14 1939 753 bf 0.145856
 0.701197 0.675072 c 102 13 1939 767 bf 0.160575 0.708313 0.661112 c 102 14 1939 780 bf 0.175294 0.715428 0.647153 c 102 14 1939 794 bf 0.191134 0.718781 0.636991 c 102 14 1939 808 bf 0.223937 0.721725 0.620462 c 102 13 1939 822 bf 0.256741 0.724669
 0.603934 c 102 14 1939 835 bf 0.278609 0.726631 0.592916 c 102 14 1939 849 bf 0.311413 0.729575 0.576388 c 102 14 1939 863 bf 0.344216 0.732519 0.559859 c 102 13 1939 877 bf 0.366084 0.734481 0.548841 c 102 14 1939 890 bf 0.398887 0.737425 0.532313
 c 102 14 1939 904 bf 0.431691 0.740369 0.515784 c 102 13 1939 918 bf 0.453559 0.742331 0.504766 c 102 14 1939 931 bf 0.486362 0.745275 0.488238 c 102 14 1939 945 bf 0.519166 0.748219 0.471709 c 102 14 1939 959 bf 0.548131 0.748175 0.458931 c 102 13
 1939 973 bf 0.566163 0.74715 0.451663 c 102 14 1939 986 bf 0.593209 0.745613 0.440759 c 102 14 1939 1000 bf 0.620256 0.744075 0.429856 c 102 13 1939 1014 bf 0.638287 0.74305 0.422588 c 102 14 1939 1027 bf 0.665334 0.741512 0.411684 c 102 14 1939
 1041 bf 0.692381 0.739975 0.400781 c 102 14 1939 1055 bf 0.710413 0.73895 0.393512 c 102 13 1939 1069 bf 0.737459 0.737413 0.382609 c 102 14 1939 1082 bf 0.764506 0.735875 0.371706 c 102 14 1939 1096 bf 0.782538 0.73485 0.364437 c 102 14 1939 1110
 bf 0.809584 0.733312 0.353534 c 102 13 1939 1124 bf 0.829663 0.736138 0.340331 c 102 14 1939 1137 bf 0.840725 0.739475 0.330763 c 102 14 1939 1151 bf 0.857319 0.744481 0.316409 c 102 13 1939 1165 bf 0.873913 0.749488 0.302056 c 102 14 1939 1178 bf
 0.884975 0.752825 0.292488 c 102 14 1939 1192 bf 0.901569 0.757831 0.278134 c 102 14 1939 1206 bf 0.918163 0.762838 0.263781 c 102 13 1939 1220 bf 0.934756 0.767844 0.249428 c 102 14 1939 1233 bf 0.945819 0.771181 0.239859 c 102 14 1939 1247 bf
 0.962412 0.776187 0.225506 c 102 13 1939 1261 bf 0.979006 0.781194 0.211153 c 102 14 1939 1274 bf 0.990069 0.784531 0.201584 c 102 14 1939 1288 bf 0.9944 0.798513 0.187869 c 102 14 1939 1302 bf 0.9926 0.816981 0.174472 c 102 13 1939 1316 bf 0.9914
 0.829294 0.165541 c 102 14 1939 1329 bf 0.9896 0.847763 0.152144 c 102 14 1939 1343 bf 0.9878 0.866231 0.138747 c 102 14 1939 1357 bf 0.9866 0.878544 0.129816 c 102 13 1939 1371 bf 0.9848 0.897012 0.116419 c 102 14 1939 1384 bf 0.983 0.915481
 0.103022 c 102 14 1939 1398 bf 0.9818 0.927794 0.0940906 c 102 13 1939 1412 bf 0.98 0.946262 0.0806938 c 102 14 1939 1425 bf 0.9782 0.964731 0.0672969 c 102 14 1939 1439 bf 0.977 0.977044 0.0583656 c 102 14 1939 1453 bf black 2041 163 m 1304 Y s
 gsave  2268 1630 0 0 C 2162.31 1447.24 t 90 r /Helvetica findfont 34.1867 sf 0 0 m (2) show NC gr 
 gsave  2268 1630 0 0 C 2185.1 1418.75 t 90 r /Symbol findfont 54.1289 sf 0 0 m (c) show NC gr 
 gsave  2268 1630 0 0 C 2185.1 1384.56 t 90 r /Symbol findfont 54.1289 sf 0 0 m (D) show NC gr  1987 241 m 54 X s 1987 354 m 54 X s 1987 466 m 54 X s 1987 579 m 54 X s 1987 691 m 54 X s 1987 803 m 54 X s 1987 916 m 54 X s 1987 1028 m 54 X s 1987 1141
 m 54 X s 1987 1253 m 54 X s 1987 1366 m 54 X s 1987 241 m 54 X s 1987 1366 m 54 X s
 gsave  2268 1630 0 0 C 2051.2 222.213 t 0 r /Helvetica findfont 54.1289 sf 0 0 m (8) show NC gr 
 gsave  2268 1630 0 0 C 2051.2 336.169 t 0 r /Helvetica findfont 54.1289 sf 0 0 m (10) show NC gr 
 gsave  2268 1630 0 0 C 2051.2 444.427 t 0 r /Helvetica findfont 54.1289 sf 0 0 m (12) show NC gr 
 gsave  2268 1630 0 0 C 2051.2 558.382 t 0 r /Helvetica findfont 54.1289 sf 0 0 m (14) show NC gr 
 gsave  2268 1630 0 0 C 2051.2 672.338 t 0 r /Helvetica findfont 54.1289 sf 0 0 m (16) show NC gr 
 gsave  2268 1630 0 0 C 2051.2 786.294 t 0 r /Helvetica findfont 54.1289 sf 0 0 m (18) show NC gr 
 gsave  2268 1630 0 0 C 2051.2 897.4 t 0 r /Helvetica findfont 54.1289 sf 0 0 m (20) show NC gr 
 gsave  2268 1630 0 0 C 2051.2 1005.66 t 0 r /Helvetica findfont 54.1289 sf 0 0 m (22) show NC gr 
 gsave  2268 1630 0 0 C 2051.2 1119.61 t 0 r /Helvetica findfont 54.1289 sf 0 0 m (24) show NC gr 
 gsave  2268 1630 0 0 C 2051.2 1233.57 t 0 r /Helvetica findfont 54.1289 sf 0 0 m (26) show NC gr 
 gsave  2268 1630 0 0 C 2051.2 1347.53 t 0 r /Helvetica findfont 54.1289 sf 0 0 m (28) show NC gr 
 gr  gr showpage
end
%%EOF
