%!PS-Adobe-2.0 EPSF-2.0
%%BoundingBox:  0 0 567 407
%%Title: plots/eps/HGamEFTScanner_cHW_mu.eps: p-value curves
%%Creator: ROOT Version 6.08/02
%%CreationDate: Tue Dec 11 16:48:54 2018
%%DocumentNeededResources: ProcSet (FontSetInit)
%%EndComments
%%BeginProlog
80 dict begin
/s {stroke} def /l {lineto} def /m {moveto} def /t {translate} def
/r {rotate} def /rl {roll}  def /R {repeat} def
/d {rlineto} def /rm {rmoveto} def /gr {grestore} def /f {eofill} def
/c {setrgbcolor} def /black {0 setgray} def /sd {setdash} def
/cl {closepath} def /sf {scalefont setfont} def /lw {setlinewidth} def
/box {m dup 0 exch d exch 0 d 0 exch neg d cl} def
/NC{systemdict begin initclip end}def/C{NC box clip newpath}def
/bl {box s} def /bf {gsave box gsave f grestore 1 lw [] 0 sd s grestore} def /Y { 0 exch d} def /X { 0 d} def 
/K {{pop pop 0 moveto} exch kshow} bind def
/ita {/ang 15 def gsave [1 0 ang dup sin exch cos div 1 0 0] concat} def 
/mp {newpath /y exch def /x exch def} def
/side {[w .77 mul w .23 mul] .385 w mul sd w 0 l currentpoint t -144 r} def
/mr {mp x y w2 0 360 arc} def /m24 {mr s} def /m20 {mr f} def
/mb {mp x y w2 add m w2 neg 0 d 0 w neg d w 0 d 0 w d cl} def
/mt {mp x y w2 add m w2 neg w neg d w 0 d cl} def
/m21 {mb f} def /m25 {mb s} def /m22 {mt f} def /m26{mt s} def
/m23 {mp x y w2 sub m w2 w d w neg 0 d cl f} def
/m27 {mp x y w2 add m w3 neg w2 neg d w3 w2 neg d w3 w2 d cl s} def
/m28 {mp x w2 sub y w2 sub w3 add m w3 0 d  0 w3 neg d w3 0 d 0 w3 d w3 0 d  0 w3 d w3 neg 0 d 0 w3 d w3 neg 0 d 0 w3 neg d w3 neg 0 d cl s } def
/m29 {mp gsave x w2 sub y w2 add w3 sub m currentpoint t 4 {side} repeat cl fill gr} def
/m30 {mp gsave x w2 sub y w2 add w3 sub m currentpoint t 4 {side} repeat cl s gr} def
/m31 {mp x y w2 sub m 0 w d x w2 sub y m w 0 d x w2 sub y w2 add m w w neg d x w2 sub y w2 sub m w w d s} def
/m32 {mp x y w2 sub m w2 w d w neg 0 d cl s} def
/m33 {mp x y w2 add m w3 neg w2 neg d w3 w2 neg d w3 w2 d cl f} def
/m34 {mp x w2 sub y w2 sub w3 add m w3 0 d  0 w3 neg d w3 0 d 0 w3 d w3 0 d  0 w3 d w3 neg 0 d 0 w3 d w3 neg 0 d 0 w3 neg d w3 neg 0 d cl f } def
/m2 {mp x y w2 sub m 0 w d x w2 sub y m w 0 d s} def
/m5 {mp x w2 sub y w2 sub m w w d x w2 sub y w2 add m w w neg d s} def
%%IncludeResource: ProcSet (FontSetInit)
%%IncludeResource: font Times-Roman
%%IncludeResource: font Times-Italic
%%IncludeResource: font Times-Bold
%%IncludeResource: font Times-BoldItalic
%%IncludeResource: font Helvetica
%%IncludeResource: font Helvetica-Oblique
%%IncludeResource: font Helvetica-Bold
%%IncludeResource: font Helvetica-BoldOblique
%%IncludeResource: font Courier
%%IncludeResource: font Courier-Oblique
%%IncludeResource: font Courier-Bold
%%IncludeResource: font Courier-BoldOblique
%%IncludeResource: font Symbol
%%IncludeResource: font ZapfDingbats
/reEncode {exch findfont dup length dict begin {1 index /FID eq  {pop pop} {def} ifelse } forall /Encoding exch def currentdict end dup /FontName get exch definefont pop } def [/Times-Bold /Times-Italic /Times-BoldItalic /Helvetica /Helvetica-Oblique
 /Helvetica-Bold /Helvetica-BoldOblique /Courier /Courier-Oblique /Courier-Bold /Courier-BoldOblique /Times-Roman /AvantGarde-Book /AvantGarde-BookOblique /AvantGarde-Demi /AvantGarde-DemiOblique /Bookman-Demi /Bookman-DemiItalic /Bookman-Light
 /Bookman-LightItalic /Helvetica-Narrow /Helvetica-Narrow-Bold /Helvetica-Narrow-BoldOblique /Helvetica-Narrow-Oblique /NewCenturySchlbk-Roman /NewCenturySchlbk-Bold /NewCenturySchlbk-BoldItalic /NewCenturySchlbk-Italic /Palatino-Bold
 /Palatino-BoldItalic /Palatino-Italic /Palatino-Roman ] {ISOLatin1Encoding reEncode } forall
%%EndProlog
%%BeginSetup
%%EndSetup
newpath  gsave  .25 .25 scale  gsave  0 0 t black[  ] 0 sd 3 lw 1 1 1 c 2268 1630 0 0 bf black 1 1 1 c 1678 1271 363 277 bf black 1678 1271 363 277 bl 1 1 1 c 1678 1271 363 277 bf black 1678 1271 363 277 bl 363 277 m 1678 X s
 gsave  2268 1630 0 0 C 1982.83 31.3378 t 0 r /Times-Roman findfont 79.7689 sf 0 0 m (H) show NC gr 
 gsave  2268 1630 0 0 C 1908.76 65.5245 t 0 r /Symbol findfont 119.653 sf 0 0 m (G) show NC gr 
 gsave  2268 1630 0 0 C 1794.8 65.5245 t 0 r /Times-Roman findfont 119.653 sf 0 0 m (\)/ ) show NC gr 
 gsave  2268 1630 0 0 C 1743.52 65.5245 t 0 r /Times-Roman findfont 119.653 sf 0 0 m (c) show NC gr  6 lw 1744 145 m 51 X s 1795 145 m -34 17 d s 1795 145 m -34 -14 d s
 gsave  2268 1630 0 0 C 1706.49 65.5245 t 0 r /Times-Roman findfont 119.653 sf 0 0 m (\() show NC gr 
 gsave  2268 1630 0 0 C 1649.51 31.3378 t 0 r /Times-Roman findfont 79.7689 sf 0 0 m (H) show NC gr 
 gsave  2268 1630 0 0 C 1575.44 65.5245 t 0 r /Symbol findfont 119.653 sf 0 0 m (G) show NC gr  3 lw 443 313 m -36 Y s 643 295 m -18 Y s 842 313 m -36 Y s 1042 295 m -18 Y s 1242 313 m -36 Y s 1442 295 m -18 Y s 1641 313 m -36 Y s 1841 295 m -18 Y s
 2041 313 m -36 Y s 443 313 m -36 Y s
 gsave  2268 1630 0 0 C 418.787 190.876 t 0 r /Times-Roman findfont 94.0134 sf 0 0 m (0) show NC gr 
 gsave  2268 1630 0 0 C 783.445 190.876 t 0 r /Times-Roman findfont 94.0134 sf 0 0 m (0.5) show NC gr 
 gsave  2268 1630 0 0 C 1219.32 190.876 t 0 r /Times-Roman findfont 94.0134 sf 0 0 m (1) show NC gr 
 gsave  2268 1630 0 0 C 1583.98 190.876 t 0 r /Times-Roman findfont 94.0134 sf 0 0 m (1.5) show NC gr 
 gsave  2268 1630 0 0 C 2017.01 190.876 t 0 r /Times-Roman findfont 94.0134 sf 0 0 m (2) show NC gr  363 277 m 1271 Y s
 gsave  2268 1630 0 0 C 159.538 1296.24 t 90 r /Times-Roman findfont 119.653 sf 0 0 m (1\255CL) show NC gr  416 277 m -53 X s 389 326 m -26 X s 389 375 m -26 X s 389 424 m -26 X s 416 473 m -53 X s 389 521 m -26 X s 389 570 m -26 X s 389 619 m -26 X
 s 416 668 m -53 X s 389 717 m -26 X s 389 766 m -26 X s 389 815 m -26 X s 416 864 m -53 X s 389 913 m -26 X s 389 961 m -26 X s 389 1010 m -26 X s 416 1059 m -53 X s 389 1108 m -26 X s 389 1157 m -26 X s 389 1206 m -26 X s 416 1255 m -53 X s 389
 1304 m -26 X s 389 1353 m -26 X s 389 1401 m -26 X s 416 1450 m -53 X s 416 1450 m -53 X s 389 1499 m -26 X s
 gsave  2268 1630 0 0 C 293.436 245.005 t 0 r /Times-Roman findfont 94.0134 sf 0 0 m (0) show NC gr 
 gsave  2268 1630 0 0 C 222.213 438.729 t 0 r /Times-Roman findfont 94.0134 sf 0 0 m (0.2) show NC gr 
 gsave  2268 1630 0 0 C 222.213 635.302 t 0 r /Times-Roman findfont 94.0134 sf 0 0 m (0.4) show NC gr 
 gsave  2268 1630 0 0 C 222.213 831.876 t 0 r /Times-Roman findfont 94.0134 sf 0 0 m (0.6) show NC gr 
 gsave  2268 1630 0 0 C 225.062 1025.6 t 0 r /Times-Roman findfont 94.0134 sf 0 0 m (0.8) show NC gr 
 gsave  2268 1630 0 0 C 301.982 1222.17 t 0 r /Times-Roman findfont 94.0134 sf 0 0 m (1) show NC gr 
 gsave  2268 1630 0 0 C 222.213 1418.75 t 0 r /Times-Roman findfont 94.0134 sf 0 0 m (1.2) show NC gr  0.6 0.6 0.8 c 6 lw black 3 lw 0.6 0.6 0.8 c 2041 277 m -1678 X 314 X 9 1 d 25 X 8 1 d 9 1 d 8 1 d 9 1 d 8 1 d 8 2 d 9 3 d 8 3 d 9 4 d 8 5 d 8 6 d 9
 8 d 8 9 d 9 11 d 8 13 d 8 15 d 9 18 d 8 21 d 8 24 d 9 27 d 8 31 d 9 35 d 8 38 d 8 43 d 9 47 d 8 50 d 9 55 d 8 58 d 8 61 d 9 65 d 8 67 d 9 69 d 8 70 d 8 72 d 5 42 d 4 -30 d 8 -72 d 8 -71 d 9 -69 d 8 -67 d 9 -65 d 8 -62 d 8 -59 d 9 -55 d 8 -51 d 9 -47
 d 8 -44 d 8 -39 d 9 -36 d 8 -31 d 9 -28 d 8 -25 d 8 -21 d 9 -18 d 8 -16 d 9 -13 d 8 -12 d 8 -9 d 9 -8 d 8 -6 d 8 -5 d 9 -4 d 8 -4 d 9 -2 d 8 -2 d 8 -2 d 9 -1 d 8 -1 d 9 -1 d 8 X 8 -1 d 17 X 9 -1 d 717 X f 6 lw black 3 lw 363 277 m 1678 X s 443 313 m
 -36 Y s 643 295 m -18 Y s 842 313 m -36 Y s 1042 295 m -18 Y s 1242 313 m -36 Y s 1442 295 m -18 Y s 1641 313 m -36 Y s 1841 295 m -18 Y s 2041 313 m -36 Y s 443 313 m -36 Y s 363 277 m 1271 Y s 416 277 m -53 X s 389 326 m -26 X s 389 375 m -26 X s
 389 424 m -26 X s 416 473 m -53 X s 389 521 m -26 X s 389 570 m -26 X s 389 619 m -26 X s 416 668 m -53 X s 389 717 m -26 X s 389 766 m -26 X s 389 815 m -26 X s 416 864 m -53 X s 389 913 m -26 X s 389 961 m -26 X s 389 1010 m -26 X s 416 1059 m -53
 X s 389 1108 m -26 X s 389 1157 m -26 X s 389 1206 m -26 X s 416 1255 m -53 X s 389 1304 m -26 X s 389 1353 m -26 X s 389 1401 m -26 X s 416 1450 m -53 X s 416 1450 m -53 X s 389 1499 m -26 X s 0.6 0.6 0.8 c 6 lw black 0.6 0.6 0.8 c 363 277 m 314 X
 9 1 d 25 X 8 1 d 9 1 d 8 1 d 9 1 d 8 1 d 8 2 d 9 3 d 8 3 d 9 4 d 8 5 d 8 6 d 9 8 d 8 9 d 9 11 d 8 13 d 8 15 d 9 18 d 8 21 d 8 24 d 9 27 d 8 31 d 9 35 d 8 38 d 8 43 d 9 47 d 8 50 d 9 55 d 8 58 d 8 61 d 9 65 d 8 67 d 9 69 d 8 70 d 8 72 d 5 42 d 4 -30
 d 8 -72 d 8 -71 d 9 -69 d 8 -67 d 9 -65 d 8 -62 d 8 -59 d 9 -55 d 8 -51 d 9 -47 d 8 -44 d 8 -39 d 9 -36 d 8 -31 d 9 -28 d 8 -25 d 8 -21 d 9 -18 d 8 -16 d 9 -13 d 8 -12 d 8 -9 d 9 -8 d 8 -6 d 8 -5 d 9 -4 d 8 -4 d 9 -2 d 8 -2 d 8 -2 d 9 -1 d 8 -1 d 9
 -1 d 8 X 8 -1 d 17 X 9 -1 d 717 X s black 3 lw 363 1255 m 1678 X s 443 1219 m 36 Y s 643 1237 m 18 Y s 842 1219 m 36 Y s 1042 1237 m 18 Y s 1242 1219 m 36 Y s 1442 1237 m 18 Y s 1641 1219 m 36 Y s 1841 1237 m 18 Y s 2041 1219 m 36 Y s 443 1219 m 36
 Y s 2041 277 m 1271 Y s 1988 277 m 53 X s 2014 326 m 27 X s 2014 375 m 27 X s 2014 424 m 27 X s 1988 473 m 53 X s 2014 521 m 27 X s 2014 570 m 27 X s 2014 619 m 27 X s 1988 668 m 53 X s 2014 717 m 27 X s 2014 766 m 27 X s 2014 815 m 27 X s 1988 864
 m 53 X s 2014 913 m 27 X s 2014 961 m 27 X s 2014 1010 m 27 X s 1988 1059 m 53 X s 2014 1108 m 27 X s 2014 1157 m 27 X s 2014 1206 m 27 X s 1988 1255 m 53 X s 2014 1304 m 27 X s 2014 1353 m 27 X s 2014 1401 m 27 X s 1988 1450 m 53 X s 1988 1450 m 53
 X s 2014 1499 m 27 X s 1 1 1 c black 363 277 m 1678 X s 443 313 m -36 Y s 643 295 m -18 Y s 842 313 m -36 Y s 1042 295 m -18 Y s 1242 313 m -36 Y s 1442 295 m -18 Y s 1641 313 m -36 Y s 1841 295 m -18 Y s 2041 313 m -36 Y s 443 313 m -36 Y s 363 277
 m 1271 Y s 416 277 m -53 X s 389 326 m -26 X s 389 375 m -26 X s 389 424 m -26 X s 416 473 m -53 X s 389 521 m -26 X s 389 570 m -26 X s 389 619 m -26 X s 416 668 m -53 X s 389 717 m -26 X s 389 766 m -26 X s 389 815 m -26 X s 416 864 m -53 X s 389
 913 m -26 X s 389 961 m -26 X s 389 1010 m -26 X s 416 1059 m -53 X s 389 1108 m -26 X s 389 1157 m -26 X s 389 1206 m -26 X s 416 1255 m -53 X s 389 1304 m -26 X s 389 1353 m -26 X s 389 1401 m -26 X s 416 1450 m -53 X s 416 1450 m -53 X s 389 1499
 m -26 X s
 gsave  2268 1630 0 0 C 603.965 1390.26 t 0 r /Times-Roman findfont 56.9778 sf 0 0 m (EFT Run 2 Scan of cHW \(Prob\)) show NC gr  0.6 0.6 0.8 c 457 1311 m 123 X 187 Y -123 X f 6 lw 457 1405 m 123 X s black
 gsave  2268 1630 0 0 C 569.778 598.267 t 0 r /Times-Roman findfont 94.0134 sf 0 0 m (68.3%) show NC gr [ 4 8] 0 sd 3 lw 363 587 m 1678 X s
 gsave  2268 1630 0 0 C 569.778 333.32 t 0 r /Times-Roman findfont 94.0134 sf 0 0 m (95.5%) show NC gr  363 322 m 1678 X s
 gsave  2268 1630 0 0 C 1227.87 1037 t 0 r /Times-Roman findfont 119.653 sf 0 0 m (GammaCombo) show NC gr 
 gr  gr showpage
end
%%EOF
