%!PS-Adobe-2.0 EPSF-2.0
%%BoundingBox:  0 0 567 407
%%Title: plots/eps/HGamEFTScanner_2dscan_linear_quad_exp_cHWB:cHWBt_cHWB_cHWBt.eps: SMEFT Run2
%%Creator: ROOT Version 6.08/02
%%CreationDate: Sun Jul 11 10:36:59 2021
%%DocumentNeededResources: ProcSet (FontSetInit)
%%EndComments
%%BeginProlog
80 dict begin
/s {stroke} def /l {lineto} def /m {moveto} def /t {translate} def
/r {rotate} def /rl {roll}  def /R {repeat} def
/d {rlineto} def /rm {rmoveto} def /gr {grestore} def /f {eofill} def
/c {setrgbcolor} def /black {0 setgray} def /sd {setdash} def
/cl {closepath} def /sf {scalefont setfont} def /lw {setlinewidth} def
/box {m dup 0 exch d exch 0 d 0 exch neg d cl} def
/NC{systemdict begin initclip end}def/C{NC box clip newpath}def
/bl {box s} def /bf {gsave box gsave f grestore 1 lw [] 0 sd s grestore} def /Y { 0 exch d} def /X { 0 d} def 
/K {{pop pop 0 moveto} exch kshow} bind def
/ita {/ang 15 def gsave [1 0 ang dup sin exch cos div 1 0 0] concat} def 
/mp {newpath /y exch def /x exch def} def
/side {[w .77 mul w .23 mul] .385 w mul sd w 0 l currentpoint t -144 r} def
/mr {mp x y w2 0 360 arc} def /m24 {mr s} def /m20 {mr f} def
/mb {mp x y w2 add m w2 neg 0 d 0 w neg d w 0 d 0 w d cl} def
/mt {mp x y w2 add m w2 neg w neg d w 0 d cl} def
/m21 {mb f} def /m25 {mb s} def /m22 {mt f} def /m26{mt s} def
/m23 {mp x y w2 sub m w2 w d w neg 0 d cl f} def
/m27 {mp x y w2 add m w3 neg w2 neg d w3 w2 neg d w3 w2 d cl s} def
/m28 {mp x w2 sub y w2 sub w3 add m w3 0 d  0 w3 neg d w3 0 d 0 w3 d w3 0 d  0 w3 d w3 neg 0 d 0 w3 d w3 neg 0 d 0 w3 neg d w3 neg 0 d cl s } def
/m29 {mp gsave x w2 sub y w2 add w3 sub m currentpoint t 4 {side} repeat cl fill gr} def
/m30 {mp gsave x w2 sub y w2 add w3 sub m currentpoint t 4 {side} repeat cl s gr} def
/m31 {mp x y w2 sub m 0 w d x w2 sub y m w 0 d x w2 sub y w2 add m w w neg d x w2 sub y w2 sub m w w d s} def
/m32 {mp x y w2 sub m w2 w d w neg 0 d cl s} def
/m33 {mp x y w2 add m w3 neg w2 neg d w3 w2 neg d w3 w2 d cl f} def
/m34 {mp x w2 sub y w2 sub w3 add m w3 0 d  0 w3 neg d w3 0 d 0 w3 d w3 0 d  0 w3 d w3 neg 0 d 0 w3 d w3 neg 0 d 0 w3 neg d w3 neg 0 d cl f } def
/m2 {mp x y w2 sub m 0 w d x w2 sub y m w 0 d s} def
/m5 {mp x w2 sub y w2 sub m w w d x w2 sub y w2 add m w w neg d s} def
%%IncludeResource: ProcSet (FontSetInit)
%%IncludeResource: font Times-Roman
%%IncludeResource: font Times-Italic
%%IncludeResource: font Times-Bold
%%IncludeResource: font Times-BoldItalic
%%IncludeResource: font Helvetica
%%IncludeResource: font Helvetica-Oblique
%%IncludeResource: font Helvetica-Bold
%%IncludeResource: font Helvetica-BoldOblique
%%IncludeResource: font Courier
%%IncludeResource: font Courier-Oblique
%%IncludeResource: font Courier-Bold
%%IncludeResource: font Courier-BoldOblique
%%IncludeResource: font Symbol
%%IncludeResource: font ZapfDingbats
/reEncode {exch findfont dup length dict begin {1 index /FID eq  {pop pop} {def} ifelse } forall /Encoding exch def currentdict end dup /FontName get exch definefont pop } def [/Times-Bold /Times-Italic /Times-BoldItalic /Helvetica /Helvetica-Oblique
 /Helvetica-Bold /Helvetica-BoldOblique /Courier /Courier-Oblique /Courier-Bold /Courier-BoldOblique /Times-Roman /AvantGarde-Book /AvantGarde-BookOblique /AvantGarde-Demi /AvantGarde-DemiOblique /Bookman-Demi /Bookman-DemiItalic /Bookman-Light
 /Bookman-LightItalic /Helvetica-Narrow /Helvetica-Narrow-Bold /Helvetica-Narrow-BoldOblique /Helvetica-Narrow-Oblique /NewCenturySchlbk-Roman /NewCenturySchlbk-Bold /NewCenturySchlbk-BoldItalic /NewCenturySchlbk-Italic /Palatino-Bold
 /Palatino-BoldItalic /Palatino-Italic /Palatino-Roman ] {ISOLatin1Encoding reEncode } forall
%%EndProlog
%%BeginSetup
%%EndSetup
newpath  gsave  .25 .25 scale  gsave  0 0 t black[  ] 0 sd 3 lw 1 1 1 c 2268 1630 0 0 bf black 1 1 1 c 1791 1271 363 277 bf black 1791 1271 363 277 bl 1 1 1 c 1791 1271 363 277 bf black 1791 1271 363 277 bl 363 277 m 1791 X s
 gsave  2268 1630 0 0 C 1979.98 25.64 t 0 r /Times-Italic findfont 79.7689 sf 0 0 m (HWB) show NC gr 
 gsave  2268 1630 0 0 C 1903.06 59.8267 t 0 r /Times-Roman findfont 119.653 sf 0 0 m (C) show NC gr  6 lw 1903 151 m 77 X s 3 lw 363 277 m 1271 Y s
 gsave  2268 1630 0 0 C 170.933 1367.47 t 90 r /Times-Roman findfont 79.7689 sf 0 0 m (HWB) show NC gr 
 gsave  2268 1630 0 0 C 136.747 1290.55 t 90 r /Times-Roman findfont 119.653 sf 0 0 m (C) show NC gr 
 gsave  2268 1630 0 0 C 68.3734 1330.43 t 90 r  -32 0 t /Times-Roman findfont 119.653 sf 0 0 m (~) show NC gr  0.827451 0.913725 1 c black 0.827451 0.913725 1 c 1728 798 m -9 -25 d -9 -26 d -4 -7 d -13 -18 d -15 -26 d -7 -10 d -14 -15 d -21 -25 d -1
 -2 d -28 -24 d -8 -7 d -26 -18 d -10 -7 d -30 -19 d -6 -3 d -36 -16 d -14 -6 d -21 -7 d -36 -10 d -31 -8 d -5 -1 d -36 -4 d -36 -2 d -36 X -35 2 d -36 4 d -2 1 d -34 9 d -36 10 d -17 6 d -19 9 d -35 15 d -2 1 d -34 22 d -6 4 d -30 22 d -4 3 d -28 26
 d -4 3 d -17 22 d -19 20 d -3 5 d -14 26 d -18 25 d -1 1 d -8 25 d -8 25 d -9 26 d -7 25 d -3 14 d -2 11 d -1 26 d 25 Y 1 26 d 2 12 d 3 13 d 7 26 d 9 25 d 8 25 d 8 25 d 1 1 d 18 25 d 14 26 d 3 5 d 19 20 d 17 22 d 4 3 d 28 26 d 4 3 d 30 22 d 6 4 d 34
 22 d 2 1 d 35 15 d 19 9 d 17 6 d 36 10 d 34 10 d 2 X 36 4 d 35 2 d 36 X 36 -2 d 36 -4 d 5 X 31 -9 d 36 -10 d 21 -7 d 14 -6 d 36 -16 d 6 -3 d 30 -19 d 10 -7 d 26 -18 d 8 -7 d 28 -24 d 1 -2 d 21 -25 d 14 -14 d 7 -11 d 15 -26 d 13 -18 d 4 -7 d 9 -26 d
 9 -25 d 10 -25 d 4 -13 d 2 -13 d 3 -25 d 1 -26 d -25 Y -1 -26 d -3 -25 d -2 -13 d -4 -12 d -10 -26 d -84 26 d 8 25 d 5 25 d 2 26 d 25 Y -2 26 d -5 25 d -8 26 d -9 20 d -2 5 d -11 25 d -16 26 d -7 8 d -12 17 d -24 24 d -1 2 d -29 25 d -6 4 d -33 21 d
 -3 2 d -35 19 d -15 5 d -21 9 d -36 9 d -36 6 d -21 1 d -15 2 d -36 X -10 -2 d -25 -2 d -36 -6 d -36 -10 d -17 -7 d -19 -7 d -34 -19 d -2 X -35 -25 d -1 X -30 -25 d -5 -6 d -20 -20 d -16 -23 d -2 -2 d -17 -26 d -12 -25 d -5 -17 d -4 -8 d -9 -26 d -4
 -25 d -3 -26 d -25 Y 3 -26 d 4 -25 d 9 -25 d 4 -9 d 5 -17 d 12 -25 d 17 -26 d 2 -2 d 16 -23 d 20 -20 d 5 -6 d 30 -25 d 1 X 35 -24 d 2 -1 d 34 -19 d 19 -7 d 17 -7 d 36 -10 d 36 -6 d 25 -2 d 10 -2 d 36 X 15 2 d 21 1 d 36 6 d 36 9 d 21 9 d 15 5 d 35 19
 d 3 2 d 33 21 d 6 4 d 29 25 d 1 2 d 24 24 d 12 17 d 7 8 d 16 26 d 11 25 d 2 5 d 9 21 d f 0.35 0.33 0.85 c 6 lw 0.884975 0.752825 0.292488 c black 0.35 0.33 0.85 c 1389 1307 m 31 -9 d 36 -10 d 21 -7 d 14 -6 d 36 -16 d 6 -3 d 30 -19 d 10 -7 d 26 -18 d
 8 -7 d 28 -24 d 1 -2 d 21 -25 d 14 -14 d 7 -11 d 15 -26 d 13 -18 d 4 -7 d 9 -26 d 9 -25 d 10 -25 d 4 -13 d 2 -13 d 3 -25 d 1 -26 d -25 Y -1 -26 d -3 -25 d -2 -13 d -4 -12 d -10 -26 d -9 -25 d -9 -26 d -4 -7 d -13 -18 d -15 -26 d -7 -10 d -14 -15 d
 -21 -25 d -1 -2 d -28 -24 d -8 -7 d -26 -18 d -10 -7 d -30 -19 d -6 -3 d -36 -16 d -14 -6 d -21 -7 d -36 -10 d -31 -8 d -5 -1 d -36 -4 d -36 -2 d -36 X -35 2 d -36 4 d -2 1 d -34 9 d -36 10 d -17 6 d -19 9 d -35 15 d -2 1 d -34 22 d -6 4 d -30 22 d
 -4 3 d -28 26 d -4 3 d -17 22 d -19 20 d -3 5 d -14 26 d -18 25 d -1 1 d -8 25 d -8 25 d -9 26 d -7 25 d -3 14 d -2 11 d -1 26 d 25 Y 1 26 d 2 12 d 3 13 d 7 26 d 9 25 d 8 25 d 8 25 d 1 1 d 18 25 d 14 26 d 3 5 d 19 20 d 17 22 d 4 3 d 28 26 d 4 3 d 30
 22 d 6 4 d 34 22 d 2 1 d 35 15 d 19 9 d 17 6 d 36 10 d 34 10 d 2 X 36 4 d 35 2 d 36 X 36 -2 d 36 -4 d 5 X cl s 0.884975 0.752825 0.292488 c black 0.35 0.33 0.85 c 1312 1232 m -36 X -10 -2 d -25 -2 d -36 -6 d -36 -10 d -17 -7 d -19 -7 d -34 -19 d -2
 X -35 -25 d -1 X -30 -25 d -5 -6 d -20 -20 d -16 -23 d -2 -2 d -17 -26 d -12 -25 d -5 -17 d -4 -8 d -9 -26 d -4 -25 d -3 -26 d -25 Y 3 -26 d 4 -25 d 9 -25 d 4 -9 d 5 -17 d 12 -25 d 17 -26 d 2 -2 d 16 -23 d 20 -20 d 5 -6 d 30 -25 d 1 X 35 -24 d 2 -1
 d 34 -19 d 19 -7 d 17 -7 d 36 -10 d 36 -6 d 25 -2 d 10 -2 d 36 X 15 2 d 21 1 d 36 6 d 36 9 d 21 9 d 15 5 d 35 19 d 3 2 d 33 21 d 6 4 d 29 25 d 1 2 d 24 24 d 12 17 d 7 8 d 16 26 d 11 25 d 2 5 d 9 21 d 8 25 d 5 25 d 2 26 d 25 Y -2 26 d -5 25 d -8 26 d
 -9 20 d -2 5 d -11 25 d -16 26 d -7 8 d -12 17 d -24 24 d -1 2 d -29 25 d -6 4 d -33 21 d -3 2 d -35 19 d -15 5 d -21 9 d -36 9 d -36 6 d -21 1 d -15 2 d cl s black 3 lw 0.745098 0.905882 0.992157 c black 0.745098 0.905882 0.992157 c 1727 900 m -2
 -26 d -4 -25 d -4 -25 d -6 -26 d -5 -20 d -4 -5 d -16 -26 d -11 -25 d -4 -8 d -17 -18 d -17 -25 d -2 -3 d -25 -22 d -11 -11 d -20 -15 d -16 -12 d -20 -13 d -16 -9 d -29 -17 d -7 -2 d -35 -12 d -26 -11 d -10 -2 d -36 -6 d -36 -5 d -36 -2 d -36 X -35
 3 d -36 5 d -36 5 d -6 2 d -30 12 d -36 12 d -3 1 d -32 19 d -12 7 d -24 16 d -12 9 d -24 19 d -7 7 d -28 25 d -1 1 d -15 24 d -21 23 d -1 3 d -10 25 d -13 26 d -12 17 d -2 8 d -5 26 d -4 25 d -3 25 d -1 26 d 25 Y 1 26 d 3 25 d 4 26 d 5 25 d 2 8 d
 12 17 d 13 26 d 10 25 d 1 3 d 21 23 d 15 24 d 1 1 d 28 25 d 7 8 d 24 18 d 12 9 d 24 16 d 12 7 d 32 19 d 3 1 d 36 12 d 30 12 d 6 2 d 36 6 d 36 4 d 35 3 d 36 X 36 -2 d 36 -5 d 36 -6 d 10 -2 d 26 -11 d 35 -12 d 7 -2 d 29 -17 d 16 -9 d 20 -13 d 16 -12 d
 20 -15 d 11 -11 d 25 -22 d 2 -3 d 17 -25 d 17 -17 d 4 -9 d 11 -25 d 16 -26 d 4 -5 d 5 -20 d 6 -25 d 4 -26 d 4 -25 d 2 -26 d -25 Y -46 X 25 Y -3 26 d -7 23 d -1 2 d -4 26 d -7 25 d -12 25 d -12 16 d -5 10 d -15 25 d -16 16 d -8 10 d -28 24 d -1 1 d
 -32 25 d -3 2 d -36 22 d -4 2 d -31 16 d -32 9 d -4 2 d -36 12 d -36 5 d -36 2 d -36 X -35 -3 d -36 -5 d -35 -13 d -1 X -36 -11 d -27 -14 d -9 -4 d -33 -22 d -2 -1 d -32 -24 d -4 -4 d -24 -21 d -12 -16 d -10 -10 d -18 -25 d -8 -19 d -6 -7 d -14 -25
 d -7 -25 d -5 -26 d -3 -25 d -1 -9 d -3 -17 d -25 Y 3 -17 d 1 -9 d 3 -25 d 5 -25 d 7 -26 d 14 -25 d 6 -7 d 8 -19 d 18 -25 d 10 -10 d 12 -16 d 24 -21 d 4 -4 d 32 -24 d 2 -1 d 33 -22 d 9 -4 d 27 -14 d 36 -11 d 1 X 35 -13 d 36 -5 d 35 -3 d 36 X 36 2 d
 36 5 d 36 12 d 4 2 d 32 9 d 31 16 d 4 2 d 36 22 d 3 2 d 32 25 d 1 1 d 28 24 d 8 11 d 16 15 d 15 25 d 5 10 d 12 16 d 12 25 d 7 26 d 4 25 d 1 2 d 7 23 d 3 26 d f black 0.0941176 0.666667 0.905882 c black 0.0941176 0.666667 0.905882 c 1 lw <<
 /PatternType 1 /PaintType 2 /TilingType 1 /BBox [ 0 0 100 100 ] /XStep 100 /YStep 100 /PaintProc { begin gsave 0 100 m 100 0 l s gr end } >> [ 0.24 0 0 0.24 0 0 ] makepattern /P05 exch def /cs {[/Pattern /DeviceRGB] setcolorspace} def /FA {f
 [/DeviceRGB] setcolorspace} def cs 0.0941176 0.666667 0.905882 P05 setcolor 1727 900 m -2 -26 d -4 -25 d -4 -25 d -6 -26 d -5 -20 d -4 -5 d -16 -26 d -11 -25 d -4 -8 d -17 -18 d -17 -25 d -2 -3 d -25 -22 d -11 -11 d -20 -15 d -16 -12 d -20 -13 d -16
 -9 d -29 -17 d -7 -2 d -35 -12 d -26 -11 d -10 -2 d -36 -6 d -36 -5 d -36 -2 d -36 X -35 3 d -36 5 d -36 5 d -6 2 d -30 12 d -36 12 d -3 1 d -32 19 d -12 7 d -24 16 d -12 9 d -24 19 d -7 7 d -28 25 d -1 1 d -15 24 d -21 23 d -1 3 d -10 25 d -13 26 d
 -12 17 d -2 8 d -5 26 d -4 25 d -3 25 d -1 26 d 25 Y 1 26 d 3 25 d 4 26 d 5 25 d 2 8 d 12 17 d 13 26 d 10 25 d 1 3 d 21 23 d 15 24 d 1 1 d 28 25 d 7 8 d 24 18 d 12 9 d 24 16 d 12 7 d 32 19 d 3 1 d 36 12 d 30 12 d 6 2 d 36 6 d 36 4 d 35 3 d 36 X 36
 -2 d 36 -5 d 36 -6 d 10 -2 d 26 -11 d 35 -12 d 7 -2 d 29 -17 d 16 -9 d 20 -13 d 16 -12 d 20 -15 d 11 -11 d 25 -22 d 2 -3 d 17 -25 d 17 -17 d 4 -9 d 11 -25 d 16 -26 d 4 -5 d 5 -20 d 6 -25 d 4 -26 d 4 -25 d 2 -26 d -25 Y -46 X 25 Y -3 26 d -7 23 d -1
 2 d -4 26 d -7 25 d -12 25 d -12 16 d -5 10 d -15 25 d -16 16 d -8 10 d -28 24 d -1 1 d -32 25 d -3 2 d -36 22 d -4 2 d -31 16 d -32 9 d -4 2 d -36 12 d -36 5 d -36 2 d -36 X -35 -3 d -36 -5 d -35 -13 d -1 X -36 -11 d -27 -14 d -9 -4 d -33 -22 d -2
 -1 d -32 -24 d -4 -4 d -24 -21 d -12 -16 d -10 -10 d -18 -25 d -8 -19 d -6 -7 d -14 -25 d -7 -25 d -5 -26 d -3 -25 d -1 -9 d -3 -17 d -25 Y 3 -17 d 1 -9 d 3 -25 d 5 -25 d 7 -26 d 14 -25 d 6 -7 d 8 -19 d 18 -25 d 10 -10 d 12 -16 d 24 -21 d 4 -4 d 32
 -24 d 2 -1 d 33 -22 d 9 -4 d 27 -14 d 36 -11 d 1 X 35 -13 d 36 -5 d 35 -3 d 36 X 36 2 d 36 5 d 36 12 d 4 2 d 32 9 d 31 16 d 4 2 d 36 22 d 3 2 d 32 25 d 1 1 d 28 24 d 8 11 d 16 15 d 15 25 d 5 10 d 12 16 d 12 25 d 7 26 d 4 25 d 1 2 d 7 23 d 3 26 d FA
 3 lw 0.0941176 0.666667 0.905882 c 6 lw 0.977 0.977044 0.0583656 c black 0.0941176 0.666667 0.905882 c 1430 1281 m 26 -11 d 35 -12 d 7 -2 d 29 -17 d 16 -9 d 20 -13 d 16 -12 d 20 -15 d 11 -11 d 25 -22 d 2 -3 d 17 -25 d 17 -17 d 4 -9 d 11 -25 d 16 -26
 d 4 -5 d 5 -20 d 6 -25 d 4 -26 d 4 -25 d 2 -26 d -25 Y -2 -26 d -4 -25 d -4 -25 d -6 -26 d -5 -20 d -4 -5 d -16 -26 d -11 -25 d -4 -8 d -17 -18 d -17 -25 d -2 -3 d -25 -22 d -11 -11 d -20 -15 d -16 -12 d -20 -13 d -16 -9 d -29 -17 d -7 -2 d -35 -12
 d -26 -11 d -10 -2 d -36 -6 d -36 -5 d -36 -2 d -36 X -35 3 d -36 5 d -36 5 d -6 2 d -30 12 d -36 12 d -3 1 d -32 19 d -12 7 d -24 16 d -12 9 d -24 19 d -7 7 d -28 25 d -1 1 d -15 24 d -21 23 d -1 3 d -10 25 d -13 26 d -12 17 d -2 8 d -5 26 d -4 25
 d -3 25 d -1 26 d 25 Y 1 26 d 3 25 d 4 26 d 5 25 d 2 8 d 12 17 d 13 26 d 10 25 d 1 3 d 21 23 d 15 24 d 1 1 d 28 25 d 7 8 d 24 18 d 12 9 d 24 16 d 12 7 d 32 19 d 3 1 d 36 12 d 30 12 d 6 2 d 36 6 d 36 4 d 35 3 d 36 X 36 -2 d 36 -5 d 36 -6 d 10 -2 d cl
 s 0.977 0.977044 0.0583656 c black 0.0941176 0.666667 0.905882 c 1384 1244 m -36 5 d -36 2 d -36 X -35 -3 d -36 -5 d -35 -13 d -1 X -36 -11 d -27 -14 d -9 -4 d -33 -22 d -2 -1 d -32 -24 d -4 -4 d -24 -21 d -12 -16 d -10 -10 d -18 -25 d -8 -19 d -6
 -7 d -14 -25 d -7 -25 d -5 -26 d -3 -25 d -1 -9 d -3 -17 d -25 Y 3 -17 d 1 -9 d 3 -25 d 5 -25 d 7 -26 d 14 -25 d 6 -7 d 8 -19 d 18 -25 d 10 -10 d 12 -16 d 24 -21 d 4 -4 d 32 -24 d 2 -1 d 33 -22 d 9 -4 d 27 -14 d 36 -11 d 1 X 35 -13 d 36 -5 d 35 -3 d
 36 X 36 2 d 36 5 d 36 12 d 4 2 d 32 9 d 31 16 d 4 2 d 36 22 d 3 2 d 32 25 d 1 1 d 28 24 d 8 11 d 16 15 d 15 25 d 5 10 d 12 16 d 12 25 d 7 26 d 4 25 d 1 2 d 7 23 d 3 26 d 25 Y -3 26 d -7 23 d -1 2 d -4 26 d -7 25 d -12 25 d -12 16 d -5 10 d -15 25 d
 -16 16 d -8 10 d -28 24 d -1 1 d -32 25 d -3 2 d -36 22 d -4 2 d -31 16 d -32 9 d -4 2 d -36 12 d cl s 0.35 0.33 0.85 c[ 12 12] 0 sd 0.884975 0.752825 0.292488 c black 0.35 0.33 0.85 c 1389 1307 m 31 -9 d 36 -10 d 21 -7 d 14 -6 d 36 -16 d 6 -3 d 30
 -19 d 10 -7 d 26 -18 d 8 -7 d 28 -24 d 1 -2 d 21 -25 d 14 -14 d 7 -11 d 15 -26 d 13 -18 d 4 -7 d 9 -26 d 9 -25 d 10 -25 d 4 -13 d 2 -13 d 3 -25 d 1 -26 d -25 Y -1 -26 d -3 -25 d -2 -13 d -4 -12 d -10 -26 d -9 -25 d -9 -26 d -4 -7 d -13 -18 d -15 -26
 d -7 -10 d -14 -15 d -21 -25 d -1 -2 d -28 -24 d -8 -7 d -26 -18 d -10 -7 d -30 -19 d -6 -3 d -36 -16 d -14 -6 d -21 -7 d -36 -10 d -31 -8 d -5 -1 d -36 -4 d -36 -2 d -36 X -35 2 d -36 4 d -2 1 d -34 9 d -36 10 d -17 6 d -19 9 d -35 15 d -2 1 d -34
 22 d -6 4 d -30 22 d -4 3 d -28 26 d -4 3 d -17 22 d -19 20 d -3 5 d -14 26 d -18 25 d -1 1 d -8 25 d -8 25 d -9 26 d -7 25 d -3 14 d -2 11 d -1 26 d 25 Y 1 26 d 2 12 d 3 13 d 7 26 d 9 25 d 8 25 d 8 25 d 1 1 d 18 25 d 14 26 d 3 5 d 19 20 d 17 22 d 4
 3 d 28 26 d 4 3 d 30 22 d 6 4 d 34 22 d 2 1 d 35 15 d 19 9 d 17 6 d 36 10 d 34 10 d 2 X 36 4 d 35 2 d 36 X 36 -2 d 36 -4 d 5 X cl s 0.884975 0.752825 0.292488 c black 0.35 0.33 0.85 c 1312 1232 m -36 X -10 -2 d -25 -2 d -36 -6 d -36 -10 d -17 -7 d
 -19 -7 d -34 -19 d -2 X -35 -25 d -1 X -30 -25 d -5 -6 d -20 -20 d -16 -23 d -2 -2 d -17 -26 d -12 -25 d -5 -17 d -4 -8 d -9 -26 d -4 -25 d -3 -26 d -25 Y 3 -26 d 4 -25 d 9 -25 d 4 -9 d 5 -17 d 12 -25 d 17 -26 d 2 -2 d 16 -23 d 20 -20 d 5 -6 d 30
 -25 d 1 X 35 -24 d 2 -1 d 34 -19 d 19 -7 d 17 -7 d 36 -10 d 36 -6 d 25 -2 d 10 -2 d 36 X 15 2 d 21 1 d 36 6 d 36 9 d 21 9 d 15 5 d 35 19 d 3 2 d 33 21 d 6 4 d 29 25 d 1 2 d 24 24 d 12 17 d 7 8 d 16 26 d 11 25 d 2 5 d 9 21 d 8 25 d 5 25 d 2 26 d 25 Y
 -2 26 d -5 25 d -8 26 d -9 20 d -2 5 d -11 25 d -16 26 d -7 8 d -12 17 d -24 24 d -1 2 d -29 25 d -6 4 d -33 21 d -3 2 d -35 19 d -15 5 d -21 9 d -36 9 d -36 6 d -21 1 d -15 2 d cl s 0.0941176 0.666667 0.905882 c 0.977 0.977044 0.0583656 c black
 0.0941176 0.666667 0.905882 c 1430 1281 m 26 -11 d 35 -12 d 7 -2 d 29 -17 d 16 -9 d 20 -13 d 16 -12 d 20 -15 d 11 -11 d 25 -22 d 2 -3 d 17 -25 d 17 -17 d 4 -9 d 11 -25 d 16 -26 d 4 -5 d 5 -20 d 6 -25 d 4 -26 d 4 -25 d 2 -26 d -25 Y -2 -26 d -4 -25 d
 -4 -25 d -6 -26 d -5 -20 d -4 -5 d -16 -26 d -11 -25 d -4 -8 d -17 -18 d -17 -25 d -2 -3 d -25 -22 d -11 -11 d -20 -15 d -16 -12 d -20 -13 d -16 -9 d -29 -17 d -7 -2 d -35 -12 d -26 -11 d -10 -2 d -36 -6 d -36 -5 d -36 -2 d -36 X -35 3 d -36 5 d -36
 5 d -6 2 d -30 12 d -36 12 d -3 1 d -32 19 d -12 7 d -24 16 d -12 9 d -24 19 d -7 7 d -28 25 d -1 1 d -15 24 d -21 23 d -1 3 d -10 25 d -13 26 d -12 17 d -2 8 d -5 26 d -4 25 d -3 25 d -1 26 d 25 Y 1 26 d 3 25 d 4 26 d 5 25 d 2 8 d 12 17 d 13 26 d
 10 25 d 1 3 d 21 23 d 15 24 d 1 1 d 28 25 d 7 8 d 24 18 d 12 9 d 24 16 d 12 7 d 32 19 d 3 1 d 36 12 d 30 12 d 6 2 d 36 6 d 36 4 d 35 3 d 36 X 36 -2 d 36 -5 d 36 -6 d 10 -2 d cl s 0.977 0.977044 0.0583656 c black 0.0941176 0.666667 0.905882 c 1384
 1244 m -36 5 d -36 2 d -36 X -35 -3 d -36 -5 d -35 -13 d -1 X -36 -11 d -27 -14 d -9 -4 d -33 -22 d -2 -1 d -32 -24 d -4 -4 d -24 -21 d -12 -16 d -10 -10 d -18 -25 d -8 -19 d -6 -7 d -14 -25 d -7 -25 d -5 -26 d -3 -25 d -1 -9 d -3 -17 d -25 Y 3 -17
 d 1 -9 d 3 -25 d 5 -25 d 7 -26 d 14 -25 d 6 -7 d 8 -19 d 18 -25 d 10 -10 d 12 -16 d 24 -21 d 4 -4 d 32 -24 d 2 -1 d 33 -22 d 9 -4 d 27 -14 d 36 -11 d 1 X 35 -13 d 36 -5 d 35 -3 d 36 X 36 2 d 36 5 d 36 12 d 4 2 d 32 9 d 31 16 d 4 2 d 36 22 d 3 2 d 32
 25 d 1 1 d 28 24 d 8 11 d 16 15 d 15 25 d 5 10 d 12 16 d 12 25 d 7 26 d 4 25 d 1 2 d 7 23 d 3 26 d 25 Y -3 26 d -7 23 d -1 2 d -4 26 d -7 25 d -12 25 d -12 16 d -5 10 d -15 25 d -16 16 d -8 10 d -28 24 d -1 1 d -32 25 d -3 2 d -36 22 d -4 2 d -31 16
 d -32 9 d -4 2 d -36 12 d cl s black[  ] 0 sd 3 lw 363 1548 m 1791 X s 363 1509 m 39 Y s 587 1529 m 19 Y s 811 1509 m 39 Y s 1035 1529 m 19 Y s 1259 1509 m 39 Y s 1483 1529 m 19 Y s 1706 1509 m 39 Y s 1930 1529 m 19 Y s 2154 1509 m 39 Y s 363 1509 m
 39 Y s 2154 1509 m 39 Y s 363 277 m 1791 X s 363 316 m -39 Y s 587 296 m -19 Y s 811 316 m -39 Y s 1035 296 m -19 Y s 1259 316 m -39 Y s 1483 296 m -19 Y s 1706 316 m -39 Y s 1930 296 m -19 Y s 2154 316 m -39 Y s 363 316 m -39 Y s 2154 316 m -39 Y s
 gsave  2268 1630 0 0 C 282.04 190.876 t 0 r /Times-Roman findfont 94.0134 sf 0 0 m (0.015) show NC gr 
 gsave  2268 1630 0 0 C 230.76 190.876 t 0 r /Symbol findfont 94.0134 sf 0 0 m (-) show NC gr 
 gsave  2268 1630 0 0 C 754.956 190.876 t 0 r /Times-Roman findfont 94.0134 sf 0 0 m (0.01) show NC gr 
 gsave  2268 1630 0 0 C 703.676 190.876 t 0 r /Symbol findfont 94.0134 sf 0 0 m (-) show NC gr 
 gsave  2268 1630 0 0 C 1176.59 190.876 t 0 r /Times-Roman findfont 94.0134 sf 0 0 m (0.005) show NC gr 
 gsave  2268 1630 0 0 C 1125.31 190.876 t 0 r /Symbol findfont 94.0134 sf 0 0 m (-) show NC gr 
 gsave  2268 1630 0 0 C 1680.85 190.876 t 0 r /Times-Roman findfont 94.0134 sf 0 0 m (0) show NC gr 
 gsave  2268 1630 0 0 C 2048.35 190.876 t 0 r /Times-Roman findfont 94.0134 sf 0 0 m (0.005) show NC gr  363 277 m 1271 Y s 416 515 m -53 X s 389 714 m -26 X s 416 913 m -53 X s 389 1111 m -26 X s 416 1310 m -53 X s 416 515 m -53 X s 389 317 m -26 X
 s 416 1310 m -53 X s 389 1508 m -26 X s
 gsave  2268 1630 0 0 C 131.049 481.462 t 0 r /Times-Roman findfont 94.0134 sf 0 0 m (0.005) show NC gr 
 gsave  2268 1630 0 0 C 79.7689 481.462 t 0 r /Symbol findfont 94.0134 sf 0 0 m (-) show NC gr 
 gsave  2268 1630 0 0 C 293.436 880.307 t 0 r /Times-Roman findfont 94.0134 sf 0 0 m (0) show NC gr 
 gsave  2268 1630 0 0 C 131.049 1276.3 t 0 r /Times-Roman findfont 94.0134 sf 0 0 m (0.005) show NC gr  2154 277 m 1271 Y s 2101 515 m 53 X s 2128 714 m 26 X s 2101 913 m 53 X s 2128 1111 m 26 X s 2101 1310 m 53 X s 2101 515 m 53 X s 2128 317 m 26 X
 s 2101 1310 m 53 X s 2128 1508 m 26 X s 0.35 0.33 0.85 c /w 36 def /w2 {w 2 div} def /w3 {w 3 div} def 987 1151 m31 979 683 m31 1140 1248 m31 1140 577 m31 black
 gsave  2268 1630 0 0 C 598.267 1316.19 t 0 r /Times-Roman findfont 76.92 sf 0 0 m (SMEFT Run2) show NC gr 
 gsave  2268 1630 0 0 C 1227.87 1324.73 t 0 r /Times-Roman findfont 119.653 sf 0 0 m (GammaCombo) show NC gr  0.6 0.6 0.6 c black 0.6 0.6 0.6 c
 gsave  2268 1630 0 0 C 407.391 330.471 t 0 r /Times-Roman findfont 56.9778 sf 0 0 m (contours hold 68%, 95% CL) show NC gr 
 gr  gr showpage
end
%%EOF
