%!PS-Adobe-2.0 EPSF-2.0
%%BoundingBox:  0 0 567 407
%%Title: plots/eps/HGamEFTScanner_cg:cgt_cgt_cg.eps: EFT Run 2 Scan of cg:~cg
%%Creator: ROOT Version 6.08/02
%%CreationDate: Tue Dec 11 18:07:40 2018
%%DocumentNeededResources: ProcSet (FontSetInit)
%%EndComments
%%BeginProlog
80 dict begin
/s {stroke} def /l {lineto} def /m {moveto} def /t {translate} def
/r {rotate} def /rl {roll}  def /R {repeat} def
/d {rlineto} def /rm {rmoveto} def /gr {grestore} def /f {eofill} def
/c {setrgbcolor} def /black {0 setgray} def /sd {setdash} def
/cl {closepath} def /sf {scalefont setfont} def /lw {setlinewidth} def
/box {m dup 0 exch d exch 0 d 0 exch neg d cl} def
/NC{systemdict begin initclip end}def/C{NC box clip newpath}def
/bl {box s} def /bf {gsave box gsave f grestore 1 lw [] 0 sd s grestore} def /Y { 0 exch d} def /X { 0 d} def 
/K {{pop pop 0 moveto} exch kshow} bind def
/ita {/ang 15 def gsave [1 0 ang dup sin exch cos div 1 0 0] concat} def 
/mp {newpath /y exch def /x exch def} def
/side {[w .77 mul w .23 mul] .385 w mul sd w 0 l currentpoint t -144 r} def
/mr {mp x y w2 0 360 arc} def /m24 {mr s} def /m20 {mr f} def
/mb {mp x y w2 add m w2 neg 0 d 0 w neg d w 0 d 0 w d cl} def
/mt {mp x y w2 add m w2 neg w neg d w 0 d cl} def
/m21 {mb f} def /m25 {mb s} def /m22 {mt f} def /m26{mt s} def
/m23 {mp x y w2 sub m w2 w d w neg 0 d cl f} def
/m27 {mp x y w2 add m w3 neg w2 neg d w3 w2 neg d w3 w2 d cl s} def
/m28 {mp x w2 sub y w2 sub w3 add m w3 0 d  0 w3 neg d w3 0 d 0 w3 d w3 0 d  0 w3 d w3 neg 0 d 0 w3 d w3 neg 0 d 0 w3 neg d w3 neg 0 d cl s } def
/m29 {mp gsave x w2 sub y w2 add w3 sub m currentpoint t 4 {side} repeat cl fill gr} def
/m30 {mp gsave x w2 sub y w2 add w3 sub m currentpoint t 4 {side} repeat cl s gr} def
/m31 {mp x y w2 sub m 0 w d x w2 sub y m w 0 d x w2 sub y w2 add m w w neg d x w2 sub y w2 sub m w w d s} def
/m32 {mp x y w2 sub m w2 w d w neg 0 d cl s} def
/m33 {mp x y w2 add m w3 neg w2 neg d w3 w2 neg d w3 w2 d cl f} def
/m34 {mp x w2 sub y w2 sub w3 add m w3 0 d  0 w3 neg d w3 0 d 0 w3 d w3 0 d  0 w3 d w3 neg 0 d 0 w3 d w3 neg 0 d 0 w3 neg d w3 neg 0 d cl f } def
/m2 {mp x y w2 sub m 0 w d x w2 sub y m w 0 d s} def
/m5 {mp x w2 sub y w2 sub m w w d x w2 sub y w2 add m w w neg d s} def
%%IncludeResource: ProcSet (FontSetInit)
%%IncludeResource: font Times-Roman
%%IncludeResource: font Times-Italic
%%IncludeResource: font Times-Bold
%%IncludeResource: font Times-BoldItalic
%%IncludeResource: font Helvetica
%%IncludeResource: font Helvetica-Oblique
%%IncludeResource: font Helvetica-Bold
%%IncludeResource: font Helvetica-BoldOblique
%%IncludeResource: font Courier
%%IncludeResource: font Courier-Oblique
%%IncludeResource: font Courier-Bold
%%IncludeResource: font Courier-BoldOblique
%%IncludeResource: font Symbol
%%IncludeResource: font ZapfDingbats
/reEncode {exch findfont dup length dict begin {1 index /FID eq  {pop pop} {def} ifelse } forall /Encoding exch def currentdict end dup /FontName get exch definefont pop } def [/Times-Bold /Times-Italic /Times-BoldItalic /Helvetica /Helvetica-Oblique
 /Helvetica-Bold /Helvetica-BoldOblique /Courier /Courier-Oblique /Courier-Bold /Courier-BoldOblique /Times-Roman /AvantGarde-Book /AvantGarde-BookOblique /AvantGarde-Demi /AvantGarde-DemiOblique /Bookman-Demi /Bookman-DemiItalic /Bookman-Light
 /Bookman-LightItalic /Helvetica-Narrow /Helvetica-Narrow-Bold /Helvetica-Narrow-BoldOblique /Helvetica-Narrow-Oblique /NewCenturySchlbk-Roman /NewCenturySchlbk-Bold /NewCenturySchlbk-BoldItalic /NewCenturySchlbk-Italic /Palatino-Bold
 /Palatino-BoldItalic /Palatino-Italic /Palatino-Roman ] {ISOLatin1Encoding reEncode } forall
%%EndProlog
%%BeginSetup
%%EndSetup
newpath  gsave  .25 .25 scale  gsave  0 0 t black[  ] 0 sd 3 lw 1 1 1 c 2268 1630 0 0 bf black 1 1 1 c 1791 1271 363 277 bf black 1791 1271 363 277 bl 1 1 1 c 1791 1271 363 277 bf black 1791 1271 363 277 bl 363 277 m 1791 X s
 gsave  2268 1630 0 0 C 2113.88 51.28 t 0 r /Times-Roman findfont 79.7689 sf 0 0 m (g) show NC gr 
 gsave  2268 1630 0 0 C 2062.6 76.92 t 0 r /Times-Roman findfont 119.653 sf 0 0 m (c) show NC gr 
 gsave  2268 1630 0 0 C 2088.24 119.653 t 0 r  -32 0 t /Times-Roman findfont 119.653 sf 0 0 m (~) show NC gr  363 277 m 1271 Y s
 gsave  2268 1630 0 0 C 145.293 1509.91 t 90 r /Times-Roman findfont 79.7689 sf 0 0 m (g) show NC gr 
 gsave  2268 1630 0 0 C 119.653 1458.63 t 90 r /Times-Roman findfont 119.653 sf 0 0 m (c) show NC gr  6 lw 54 1459 m 51 Y s 3 lw 0.745098 0.905882 0.992157 c black 0.745098 0.905882 0.992157 c 363 277 m 1271 Y 1791 X -1271 Y -1791 X f black 0.0941176
 0.666667 0.905882 c black 0.0941176 0.666667 0.905882 c 1 lw << /PatternType 1 /PaintType 2 /TilingType 1 /BBox [ 0 0 100 100 ] /XStep 100 /YStep 100 /PaintProc { begin gsave 0 100 m 100 0 l s gr end } >> [ 0.24 0 0 0.24 0 0 ] makepattern /P05 exch
 def /cs {[/Pattern /DeviceRGB] setcolorspace} def /FA {f [/DeviceRGB] setcolorspace} def cs 0.0941176 0.666667 0.905882 P05 setcolor 363 277 m 1271 Y 1791 X -1271 Y -1791 X FA 3 lw 0.0941176 0.666667 0.905882 c 6 lw black 0.0941176 0.666667 0.905882
 c 363 277 m 1271 Y 1791 X -1271 Y -1791 X cl s[ 12 12] 0 sd black 0.0941176 0.666667 0.905882 c 363 277 m 1271 Y 1791 X -1271 Y -1791 X cl s black[  ] 0 sd 3 lw 363 1548 m 1791 X s 363 1509 m 39 Y s 587 1529 m 19 Y s 811 1509 m 39 Y s 1035 1529 m 19
 Y s 1259 1509 m 39 Y s 1483 1529 m 19 Y s 1706 1509 m 39 Y s 1930 1529 m 19 Y s 2154 1509 m 39 Y s 363 1509 m 39 Y s 2154 1509 m 39 Y s 363 277 m 1791 X s 363 316 m -39 Y s 587 296 m -19 Y s 811 316 m -39 Y s 1035 296 m -19 Y s 1259 316 m -39 Y s
 1483 296 m -19 Y s 1706 316 m -39 Y s 1930 296 m -19 Y s 2154 316 m -39 Y s 363 316 m -39 Y s 2154 316 m -39 Y s
 gsave  2268 1630 0 0 C 330.471 190.876 t 0 r /Times-Roman findfont 94.0134 sf 0 0 m (0.1) show NC gr 
 gsave  2268 1630 0 0 C 282.04 190.876 t 0 r /Symbol findfont 94.0134 sf 0 0 m (-) show NC gr 
 gsave  2268 1630 0 0 C 752.107 190.876 t 0 r /Times-Roman findfont 94.0134 sf 0 0 m (0.05) show NC gr 
 gsave  2268 1630 0 0 C 703.676 190.876 t 0 r /Symbol findfont 94.0134 sf 0 0 m (-) show NC gr 
 gsave  2268 1630 0 0 C 1233.57 190.876 t 0 r /Times-Roman findfont 94.0134 sf 0 0 m (0) show NC gr 
 gsave  2268 1630 0 0 C 1623.87 190.876 t 0 r /Times-Roman findfont 94.0134 sf 0 0 m (0.05) show NC gr 
 gsave  2268 1630 0 0 C 2099.63 190.876 t 0 r /Times-Roman findfont 94.0134 sf 0 0 m (0.1) show NC gr  363 277 m 1271 Y s 416 277 m -53 X s 389 436 m -26 X s 416 595 m -53 X s 389 754 m -26 X s 416 913 m -53 X s 389 1071 m -26 X s 416 1230 m -53 X s
 389 1389 m -26 X s 416 1548 m -53 X s
 gsave  2268 1630 0 0 C 301.982 245.005 t 0 r /Times-Roman findfont 94.0134 sf 0 0 m (1) show NC gr 
 gsave  2268 1630 0 0 C 250.702 245.005 t 0 r /Symbol findfont 94.0134 sf 0 0 m (-) show NC gr 
 gsave  2268 1630 0 0 C 225.062 561.231 t 0 r /Times-Roman findfont 94.0134 sf 0 0 m (0.5) show NC gr 
 gsave  2268 1630 0 0 C 173.782 561.231 t 0 r /Symbol findfont 94.0134 sf 0 0 m (-) show NC gr 
 gsave  2268 1630 0 0 C 293.436 880.307 t 0 r /Times-Roman findfont 94.0134 sf 0 0 m (0) show NC gr 
 gsave  2268 1630 0 0 C 225.062 1196.53 t 0 r /Times-Roman findfont 94.0134 sf 0 0 m (0.5) show NC gr 
 gsave  2268 1630 0 0 C 301.982 1515.61 t 0 r /Times-Roman findfont 94.0134 sf 0 0 m (1) show NC gr  2154 277 m 1271 Y s 2101 277 m 53 X s 2128 436 m 26 X s 2101 595 m 53 X s 2128 754 m 26 X s 2101 913 m 53 X s 2128 1071 m 26 X s 2101 1230 m 53 X s
 2128 1389 m 26 X s 2101 1548 m 53 X s
 gsave  2268 1630 0 0 C 598.267 1324.73 t 0 r /Times-Roman findfont 76.92 sf 0 0 m (EFT Run 2 Scan of cg:~cg) show NC gr 
 gsave  2268 1630 0 0 C 1227.87 1324.73 t 0 r /Times-Roman findfont 119.653 sf 0 0 m (GammaCombo) show NC gr  0.6 0.6 0.6 c black 0.6 0.6 0.6 c
 gsave  2268 1630 0 0 C 407.391 330.471 t 0 r /Times-Roman findfont 56.9778 sf 0 0 m (contours hold 39%, 87% CL) show NC gr 
 gr  gr showpage
end
%%EOF
