%!PS-Adobe-2.0 EPSF-2.0
%%BoundingBox:  0 0 567 407
%%Title: plots/eps/HGamEFTScanner_raw_2dscan_linear_obs_cHWB:cHWBt_cHWB_cHWBt.eps: SMEFT Run2
%%Creator: ROOT Version 6.08/02
%%CreationDate: Wed Jul 14 10:12:47 2021
%%DocumentNeededResources: ProcSet (FontSetInit)
%%EndComments
%%BeginProlog
80 dict begin
/s {stroke} def /l {lineto} def /m {moveto} def /t {translate} def
/r {rotate} def /rl {roll}  def /R {repeat} def
/d {rlineto} def /rm {rmoveto} def /gr {grestore} def /f {eofill} def
/c {setrgbcolor} def /black {0 setgray} def /sd {setdash} def
/cl {closepath} def /sf {scalefont setfont} def /lw {setlinewidth} def
/box {m dup 0 exch d exch 0 d 0 exch neg d cl} def
/NC{systemdict begin initclip end}def/C{NC box clip newpath}def
/bl {box s} def /bf {gsave box gsave f grestore 1 lw [] 0 sd s grestore} def /Y { 0 exch d} def /X { 0 d} def 
/K {{pop pop 0 moveto} exch kshow} bind def
/ita {/ang 15 def gsave [1 0 ang dup sin exch cos div 1 0 0] concat} def 
/mp {newpath /y exch def /x exch def} def
/side {[w .77 mul w .23 mul] .385 w mul sd w 0 l currentpoint t -144 r} def
/mr {mp x y w2 0 360 arc} def /m24 {mr s} def /m20 {mr f} def
/mb {mp x y w2 add m w2 neg 0 d 0 w neg d w 0 d 0 w d cl} def
/mt {mp x y w2 add m w2 neg w neg d w 0 d cl} def
/m21 {mb f} def /m25 {mb s} def /m22 {mt f} def /m26{mt s} def
/m23 {mp x y w2 sub m w2 w d w neg 0 d cl f} def
/m27 {mp x y w2 add m w3 neg w2 neg d w3 w2 neg d w3 w2 d cl s} def
/m28 {mp x w2 sub y w2 sub w3 add m w3 0 d  0 w3 neg d w3 0 d 0 w3 d w3 0 d  0 w3 d w3 neg 0 d 0 w3 d w3 neg 0 d 0 w3 neg d w3 neg 0 d cl s } def
/m29 {mp gsave x w2 sub y w2 add w3 sub m currentpoint t 4 {side} repeat cl fill gr} def
/m30 {mp gsave x w2 sub y w2 add w3 sub m currentpoint t 4 {side} repeat cl s gr} def
/m31 {mp x y w2 sub m 0 w d x w2 sub y m w 0 d x w2 sub y w2 add m w w neg d x w2 sub y w2 sub m w w d s} def
/m32 {mp x y w2 sub m w2 w d w neg 0 d cl s} def
/m33 {mp x y w2 add m w3 neg w2 neg d w3 w2 neg d w3 w2 d cl f} def
/m34 {mp x w2 sub y w2 sub w3 add m w3 0 d  0 w3 neg d w3 0 d 0 w3 d w3 0 d  0 w3 d w3 neg 0 d 0 w3 d w3 neg 0 d 0 w3 neg d w3 neg 0 d cl f } def
/m2 {mp x y w2 sub m 0 w d x w2 sub y m w 0 d s} def
/m5 {mp x w2 sub y w2 sub m w w d x w2 sub y w2 add m w w neg d s} def
%%IncludeResource: ProcSet (FontSetInit)
%%IncludeResource: font Times-Roman
%%IncludeResource: font Times-Italic
%%IncludeResource: font Times-Bold
%%IncludeResource: font Times-BoldItalic
%%IncludeResource: font Helvetica
%%IncludeResource: font Helvetica-Oblique
%%IncludeResource: font Helvetica-Bold
%%IncludeResource: font Helvetica-BoldOblique
%%IncludeResource: font Courier
%%IncludeResource: font Courier-Oblique
%%IncludeResource: font Courier-Bold
%%IncludeResource: font Courier-BoldOblique
%%IncludeResource: font Symbol
%%IncludeResource: font ZapfDingbats
/reEncode {exch findfont dup length dict begin {1 index /FID eq  {pop pop} {def} ifelse } forall /Encoding exch def currentdict end dup /FontName get exch definefont pop } def [/Times-Bold /Times-Italic /Times-BoldItalic /Helvetica /Helvetica-Oblique
 /Helvetica-Bold /Helvetica-BoldOblique /Courier /Courier-Oblique /Courier-Bold /Courier-BoldOblique /Times-Roman /AvantGarde-Book /AvantGarde-BookOblique /AvantGarde-Demi /AvantGarde-DemiOblique /Bookman-Demi /Bookman-DemiItalic /Bookman-Light
 /Bookman-LightItalic /Helvetica-Narrow /Helvetica-Narrow-Bold /Helvetica-Narrow-BoldOblique /Helvetica-Narrow-Oblique /NewCenturySchlbk-Roman /NewCenturySchlbk-Bold /NewCenturySchlbk-BoldItalic /NewCenturySchlbk-Italic /Palatino-Bold
 /Palatino-BoldItalic /Palatino-Italic /Palatino-Roman ] {ISOLatin1Encoding reEncode } forall
%%EndProlog
%%BeginSetup
%%EndSetup
newpath  gsave  .25 .25 scale  gsave  0 0 t black[  ] 0 sd 3 lw 1 1 1 c 2268 1630 0 0 bf black 1 1 1 c 1791 1271 363 277 bf black 1791 1271 363 277 bl 1 1 1 c 1791 1271 363 277 bf black 1791 1271 363 277 bl 363 277 m 1791 X s
 gsave  2268 1630 0 0 C 1979.98 25.64 t 0 r /Times-Italic findfont 79.7689 sf 0 0 m (HWB) show NC gr 
 gsave  2268 1630 0 0 C 1903.06 59.8267 t 0 r /Times-Roman findfont 119.653 sf 0 0 m (C) show NC gr  6 lw 1903 151 m 77 X s 3 lw 363 277 m 1271 Y s
 gsave  2268 1630 0 0 C 170.933 1367.47 t 90 r /Times-Roman findfont 79.7689 sf 0 0 m (HWB) show NC gr 
 gsave  2268 1630 0 0 C 136.747 1290.55 t 90 r /Times-Roman findfont 119.653 sf 0 0 m (C) show NC gr 
 gsave  2268 1630 0 0 C 68.3734 1330.43 t 90 r  -32 0 t /Times-Roman findfont 119.653 sf 0 0 m (~) show NC gr  0.827451 0.913725 1 c black 0.827451 0.913725 1 c 1563 1539 m 72 X 36 -1 d 35 -1 d 36 -1 d 36 X 4 -1 d -661 Y 2 -25 d 4 -25 d 3 -26 d -25 Y
 -1 -26 d -3 -25 d -4 -26 d -5 -18 d -2 -7 d -8 -25 d -11 -26 d -12 -25 d -3 -5 d -12 -21 d -18 -25 d -6 -8 d -15 -17 d -20 -23 d -4 -3 d -28 -25 d -4 -4 d -31 -22 d -5 -4 d -28 -21 d -127 Y -8 X -36 -1 d -36 X -35 -1 d -251 X -36 1 d -72 X -25 1 d
 127 Y -10 7 d -23 18 d -13 9 d -22 17 d -14 11 d -15 14 d -21 21 d -4 5 d -22 25 d -10 14 d -8 11 d -15 26 d -13 24 d 1 Y -11 26 d -9 25 d -7 25 d -5 26 d -3 25 d -1 X -1 26 d 25 Y 2 21 d 5 Y 4 25 d 1 25 d 661 Y 30 1 d 36 1 d 36 1 d 36 X 36 1 d 36 X
 35 1 d 108 X 36 1 d 143 X 36 -1 d 107 X 36 -1 d f 0.35 0.33 0.85 c 6 lw 0.884975 0.752825 0.292488 c black 0.35 0.33 0.85 c 1563 1539 m 72 X 36 -1 d 35 -1 d 36 -1 d 36 X 4 -1 d -661 Y 2 -25 d 4 -25 d 3 -26 d -25 Y -1 -26 d -3 -25 d -4 -26 d -5 -18 d
 -2 -7 d -8 -25 d -11 -26 d -12 -25 d -3 -5 d -12 -21 d -18 -25 d -6 -8 d -15 -17 d -20 -23 d -4 -3 d -28 -25 d -4 -4 d -31 -22 d -5 -4 d -28 -21 d -127 Y -8 X -36 -1 d -36 X -35 -1 d -251 X -36 1 d -72 X -25 1 d 127 Y -10 7 d -23 18 d -13 9 d -22 17
 d -14 11 d -15 14 d -21 21 d -4 5 d -22 25 d -10 14 d -8 11 d -15 26 d -13 24 d 1 Y -11 26 d -9 25 d -7 25 d -5 26 d -3 25 d -1 X -1 26 d 25 Y 2 21 d 5 Y 4 25 d 1 25 d 661 Y 30 1 d 36 1 d 36 1 d 36 X 36 1 d 36 X 35 1 d 108 X 36 1 d 143 X 36 -1 d 107
 X 36 -1 d cl s black 3 lw 0.745098 0.905882 0.992157 c black 0.745098 0.905882 0.992157 c 1456 1537 m 35 X 36 -1 d 36 X 29 -1 d -661 Y 4 -25 d 3 -12 d 3 -13 d 4 -26 d 1 -25 d -2 -26 d -5 -25 d -1 -4 d -7 -22 d -12 -25 d -14 -25 d -3 -4 d -18 -22 d
 -18 -19 d -7 -6 d -29 -22 d -5 -4 d -30 -16 d -22 -9 d -14 -5 d -36 -10 d -36 -5 d -36 -1 d -36 3 d -35 7 d -35 11 d -1 X -36 17 d -14 8 d -22 15 d -13 11 d -23 21 d -3 4 d -20 26 d -12 18 d -4 7 d -12 25 d -8 26 d -6 25 d -2 26 d 25 Y 4 26 d 6 25 d
 3 25 d 661 Y 19 1 d 71 X 36 1 d 287 X f black 0.0941176 0.666667 0.905882 c black 0.0941176 0.666667 0.905882 c 1 lw << /PatternType 1 /PaintType 2 /TilingType 1 /BBox [ 0 0 100 100 ] /XStep 100 /YStep 100 /PaintProc { begin gsave 0 100 m 100 0 l s
 gr end } >> [ 0.24 0 0 0.24 0 0 ] makepattern /P05 exch def /cs {[/Pattern /DeviceRGB] setcolorspace} def /FA {f [/DeviceRGB] setcolorspace} def cs 0.0941176 0.666667 0.905882 P05 setcolor 1456 1537 m 35 X 36 -1 d 36 X 29 -1 d -661 Y 4 -25 d 3 -12 d
 3 -13 d 4 -26 d 1 -25 d -2 -26 d -5 -25 d -1 -4 d -7 -22 d -12 -25 d -14 -25 d -3 -4 d -18 -22 d -18 -19 d -7 -6 d -29 -22 d -5 -4 d -30 -16 d -22 -9 d -14 -5 d -36 -10 d -36 -5 d -36 -1 d -36 3 d -35 7 d -35 11 d -1 X -36 17 d -14 8 d -22 15 d -13
 11 d -23 21 d -3 4 d -20 26 d -12 18 d -4 7 d -12 25 d -8 26 d -6 25 d -2 26 d 25 Y 4 26 d 6 25 d 3 25 d 661 Y 19 1 d 71 X 36 1 d 287 X FA 3 lw 0.0941176 0.666667 0.905882 c 6 lw 0.977 0.977044 0.0583656 c black 0.0941176 0.666667 0.905882 c 1456
 1537 m 35 X 36 -1 d 36 X 29 -1 d -661 Y 4 -25 d 3 -12 d 3 -13 d 4 -26 d 1 -25 d -2 -26 d -5 -25 d -1 -4 d -7 -22 d -12 -25 d -14 -25 d -3 -4 d -18 -22 d -18 -19 d -7 -6 d -29 -22 d -5 -4 d -30 -16 d -22 -9 d -14 -5 d -36 -10 d -36 -5 d -36 -1 d -36
 3 d -35 7 d -35 11 d -1 X -36 17 d -14 8 d -22 15 d -13 11 d -23 21 d -3 4 d -20 26 d -12 18 d -4 7 d -12 25 d -8 26 d -6 25 d -2 26 d 25 Y 4 26 d 6 25 d 3 25 d 661 Y 19 1 d 71 X 36 1 d 287 X cl s 0.35 0.33 0.85 c[ 12 12] 0 sd 0.884975 0.752825
 0.292488 c black 0.35 0.33 0.85 c 1563 1539 m 72 X 36 -1 d 35 -1 d 36 -1 d 36 X 4 -1 d -661 Y 2 -25 d 4 -25 d 3 -26 d -25 Y -1 -26 d -3 -25 d -4 -26 d -5 -18 d -2 -7 d -8 -25 d -11 -26 d -12 -25 d -3 -5 d -12 -21 d -18 -25 d -6 -8 d -15 -17 d -20
 -23 d -4 -3 d -28 -25 d -4 -4 d -31 -22 d -5 -4 d -28 -21 d -127 Y -8 X -36 -1 d -36 X -35 -1 d -251 X -36 1 d -72 X -25 1 d 127 Y -10 7 d -23 18 d -13 9 d -22 17 d -14 11 d -15 14 d -21 21 d -4 5 d -22 25 d -10 14 d -8 11 d -15 26 d -13 24 d 1 Y
 -11 26 d -9 25 d -7 25 d -5 26 d -3 25 d -1 X -1 26 d 25 Y 2 21 d 5 Y 4 25 d 1 25 d 661 Y 30 1 d 36 1 d 36 1 d 36 X 36 1 d 36 X 35 1 d 108 X 36 1 d 143 X 36 -1 d 107 X 36 -1 d cl s 0.0941176 0.666667 0.905882 c 0.977 0.977044 0.0583656 c black
 0.0941176 0.666667 0.905882 c 1456 1537 m 35 X 36 -1 d 36 X 29 -1 d -661 Y 4 -25 d 3 -12 d 3 -13 d 4 -26 d 1 -25 d -2 -26 d -5 -25 d -1 -4 d -7 -22 d -12 -25 d -14 -25 d -3 -4 d -18 -22 d -18 -19 d -7 -6 d -29 -22 d -5 -4 d -30 -16 d -22 -9 d -14 -5
 d -36 -10 d -36 -5 d -36 -1 d -36 3 d -35 7 d -35 11 d -1 X -36 17 d -14 8 d -22 15 d -13 11 d -23 21 d -3 4 d -20 26 d -12 18 d -4 7 d -12 25 d -8 26 d -6 25 d -2 26 d 25 Y 4 26 d 6 25 d 3 25 d 661 Y 19 1 d 71 X 36 1 d 287 X cl s black[  ] 0 sd 3
 lw 363 1548 m 1791 X s 468 1509 m 39 Y s 600 1529 m 19 Y s 732 1509 m 39 Y s 863 1529 m 19 Y s 995 1509 m 39 Y s 1127 1529 m 19 Y s 1259 1509 m 39 Y s 1390 1529 m 19 Y s 1522 1509 m 39 Y s 1654 1529 m 19 Y s 1785 1509 m 39 Y s 1917 1529 m 19 Y s
 2049 1509 m 39 Y s 468 1509 m 39 Y s 2049 1509 m 39 Y s 363 277 m 1791 X s 468 316 m -39 Y s 600 296 m -19 Y s 732 316 m -39 Y s 863 296 m -19 Y s 995 316 m -39 Y s 1127 296 m -19 Y s 1259 316 m -39 Y s 1390 296 m -19 Y s 1522 316 m -39 Y s 1654 296
 m -19 Y s 1785 316 m -39 Y s 1917 296 m -19 Y s 2049 316 m -39 Y s 468 316 m -39 Y s 2049 316 m -39 Y s
 gsave  2268 1630 0 0 C 387.449 190.876 t 0 r /Times-Roman findfont 94.0134 sf 0 0 m (0.015) show NC gr 
 gsave  2268 1630 0 0 C 336.169 190.876 t 0 r /Symbol findfont 94.0134 sf 0 0 m (-) show NC gr 
 gsave  2268 1630 0 0 C 675.187 190.876 t 0 r /Times-Roman findfont 94.0134 sf 0 0 m (0.01) show NC gr 
 gsave  2268 1630 0 0 C 623.907 190.876 t 0 r /Symbol findfont 94.0134 sf 0 0 m (-) show NC gr 
 gsave  2268 1630 0 0 C 914.494 190.876 t 0 r /Times-Roman findfont 94.0134 sf 0 0 m (0.005) show NC gr 
 gsave  2268 1630 0 0 C 863.214 190.876 t 0 r /Symbol findfont 94.0134 sf 0 0 m (-) show NC gr 
 gsave  2268 1630 0 0 C 1233.57 190.876 t 0 r /Times-Roman findfont 94.0134 sf 0 0 m (0) show NC gr 
 gsave  2268 1630 0 0 C 1415.9 190.876 t 0 r /Times-Roman findfont 94.0134 sf 0 0 m (0.005) show NC gr 
 gsave  2268 1630 0 0 C 1703.64 190.876 t 0 r /Times-Roman findfont 94.0134 sf 0 0 m (0.01) show NC gr 
 gsave  2268 1630 0 0 C 1942.94 190.876 t 0 r /Times-Roman findfont 94.0134 sf 0 0 m (0.015) show NC gr  363 277 m 1271 Y s 416 422 m -53 X s 389 477 m -26 X s 389 531 m -26 X s 389 586 m -26 X s 416 640 m -53 X s 389 695 m -26 X s 389 749 m -26 X s
 389 804 m -26 X s 416 858 m -53 X s 389 913 m -26 X s 389 967 m -26 X s 389 1022 m -26 X s 416 1076 m -53 X s 389 1131 m -26 X s 389 1185 m -26 X s 389 1240 m -26 X s 416 1294 m -53 X s 389 1349 m -26 X s 389 1403 m -26 X s 389 1458 m -26 X s 416
 1512 m -53 X s 416 422 m -53 X s 389 368 m -26 X s 389 313 m -26 X s 416 1512 m -53 X s
 gsave  2268 1630 0 0 C 199.422 390.298 t 0 r /Times-Roman findfont 94.0134 sf 0 0 m (200) show NC gr 
 gsave  2268 1630 0 0 C 148.142 390.298 t 0 r /Symbol findfont 94.0134 sf 0 0 m (-) show NC gr 
 gsave  2268 1630 0 0 C 293.436 606.814 t 0 r /Times-Roman findfont 94.0134 sf 0 0 m (0) show NC gr 
 gsave  2268 1630 0 0 C 199.422 826.178 t 0 r /Times-Roman findfont 94.0134 sf 0 0 m (200) show NC gr 
 gsave  2268 1630 0 0 C 199.422 1042.69 t 0 r /Times-Roman findfont 94.0134 sf 0 0 m (400) show NC gr 
 gsave  2268 1630 0 0 C 199.422 1262.06 t 0 r /Times-Roman findfont 94.0134 sf 0 0 m (600) show NC gr 
 gsave  2268 1630 0 0 C 199.422 1478.57 t 0 r /Times-Roman findfont 94.0134 sf 0 0 m (800) show NC gr  2154 277 m 1271 Y s 2101 422 m 53 X s 2128 477 m 26 X s 2128 531 m 26 X s 2128 586 m 26 X s 2101 640 m 53 X s 2128 695 m 26 X s 2128 749 m 26 X s
 2128 804 m 26 X s 2101 858 m 53 X s 2128 913 m 26 X s 2128 967 m 26 X s 2128 1022 m 26 X s 2101 1076 m 53 X s 2128 1131 m 26 X s 2128 1185 m 26 X s 2128 1240 m 26 X s 2101 1294 m 53 X s 2128 1349 m 26 X s 2128 1403 m 26 X s 2128 1458 m 26 X s 2101
 1512 m 53 X s 2101 422 m 53 X s 2128 368 m 26 X s 2128 313 m 26 X s 2101 1512 m 53 X s 0.35 0.33 0.85 c /w 36 def /w2 {w 2 div} def /w3 {w 3 div} def 1318 780 m31 black
 gsave  2268 1630 0 0 C 598.267 1316.19 t 0 r /Times-Roman findfont 76.92 sf 0 0 m (SMEFT Run2) show NC gr 
 gsave  2268 1630 0 0 C 1227.87 1324.73 t 0 r /Times-Roman findfont 119.653 sf 0 0 m (GammaCombo) show NC gr  0.6 0.6 0.6 c black 0.6 0.6 0.6 c
 gsave  2268 1630 0 0 C 407.391 330.471 t 0 r /Times-Roman findfont 56.9778 sf 0 0 m (contours hold 68%, 95% CL) show NC gr 
 gr  gr showpage
end
%%EOF
