%!PS-Adobe-2.0 EPSF-2.0
%%BoundingBox:  0 0 567 407
%%Title: plots/eps/HGamEFTScanner_linear_quad_exp_cHWB:cHWBt_cHWB_cHWBt.eps: SMEFT Run2
%%Creator: ROOT Version 6.08/02
%%CreationDate: Tue Jul 13 06:16:32 2021
%%DocumentNeededResources: ProcSet (FontSetInit)
%%EndComments
%%BeginProlog
80 dict begin
/s {stroke} def /l {lineto} def /m {moveto} def /t {translate} def
/r {rotate} def /rl {roll}  def /R {repeat} def
/d {rlineto} def /rm {rmoveto} def /gr {grestore} def /f {eofill} def
/c {setrgbcolor} def /black {0 setgray} def /sd {setdash} def
/cl {closepath} def /sf {scalefont setfont} def /lw {setlinewidth} def
/box {m dup 0 exch d exch 0 d 0 exch neg d cl} def
/NC{systemdict begin initclip end}def/C{NC box clip newpath}def
/bl {box s} def /bf {gsave box gsave f grestore 1 lw [] 0 sd s grestore} def /Y { 0 exch d} def /X { 0 d} def 
/K {{pop pop 0 moveto} exch kshow} bind def
/ita {/ang 15 def gsave [1 0 ang dup sin exch cos div 1 0 0] concat} def 
/mp {newpath /y exch def /x exch def} def
/side {[w .77 mul w .23 mul] .385 w mul sd w 0 l currentpoint t -144 r} def
/mr {mp x y w2 0 360 arc} def /m24 {mr s} def /m20 {mr f} def
/mb {mp x y w2 add m w2 neg 0 d 0 w neg d w 0 d 0 w d cl} def
/mt {mp x y w2 add m w2 neg w neg d w 0 d cl} def
/m21 {mb f} def /m25 {mb s} def /m22 {mt f} def /m26{mt s} def
/m23 {mp x y w2 sub m w2 w d w neg 0 d cl f} def
/m27 {mp x y w2 add m w3 neg w2 neg d w3 w2 neg d w3 w2 d cl s} def
/m28 {mp x w2 sub y w2 sub w3 add m w3 0 d  0 w3 neg d w3 0 d 0 w3 d w3 0 d  0 w3 d w3 neg 0 d 0 w3 d w3 neg 0 d 0 w3 neg d w3 neg 0 d cl s } def
/m29 {mp gsave x w2 sub y w2 add w3 sub m currentpoint t 4 {side} repeat cl fill gr} def
/m30 {mp gsave x w2 sub y w2 add w3 sub m currentpoint t 4 {side} repeat cl s gr} def
/m31 {mp x y w2 sub m 0 w d x w2 sub y m w 0 d x w2 sub y w2 add m w w neg d x w2 sub y w2 sub m w w d s} def
/m32 {mp x y w2 sub m w2 w d w neg 0 d cl s} def
/m33 {mp x y w2 add m w3 neg w2 neg d w3 w2 neg d w3 w2 d cl f} def
/m34 {mp x w2 sub y w2 sub w3 add m w3 0 d  0 w3 neg d w3 0 d 0 w3 d w3 0 d  0 w3 d w3 neg 0 d 0 w3 d w3 neg 0 d 0 w3 neg d w3 neg 0 d cl f } def
/m2 {mp x y w2 sub m 0 w d x w2 sub y m w 0 d s} def
/m5 {mp x w2 sub y w2 sub m w w d x w2 sub y w2 add m w w neg d s} def
%%IncludeResource: ProcSet (FontSetInit)
%%IncludeResource: font Times-Roman
%%IncludeResource: font Times-Italic
%%IncludeResource: font Times-Bold
%%IncludeResource: font Times-BoldItalic
%%IncludeResource: font Helvetica
%%IncludeResource: font Helvetica-Oblique
%%IncludeResource: font Helvetica-Bold
%%IncludeResource: font Helvetica-BoldOblique
%%IncludeResource: font Courier
%%IncludeResource: font Courier-Oblique
%%IncludeResource: font Courier-Bold
%%IncludeResource: font Courier-BoldOblique
%%IncludeResource: font Symbol
%%IncludeResource: font ZapfDingbats
/reEncode {exch findfont dup length dict begin {1 index /FID eq  {pop pop} {def} ifelse } forall /Encoding exch def currentdict end dup /FontName get exch definefont pop } def [/Times-Bold /Times-Italic /Times-BoldItalic /Helvetica /Helvetica-Oblique
 /Helvetica-Bold /Helvetica-BoldOblique /Courier /Courier-Oblique /Courier-Bold /Courier-BoldOblique /Times-Roman /AvantGarde-Book /AvantGarde-BookOblique /AvantGarde-Demi /AvantGarde-DemiOblique /Bookman-Demi /Bookman-DemiItalic /Bookman-Light
 /Bookman-LightItalic /Helvetica-Narrow /Helvetica-Narrow-Bold /Helvetica-Narrow-BoldOblique /Helvetica-Narrow-Oblique /NewCenturySchlbk-Roman /NewCenturySchlbk-Bold /NewCenturySchlbk-BoldItalic /NewCenturySchlbk-Italic /Palatino-Bold
 /Palatino-BoldItalic /Palatino-Italic /Palatino-Roman ] {ISOLatin1Encoding reEncode } forall
%%EndProlog
%%BeginSetup
%%EndSetup
newpath  gsave  .25 .25 scale  gsave  0 0 t black[  ] 0 sd 3 lw 1 1 1 c 2268 1630 0 0 bf black 1 1 1 c 1791 1271 363 277 bf black 1791 1271 363 277 bl 1 1 1 c 1791 1271 363 277 bf black 1791 1271 363 277 bl 363 277 m 1791 X s
 gsave  2268 1630 0 0 C 1979.98 25.64 t 0 r /Times-Italic findfont 79.7689 sf 0 0 m (HWB) show NC gr 
 gsave  2268 1630 0 0 C 1903.06 59.8267 t 0 r /Times-Roman findfont 119.653 sf 0 0 m (C) show NC gr  6 lw 1903 151 m 77 X s 3 lw 363 277 m 1271 Y s
 gsave  2268 1630 0 0 C 170.933 1367.47 t 90 r /Times-Roman findfont 79.7689 sf 0 0 m (HWB) show NC gr 
 gsave  2268 1630 0 0 C 136.747 1290.55 t 90 r /Times-Roman findfont 119.653 sf 0 0 m (C) show NC gr 
 gsave  2268 1630 0 0 C 68.3734 1330.43 t 90 r  -32 0 t /Times-Roman findfont 119.653 sf 0 0 m (~) show NC gr  0.827451 0.913725 1 c black 0.827451 0.913725 1 c 588 740 m -8 16 d 2 Y -6 18 d -6 19 d -5 18 d -4 18 d -4 18 d 1 Y -2 17 d -2 18 d 55 Y 2
 18 d 2 18 d 4 18 d 4 18 d 5 19 d 6 18 d 6 18 d 2 Y 8 16 d 9 18 d 8 18 d 1 2 d 11 17 d 11 18 d 4 6 d 9 12 d 13 18 d 3 4 d 13 14 d 13 15 d 3 3 d 18 18 d 4 5 d 16 14 d 10 8 d 12 10 d 14 10 d 10 8 d 15 11 d 11 7 d 15 9 d 14 9 d 11 6 d 22 12 d 4 2 d 25
 13 d 9 4 d 17 7 d 26 11 d 25 8 d 26 9 d 2 1 d 23 6 d 26 7 d 22 5 d 4 1 d 25 4 d 26 4 d 25 4 d 26 3 d 26 2 d 7 X 18 1 d 51 X 26 -1 d 26 -2 d 25 -3 d 26 -3 d 25 -4 d 26 -4 d 9 -2 d 17 -4 d 25 -7 d 26 -6 d 3 -1 d 22 -8 d 26 -8 d 5 -2 d 20 -9 d 24 -9 d
 2 -1 d 26 -13 d 9 -5 d 16 -9 d 17 -9 d 9 -5 d 20 -13 d 5 -3 d 22 -15 d 4 -3 d 19 -15 d 7 -5 d 15 -13 d 10 -10 d 9 -9 d 17 -15 d 2 -3 d 16 -18 d 7 -8 d 8 -10 d 15 -18 d 3 -4 d 9 -14 d 12 -18 d 5 -8 d 5 -11 d 9 -18 d 10 -18 d 1 -3 d 6 -15 d 6 -18 d 6
 -18 d 5 -19 d 3 -8 d 2 -10 d 2 -18 d 2 -18 d 2 -18 d 1 -18 d -19 Y -1 -18 d -2 -18 d -2 -18 d -2 -18 d -2 -10 d -3 -8 d -5 -18 d -6 -19 d -6 -18 d -6 -15 d -1 -3 d -10 -18 d -9 -18 d -5 -11 d -5 -7 d -12 -19 d -9 -14 d -3 -4 d -15 -18 d -8 -10 d -7
 -8 d -16 -18 d -2 -3 d -17 -15 d -9 -9 d -10 -10 d -15 -13 d -7 -5 d -19 -15 d -4 -3 d -22 -14 d -5 -4 d -20 -13 d -9 -5 d -17 -9 d -16 -9 d -9 -5 d -26 -12 d -2 -1 d -24 -10 d -20 -9 d -5 -1 d -26 -9 d -22 -8 d -3 -1 d -26 -6 d -25 -7 d -17 -4 d -9
 -2 d -26 -4 d -25 -4 d -26 -3 d -25 -3 d -26 -2 d -26 -1 d -51 X -18 1 d -7 X -26 3 d -26 2 d -25 4 d -26 4 d -25 4 d -4 1 d -22 6 d -26 6 d -23 6 d -2 1 d -26 9 d -25 8 d -26 11 d -17 8 d -9 3 d -25 13 d -4 2 d -22 12 d -11 6 d -14 9 d -15 9 d -11
 7 d -15 11 d -10 8 d -14 10 d -12 10 d -10 8 d -16 15 d -4 4 d -18 18 d -3 3 d -13 15 d -13 14 d -3 4 d -13 18 d -9 12 d -4 6 d -11 19 d -11 16 d -1 2 d -8 18 d -9 18 d 135 36 d 9 -18 d 2 -3 d 7 -15 d 11 -18 d 8 -10 d 5 -8 d 14 -18 d 6 -7 d 10 -12 d
 16 -16 d 2 -2 d 19 -18 d 4 -3 d 18 -15 d 8 -6 d 17 -12 d 8 -6 d 21 -12 d 5 -4 d 26 -13 d 2 -2 d 23 -11 d 15 -7 d 11 -4 d 25 -10 d 12 -4 d 14 -5 d 26 -7 d 25 -6 d 1 X 25 -6 d 25 -4 d 26 -3 d 26 -2 d 25 -2 d 51 X 26 1 d 26 2 d 25 3 d 26 4 d 25 6 d 5 1
 d 21 5 d 26 7 d 18 6 d 7 2 d 26 10 d 15 6 d 10 5 d 26 12 d 3 1 d 22 12 d 11 7 d 15 9 d 13 9 d 13 9 d 12 9 d 13 11 d 9 7 d 17 16 d 3 2 d 17 18 d 5 6 d 11 13 d 14 18 d 1 1 d 12 17 d 11 18 d 3 5 d 7 13 d 9 18 d 7 19 d 2 8 d 4 10 d 6 18 d 4 18 d 3 18 d
 2 18 d 1 18 d 19 Y -1 18 d -2 18 d -3 18 d -4 18 d -6 18 d -4 10 d -2 9 d -7 18 d -9 18 d -7 13 d -3 5 d -11 18 d -12 17 d -1 1 d -14 19 d -11 12 d -5 6 d -17 18 d -3 2 d -17 16 d -9 8 d -13 10 d -12 10 d -13 8 d -13 9 d -15 9 d -11 7 d -22 12 d -3
 1 d -26 13 d -10 4 d -15 6 d -26 10 d -7 2 d -18 6 d -26 7 d -21 5 d -5 1 d -25 6 d -26 4 d -25 3 d -26 2 d -26 1 d -51 X -25 -2 d -26 -2 d -26 -3 d -25 -4 d -25 -6 d -1 X -25 -6 d -26 -7 d -14 -5 d -12 -4 d -25 -10 d -11 -4 d -15 -7 d -23 -11 d -2
 -1 d -26 -14 d -5 -4 d -21 -12 d -8 -6 d -17 -12 d -8 -6 d -18 -15 d -4 -3 d -19 -18 d -2 -2 d -16 -16 d -10 -12 d -6 -6 d -14 -19 d -5 -8 d -8 -10 d -11 -18 d -7 -15 d -2 -3 d -9 -18 d -7 -18 d -6 -19 d -2 -5 d -4 -13 d -4 -18 d -3 -18 d -2 -18 d
 -1 -18 d -19 Y 1 -18 d 2 -18 d 3 -18 d 4 -18 d 4 -13 d 2 -5 d 5 -18 d 8 -19 d f 0.35 0.33 0.85 c 6 lw 0.884975 0.752825 0.292488 c black 0.35 0.33 0.85 c 1297 1448 m 26 -2 d 25 -3 d 26 -3 d 25 -4 d 26 -4 d 9 -2 d 17 -4 d 25 -7 d 26 -6 d 3 -1 d 22 -8
 d 26 -8 d 5 -2 d 20 -9 d 24 -9 d 2 -1 d 26 -13 d 9 -5 d 16 -9 d 17 -9 d 9 -5 d 20 -13 d 5 -3 d 22 -15 d 4 -3 d 19 -15 d 7 -5 d 15 -13 d 10 -10 d 9 -9 d 17 -15 d 2 -3 d 16 -18 d 7 -8 d 8 -10 d 15 -18 d 3 -4 d 9 -14 d 12 -18 d 5 -8 d 5 -11 d 9 -18 d
 10 -18 d 1 -3 d 6 -15 d 6 -18 d 6 -18 d 5 -19 d 3 -8 d 2 -10 d 2 -18 d 2 -18 d 2 -18 d 1 -18 d -19 Y -1 -18 d -2 -18 d -2 -18 d -2 -18 d -2 -10 d -3 -8 d -5 -18 d -6 -19 d -6 -18 d -6 -15 d -1 -3 d -10 -18 d -9 -18 d -5 -11 d -5 -7 d -12 -19 d -9
 -14 d -3 -4 d -15 -18 d -8 -10 d -7 -8 d -16 -18 d -2 -3 d -17 -15 d -9 -9 d -10 -10 d -15 -13 d -7 -5 d -19 -15 d -4 -3 d -22 -14 d -5 -4 d -20 -13 d -9 -5 d -17 -9 d -16 -9 d -9 -5 d -26 -12 d -2 -1 d -24 -10 d -20 -9 d -5 -1 d -26 -9 d -22 -8 d
 -3 -1 d -26 -6 d -25 -7 d -17 -4 d -9 -2 d -26 -4 d -25 -4 d -26 -3 d -25 -3 d -26 -2 d -26 -1 d -51 X -18 1 d -7 X -26 3 d -26 2 d -25 4 d -26 4 d -25 4 d -4 1 d -22 6 d -26 6 d -23 6 d -2 1 d -26 9 d -25 8 d -26 11 d -17 8 d -9 3 d -25 13 d -4 2 d
 -22 12 d -11 6 d -14 9 d -15 9 d -11 7 d -15 11 d -10 8 d -14 10 d -12 10 d -10 8 d -16 15 d -4 4 d -18 18 d -3 3 d -13 15 d -13 14 d -3 4 d -13 18 d -9 12 d -4 6 d -11 19 d -11 16 d -1 2 d -8 18 d -9 18 d -8 16 d 2 Y -6 18 d -6 19 d -5 18 d -4 18 d
 -4 18 d 1 Y -2 17 d -2 18 d 55 Y 2 18 d 2 18 d 4 18 d 4 18 d 5 19 d 6 18 d 6 18 d 2 Y 8 16 d 9 18 d 8 18 d 1 2 d 11 17 d 11 18 d 4 6 d 9 12 d 13 18 d 3 4 d 13 14 d 13 15 d 3 3 d 18 18 d 4 5 d 16 14 d 10 8 d 12 10 d 14 10 d 10 8 d 15 11 d 11 7 d 15 9
 d 14 9 d 11 6 d 22 12 d 4 2 d 25 13 d 9 4 d 17 7 d 26 11 d 25 8 d 26 9 d 2 1 d 23 6 d 26 7 d 22 5 d 4 1 d 25 4 d 26 4 d 25 4 d 26 3 d 26 2 d 7 X 18 1 d 51 X 26 -1 d cl s 0.884975 0.752825 0.292488 c black 0.35 0.33 0.85 c 1374 1328 m -26 4 d -25 3 d
 -26 2 d -26 1 d -51 X -25 -2 d -26 -2 d -26 -3 d -25 -4 d -25 -6 d -1 X -25 -6 d -26 -7 d -14 -5 d -12 -4 d -25 -10 d -11 -4 d -15 -7 d -23 -11 d -2 -1 d -26 -14 d -5 -4 d -21 -12 d -8 -6 d -17 -12 d -8 -6 d -18 -15 d -4 -3 d -19 -18 d -2 -2 d -16
 -16 d -10 -12 d -6 -6 d -14 -19 d -5 -8 d -8 -10 d -11 -18 d -7 -15 d -2 -3 d -9 -18 d -7 -18 d -6 -19 d -2 -5 d -4 -13 d -4 -18 d -3 -18 d -2 -18 d -1 -18 d -19 Y 1 -18 d 2 -18 d 3 -18 d 4 -18 d 4 -13 d 2 -5 d 5 -18 d 8 -19 d 9 -18 d 2 -3 d 7 -15 d
 11 -18 d 8 -10 d 5 -8 d 14 -18 d 6 -7 d 10 -12 d 16 -16 d 2 -2 d 19 -18 d 4 -3 d 18 -15 d 8 -6 d 17 -12 d 8 -6 d 21 -12 d 5 -4 d 26 -13 d 2 -2 d 23 -11 d 15 -7 d 11 -4 d 25 -10 d 12 -4 d 14 -5 d 26 -7 d 25 -6 d 1 X 25 -6 d 25 -4 d 26 -3 d 26 -2 d 25
 -2 d 51 X 26 1 d 26 2 d 25 3 d 26 4 d 25 6 d 5 1 d 21 5 d 26 7 d 18 6 d 7 2 d 26 10 d 15 6 d 10 5 d 26 12 d 3 1 d 22 12 d 11 7 d 15 9 d 13 9 d 13 9 d 12 9 d 13 11 d 9 7 d 17 16 d 3 2 d 17 18 d 5 6 d 11 13 d 14 18 d 1 1 d 12 17 d 11 18 d 3 5 d 7 13 d
 9 18 d 7 19 d 2 8 d 4 10 d 6 18 d 4 18 d 3 18 d 2 18 d 1 18 d 19 Y -1 18 d -2 18 d -3 18 d -4 18 d -6 18 d -4 10 d -2 9 d -7 18 d -9 18 d -7 13 d -3 5 d -11 18 d -12 17 d -1 1 d -14 19 d -11 12 d -5 6 d -17 18 d -3 2 d -17 16 d -9 8 d -13 10 d -12
 10 d -13 8 d -13 9 d -15 9 d -11 7 d -22 12 d -3 1 d -26 13 d -10 4 d -15 6 d -26 10 d -7 2 d -18 6 d -26 7 d -21 5 d -5 1 d -25 6 d cl s black 3 lw 0.745098 0.905882 0.992157 c black 0.745098 0.905882 0.992157 c 1901 795 m -6 -19 d -6 -18 d -3 -10
 d -5 -8 d -9 -18 d -9 -18 d -3 -6 d -9 -12 d -12 -19 d -5 -7 d -8 -11 d -14 -18 d -3 -4 d -14 -14 d -12 -13 d -5 -5 d -19 -18 d -1 -2 d -21 -17 d -5 -4 d -18 -14 d -8 -5 d -18 -13 d -7 -5 d -21 -13 d -5 -3 d -25 -14 d -2 -1 d -24 -11 d -14 -7 d -12
 -5 d -25 -11 d -6 -2 d -20 -7 d -25 -9 d -8 -3 d -18 -4 d -25 -6 d -26 -7 d -2 -1 d -24 -3 d -25 -4 d -26 -3 d -25 -3 d -26 -3 d -26 -1 d -51 X -25 2 d -26 2 d -26 3 d -25 4 d -26 3 d -17 3 d -8 2 d -26 7 d -26 6 d -12 3 d -13 5 d -26 9 d -14 5 d
 -11 5 d -26 10 d -7 3 d -19 9 d -17 9 d -8 4 d -26 14 d -25 16 d -3 2 d -23 16 d -3 2 d -22 18 d -2 X -20 19 d -4 3 d -15 15 d -11 10 d -6 8 d -18 18 d -1 2 d -12 16 d -14 17 d -1 1 d -10 19 d -13 18 d -1 3 d -7 15 d -9 18 d -10 18 d 1 Y -5 17 d -6
 19 d -5 18 d -5 18 d -4 18 d -1 3 d -1 15 d -2 18 d 55 Y 2 18 d 1 15 d 1 3 d 4 18 d 5 18 d 5 19 d 6 18 d 5 17 d 1 Y 10 18 d 9 18 d 7 16 d 1 2 d 13 19 d 10 18 d 1 1 d 14 17 d 12 16 d 1 2 d 18 18 d 6 8 d 11 10 d 15 15 d 4 3 d 20 19 d 2 1 d 22 17 d 3 2
 d 23 16 d 3 2 d 25 16 d 26 14 d 8 4 d 17 9 d 20 9 d 6 3 d 26 11 d 11 5 d 14 4 d 26 9 d 13 5 d 12 3 d 26 6 d 26 7 d 8 2 d 17 3 d 26 3 d 25 4 d 26 3 d 26 2 d 25 2 d 51 X 26 -1 d 26 -3 d 25 -2 d 26 -4 d 25 -3 d 24 -4 d 2 -1 d 26 -7 d 25 -6 d 18 -4 d 8
 -3 d 25 -9 d 20 -6 d 6 -3 d 25 -11 d 12 -5 d 14 -7 d 24 -11 d 2 -1 d 25 -14 d 5 -3 d 21 -13 d 7 -5 d 18 -13 d 8 -5 d 18 -14 d 5 -4 d 21 -17 d 1 -2 d 19 -18 d 5 -5 d 12 -13 d 14 -14 d 3 -4 d 14 -18 d 8 -10 d 5 -8 d 12 -18 d 9 -13 d 3 -6 d 9 -18 d 9
 -18 d 5 -8 d 3 -10 d 6 -18 d 6 -18 d 6 -19 d 4 -12 d 1 -6 d 3 -18 d 2 -18 d 1 -18 d 1 -18 d -19 Y -1 -18 d -1 -18 d -2 -18 d -3 -18 d -1 -6 d -4 -12 d -6 -18 d -81 18 d 5 18 d 4 18 d 2 18 d 2 18 d 1 18 d 19 Y -1 18 d -2 18 d -2 18 d -4 18 d -5 18 d
 -6 19 d -5 11 d -3 7 d -7 18 d -9 18 d -7 10 d -4 8 d -11 18 d -10 13 d -4 6 d -14 18 d -8 8 d -8 10 d -18 16 d -1 2 d -20 18 d -4 4 d -18 14 d -8 6 d -17 12 d -8 6 d -20 13 d -6 3 d -26 14 d -1 1 d -24 12 d -14 6 d -12 6 d -25 9 d -9 3 d -17 7 d
 -25 7 d -18 4 d -8 3 d -26 6 d -25 5 d -26 3 d -16 1 d -9 2 d -26 2 d -26 2 d -51 X -25 -2 d -26 -3 d -5 -1 d -21 -2 d -25 -3 d -26 -5 d -25 -7 d -3 -1 d -23 -5 d -26 -8 d -11 -5 d -14 -4 d -26 -11 d -6 -3 d -19 -8 d -19 -10 d -7 -4 d -25 -14 d -1
 -1 d -25 -16 d -3 -2 d -23 -16 d -2 -2 d -22 -18 d -1 -1 d -20 -17 d -6 -6 d -12 -12 d -13 -16 d -2 -2 d -16 -18 d -8 -13 d -4 -6 d -13 -18 d -9 -18 d -11 -18 d -7 -18 d -6 -18 d -1 -4 d -6 -15 d -5 -18 d -4 -18 d -3 -18 d -2 -18 d -55 Y 2 -18 d 3
 -18 d 4 -18 d 5 -18 d 6 -15 d 1 -3 d 6 -19 d 7 -18 d 11 -18 d 9 -18 d 13 -18 d 4 -6 d 8 -12 d 16 -19 d 2 -2 d 13 -16 d 12 -11 d 6 -7 d 20 -17 d 1 -1 d 22 -18 d 2 -2 d 23 -16 d 3 -2 d 25 -16 d 1 -1 d 25 -14 d 7 -4 d 19 -10 d 19 -8 d 6 -3 d 26 -10 d
 14 -5 d 11 -5 d 26 -8 d 23 -5 d 3 -1 d 25 -7 d 26 -5 d 25 -3 d 21 -2 d 5 -1 d 26 -3 d 25 -1 d 26 -1 d 25 X 26 2 d 26 2 d 10 2 d 15 1 d 26 4 d 25 4 d 26 6 d 8 3 d 18 4 d 25 7 d 17 7 d 9 3 d 25 10 d 12 5 d 14 6 d 24 12 d 1 1 d 26 14 d 6 3 d 20 13 d 8
 6 d 17 12 d 8 6 d 18 14 d 4 4 d 20 18 d 1 2 d 18 16 d 8 10 d 8 8 d 14 19 d 4 5 d 10 13 d 11 18 d 4 8 d 7 10 d 9 18 d 7 18 d 3 8 d 5 11 d 6 18 d f black 0.0941176 0.666667 0.905882 c black 0.0941176 0.666667 0.905882 c 1 lw << /PatternType 1
 /PaintType 2 /TilingType 1 /BBox [ 0 0 100 100 ] /XStep 100 /YStep 100 /PaintProc { begin gsave 0 100 m 100 0 l s gr end } >> [ 0.24 0 0 0.24 0 0 ] makepattern /P05 exch def /cs {[/Pattern /DeviceRGB] setcolorspace} def /FA {f [/DeviceRGB]
 setcolorspace} def cs 0.0941176 0.666667 0.905882 P05 setcolor 1901 795 m -6 -19 d -6 -18 d -3 -10 d -5 -8 d -9 -18 d -9 -18 d -3 -6 d -9 -12 d -12 -19 d -5 -7 d -8 -11 d -14 -18 d -3 -4 d -14 -14 d -12 -13 d -5 -5 d -19 -18 d -1 -2 d -21 -17 d -5
 -4 d -18 -14 d -8 -5 d -18 -13 d -7 -5 d -21 -13 d -5 -3 d -25 -14 d -2 -1 d -24 -11 d -14 -7 d -12 -5 d -25 -11 d -6 -2 d -20 -7 d -25 -9 d -8 -3 d -18 -4 d -25 -6 d -26 -7 d -2 -1 d -24 -3 d -25 -4 d -26 -3 d -25 -3 d -26 -3 d -26 -1 d -51 X -25 2
 d -26 2 d -26 3 d -25 4 d -26 3 d -17 3 d -8 2 d -26 7 d -26 6 d -12 3 d -13 5 d -26 9 d -14 5 d -11 5 d -26 10 d -7 3 d -19 9 d -17 9 d -8 4 d -26 14 d -25 16 d -3 2 d -23 16 d -3 2 d -22 18 d -2 X -20 19 d -4 3 d -15 15 d -11 10 d -6 8 d -18 18 d
 -1 2 d -12 16 d -14 17 d -1 1 d -10 19 d -13 18 d -1 3 d -7 15 d -9 18 d -10 18 d 1 Y -5 17 d -6 19 d -5 18 d -5 18 d -4 18 d -1 3 d -1 15 d -2 18 d 55 Y 2 18 d 1 15 d 1 3 d 4 18 d 5 18 d 5 19 d 6 18 d 5 17 d 1 Y 10 18 d 9 18 d 7 16 d 1 2 d 13 19 d
 10 18 d 1 1 d 14 17 d 12 16 d 1 2 d 18 18 d 6 8 d 11 10 d 15 15 d 4 3 d 20 19 d 2 1 d 22 17 d 3 2 d 23 16 d 3 2 d 25 16 d 26 14 d 8 4 d 17 9 d 20 9 d 6 3 d 26 11 d 11 5 d 14 4 d 26 9 d 13 5 d 12 3 d 26 6 d 26 7 d 8 2 d 17 3 d 26 3 d 25 4 d 26 3 d 26
 2 d 25 2 d 51 X 26 -1 d 26 -3 d 25 -2 d 26 -4 d 25 -3 d 24 -4 d 2 -1 d 26 -7 d 25 -6 d 18 -4 d 8 -3 d 25 -9 d 20 -6 d 6 -3 d 25 -11 d 12 -5 d 14 -7 d 24 -11 d 2 -1 d 25 -14 d 5 -3 d 21 -13 d 7 -5 d 18 -13 d 8 -5 d 18 -14 d 5 -4 d 21 -17 d 1 -2 d 19
 -18 d 5 -5 d 12 -13 d 14 -14 d 3 -4 d 14 -18 d 8 -10 d 5 -8 d 12 -18 d 9 -13 d 3 -6 d 9 -18 d 9 -18 d 5 -8 d 3 -10 d 6 -18 d 6 -18 d 6 -19 d 4 -12 d 1 -6 d 3 -18 d 2 -18 d 1 -18 d 1 -18 d -19 Y -1 -18 d -1 -18 d -2 -18 d -3 -18 d -1 -6 d -4 -12 d -6
 -18 d -81 18 d 5 18 d 4 18 d 2 18 d 2 18 d 1 18 d 19 Y -1 18 d -2 18 d -2 18 d -4 18 d -5 18 d -6 19 d -5 11 d -3 7 d -7 18 d -9 18 d -7 10 d -4 8 d -11 18 d -10 13 d -4 6 d -14 18 d -8 8 d -8 10 d -18 16 d -1 2 d -20 18 d -4 4 d -18 14 d -8 6 d -17
 12 d -8 6 d -20 13 d -6 3 d -26 14 d -1 1 d -24 12 d -14 6 d -12 6 d -25 9 d -9 3 d -17 7 d -25 7 d -18 4 d -8 3 d -26 6 d -25 5 d -26 3 d -16 1 d -9 2 d -26 2 d -26 2 d -51 X -25 -2 d -26 -3 d -5 -1 d -21 -2 d -25 -3 d -26 -5 d -25 -7 d -3 -1 d -23
 -5 d -26 -8 d -11 -5 d -14 -4 d -26 -11 d -6 -3 d -19 -8 d -19 -10 d -7 -4 d -25 -14 d -1 -1 d -25 -16 d -3 -2 d -23 -16 d -2 -2 d -22 -18 d -1 -1 d -20 -17 d -6 -6 d -12 -12 d -13 -16 d -2 -2 d -16 -18 d -8 -13 d -4 -6 d -13 -18 d -9 -18 d -11 -18
 d -7 -18 d -6 -18 d -1 -4 d -6 -15 d -5 -18 d -4 -18 d -3 -18 d -2 -18 d -55 Y 2 -18 d 3 -18 d 4 -18 d 5 -18 d 6 -15 d 1 -3 d 6 -19 d 7 -18 d 11 -18 d 9 -18 d 13 -18 d 4 -6 d 8 -12 d 16 -19 d 2 -2 d 13 -16 d 12 -11 d 6 -7 d 20 -17 d 1 -1 d 22 -18 d
 2 -2 d 23 -16 d 3 -2 d 25 -16 d 1 -1 d 25 -14 d 7 -4 d 19 -10 d 19 -8 d 6 -3 d 26 -10 d 14 -5 d 11 -5 d 26 -8 d 23 -5 d 3 -1 d 25 -7 d 26 -5 d 25 -3 d 21 -2 d 5 -1 d 26 -3 d 25 -1 d 26 -1 d 25 X 26 2 d 26 2 d 10 2 d 15 1 d 26 4 d 25 4 d 26 6 d 8 3 d
 18 4 d 25 7 d 17 7 d 9 3 d 25 10 d 12 5 d 14 6 d 24 12 d 1 1 d 26 14 d 6 3 d 20 13 d 8 6 d 17 12 d 8 6 d 18 14 d 4 4 d 20 18 d 1 2 d 18 16 d 8 10 d 8 8 d 14 19 d 4 5 d 10 13 d 11 18 d 4 8 d 7 10 d 9 18 d 7 18 d 3 8 d 5 11 d 6 18 d FA 3 lw 0.0941176
 0.666667 0.905882 c 6 lw 0.977 0.977044 0.0583656 c black 0.0941176 0.666667 0.905882 c 1423 1412 m 2 -1 d 26 -7 d 25 -6 d 18 -4 d 8 -3 d 25 -9 d 20 -6 d 6 -3 d 25 -11 d 12 -5 d 14 -7 d 24 -11 d 2 -1 d 25 -14 d 5 -3 d 21 -13 d 7 -5 d 18 -13 d 8 -5 d
 18 -14 d 5 -4 d 21 -17 d 1 -2 d 19 -18 d 5 -5 d 12 -13 d 14 -14 d 3 -4 d 14 -18 d 8 -10 d 5 -8 d 12 -18 d 9 -13 d 3 -6 d 9 -18 d 9 -18 d 5 -8 d 3 -10 d 6 -18 d 6 -18 d 6 -19 d 4 -12 d 1 -6 d 3 -18 d 2 -18 d 1 -18 d 1 -18 d -19 Y -1 -18 d -1 -18 d -2
 -18 d -3 -18 d -1 -6 d -4 -12 d -6 -18 d -6 -19 d -6 -18 d -3 -10 d -5 -8 d -9 -18 d -9 -18 d -3 -6 d -9 -12 d -12 -19 d -5 -7 d -8 -11 d -14 -18 d -3 -4 d -14 -14 d -12 -13 d -5 -5 d -19 -18 d -1 -2 d -21 -17 d -5 -4 d -18 -14 d -8 -5 d -18 -13 d
 -7 -5 d -21 -13 d -5 -3 d -25 -14 d -2 -1 d -24 -11 d -14 -7 d -12 -5 d -25 -11 d -6 -2 d -20 -7 d -25 -9 d -8 -3 d -18 -4 d -25 -6 d -26 -7 d -2 -1 d -24 -3 d -25 -4 d -26 -3 d -25 -3 d -26 -3 d -26 -1 d -51 X -25 2 d -26 2 d -26 3 d -25 4 d -26 3
 d -17 3 d -8 2 d -26 7 d -26 6 d -12 3 d -13 5 d -26 9 d -14 5 d -11 5 d -26 10 d -7 3 d -19 9 d -17 9 d -8 4 d -26 14 d -25 16 d -3 2 d -23 16 d -3 2 d -22 18 d -2 X -20 19 d -4 3 d -15 15 d -11 10 d -6 8 d -18 18 d -1 2 d -12 16 d -14 17 d -1 1 d
 -10 19 d -13 18 d -1 3 d -7 15 d -9 18 d -10 18 d 1 Y -5 17 d -6 19 d -5 18 d -5 18 d -4 18 d -1 3 d -1 15 d -2 18 d 55 Y 2 18 d 1 15 d 1 3 d 4 18 d 5 18 d 5 19 d 6 18 d 5 17 d 1 Y 10 18 d 9 18 d 7 16 d 1 2 d 13 19 d 10 18 d 1 1 d 14 17 d 12 16 d 1
 2 d 18 18 d 6 8 d 11 10 d 15 15 d 4 3 d 20 19 d 2 1 d 22 17 d 3 2 d 23 16 d 3 2 d 25 16 d 26 14 d 8 4 d 17 9 d 20 9 d 6 3 d 26 11 d 11 5 d 14 4 d 26 9 d 13 5 d 12 3 d 26 6 d 26 7 d 8 2 d 17 3 d 26 3 d 25 4 d 26 3 d 26 2 d 25 2 d 51 X 26 -1 d 26 -3 d
 25 -2 d 26 -4 d 25 -3 d 24 -4 d cl s 0.977 0.977044 0.0583656 c black 0.0941176 0.666667 0.905882 c 1323 1359 m -26 2 d -26 2 d -51 X -25 -2 d -26 -3 d -5 -1 d -21 -2 d -25 -3 d -26 -5 d -25 -7 d -3 -1 d -23 -5 d -26 -8 d -11 -5 d -14 -4 d -26 -11 d
 -6 -3 d -19 -8 d -19 -10 d -7 -4 d -25 -14 d -1 -1 d -25 -16 d -3 -2 d -23 -16 d -2 -2 d -22 -18 d -1 -1 d -20 -17 d -6 -6 d -12 -12 d -13 -16 d -2 -2 d -16 -18 d -8 -13 d -4 -6 d -13 -18 d -9 -18 d -11 -18 d -7 -18 d -6 -18 d -1 -4 d -6 -15 d -5
 -18 d -4 -18 d -3 -18 d -2 -18 d -55 Y 2 -18 d 3 -18 d 4 -18 d 5 -18 d 6 -15 d 1 -3 d 6 -19 d 7 -18 d 11 -18 d 9 -18 d 13 -18 d 4 -6 d 8 -12 d 16 -19 d 2 -2 d 13 -16 d 12 -11 d 6 -7 d 20 -17 d 1 -1 d 22 -18 d 2 -2 d 23 -16 d 3 -2 d 25 -16 d 1 -1 d
 25 -14 d 7 -4 d 19 -10 d 19 -8 d 6 -3 d 26 -10 d 14 -5 d 11 -5 d 26 -8 d 23 -5 d 3 -1 d 25 -7 d 26 -5 d 25 -3 d 21 -2 d 5 -1 d 26 -3 d 25 -1 d 26 -1 d 25 X 26 2 d 26 2 d 10 2 d 15 1 d 26 4 d 25 4 d 26 6 d 8 3 d 18 4 d 25 7 d 17 7 d 9 3 d 25 10 d 12
 5 d 14 6 d 24 12 d 1 1 d 26 14 d 6 3 d 20 13 d 8 6 d 17 12 d 8 6 d 18 14 d 4 4 d 20 18 d 1 2 d 18 16 d 8 10 d 8 8 d 14 19 d 4 5 d 10 13 d 11 18 d 4 8 d 7 10 d 9 18 d 7 18 d 3 8 d 5 11 d 6 18 d 5 18 d 4 18 d 2 18 d 2 18 d 1 18 d 19 Y -1 18 d -2 18 d
 -2 18 d -4 18 d -5 18 d -6 19 d -5 11 d -3 7 d -7 18 d -9 18 d -7 10 d -4 8 d -11 18 d -10 13 d -4 6 d -14 18 d -8 8 d -8 10 d -18 16 d -1 2 d -20 18 d -4 4 d -18 14 d -8 6 d -17 12 d -8 6 d -20 13 d -6 3 d -26 14 d -1 1 d -24 12 d -14 6 d -12 6 d
 -25 9 d -9 3 d -17 7 d -25 7 d -18 4 d -8 3 d -26 6 d -25 5 d -26 3 d -16 1 d -9 2 d cl s 0.35 0.33 0.85 c[ 12 12] 0 sd 0.884975 0.752825 0.292488 c black 0.35 0.33 0.85 c 1297 1448 m 26 -2 d 25 -3 d 26 -3 d 25 -4 d 26 -4 d 9 -2 d 17 -4 d 25 -7 d 26
 -6 d 3 -1 d 22 -8 d 26 -8 d 5 -2 d 20 -9 d 24 -9 d 2 -1 d 26 -13 d 9 -5 d 16 -9 d 17 -9 d 9 -5 d 20 -13 d 5 -3 d 22 -15 d 4 -3 d 19 -15 d 7 -5 d 15 -13 d 10 -10 d 9 -9 d 17 -15 d 2 -3 d 16 -18 d 7 -8 d 8 -10 d 15 -18 d 3 -4 d 9 -14 d 12 -18 d 5 -8 d
 5 -11 d 9 -18 d 10 -18 d 1 -3 d 6 -15 d 6 -18 d 6 -18 d 5 -19 d 3 -8 d 2 -10 d 2 -18 d 2 -18 d 2 -18 d 1 -18 d -19 Y -1 -18 d -2 -18 d -2 -18 d -2 -18 d -2 -10 d -3 -8 d -5 -18 d -6 -19 d -6 -18 d -6 -15 d -1 -3 d -10 -18 d -9 -18 d -5 -11 d -5 -7 d
 -12 -19 d -9 -14 d -3 -4 d -15 -18 d -8 -10 d -7 -8 d -16 -18 d -2 -3 d -17 -15 d -9 -9 d -10 -10 d -15 -13 d -7 -5 d -19 -15 d -4 -3 d -22 -14 d -5 -4 d -20 -13 d -9 -5 d -17 -9 d -16 -9 d -9 -5 d -26 -12 d -2 -1 d -24 -10 d -20 -9 d -5 -1 d -26 -9
 d -22 -8 d -3 -1 d -26 -6 d -25 -7 d -17 -4 d -9 -2 d -26 -4 d -25 -4 d -26 -3 d -25 -3 d -26 -2 d -26 -1 d -51 X -18 1 d -7 X -26 3 d -26 2 d -25 4 d -26 4 d -25 4 d -4 1 d -22 6 d -26 6 d -23 6 d -2 1 d -26 9 d -25 8 d -26 11 d -17 8 d -9 3 d -25
 13 d -4 2 d -22 12 d -11 6 d -14 9 d -15 9 d -11 7 d -15 11 d -10 8 d -14 10 d -12 10 d -10 8 d -16 15 d -4 4 d -18 18 d -3 3 d -13 15 d -13 14 d -3 4 d -13 18 d -9 12 d -4 6 d -11 19 d -11 16 d -1 2 d -8 18 d -9 18 d -8 16 d 2 Y -6 18 d -6 19 d -5
 18 d -4 18 d -4 18 d 1 Y -2 17 d -2 18 d 55 Y 2 18 d 2 18 d 4 18 d 4 18 d 5 19 d 6 18 d 6 18 d 2 Y 8 16 d 9 18 d 8 18 d 1 2 d 11 17 d 11 18 d 4 6 d 9 12 d 13 18 d 3 4 d 13 14 d 13 15 d 3 3 d 18 18 d 4 5 d 16 14 d 10 8 d 12 10 d 14 10 d 10 8 d 15 11
 d 11 7 d 15 9 d 14 9 d 11 6 d 22 12 d 4 2 d 25 13 d 9 4 d 17 7 d 26 11 d 25 8 d 26 9 d 2 1 d 23 6 d 26 7 d 22 5 d 4 1 d 25 4 d 26 4 d 25 4 d 26 3 d 26 2 d 7 X 18 1 d 51 X 26 -1 d cl s 0.884975 0.752825 0.292488 c black 0.35 0.33 0.85 c 1374 1328 m
 -26 4 d -25 3 d -26 2 d -26 1 d -51 X -25 -2 d -26 -2 d -26 -3 d -25 -4 d -25 -6 d -1 X -25 -6 d -26 -7 d -14 -5 d -12 -4 d -25 -10 d -11 -4 d -15 -7 d -23 -11 d -2 -1 d -26 -14 d -5 -4 d -21 -12 d -8 -6 d -17 -12 d -8 -6 d -18 -15 d -4 -3 d -19 -18
 d -2 -2 d -16 -16 d -10 -12 d -6 -6 d -14 -19 d -5 -8 d -8 -10 d -11 -18 d -7 -15 d -2 -3 d -9 -18 d -7 -18 d -6 -19 d -2 -5 d -4 -13 d -4 -18 d -3 -18 d -2 -18 d -1 -18 d -19 Y 1 -18 d 2 -18 d 3 -18 d 4 -18 d 4 -13 d 2 -5 d 5 -18 d 8 -19 d 9 -18 d
 2 -3 d 7 -15 d 11 -18 d 8 -10 d 5 -8 d 14 -18 d 6 -7 d 10 -12 d 16 -16 d 2 -2 d 19 -18 d 4 -3 d 18 -15 d 8 -6 d 17 -12 d 8 -6 d 21 -12 d 5 -4 d 26 -13 d 2 -2 d 23 -11 d 15 -7 d 11 -4 d 25 -10 d 12 -4 d 14 -5 d 26 -7 d 25 -6 d 1 X 25 -6 d 25 -4 d 26
 -3 d 26 -2 d 25 -2 d 51 X 26 1 d 26 2 d 25 3 d 26 4 d 25 6 d 5 1 d 21 5 d 26 7 d 18 6 d 7 2 d 26 10 d 15 6 d 10 5 d 26 12 d 3 1 d 22 12 d 11 7 d 15 9 d 13 9 d 13 9 d 12 9 d 13 11 d 9 7 d 17 16 d 3 2 d 17 18 d 5 6 d 11 13 d 14 18 d 1 1 d 12 17 d 11
 18 d 3 5 d 7 13 d 9 18 d 7 19 d 2 8 d 4 10 d 6 18 d 4 18 d 3 18 d 2 18 d 1 18 d 19 Y -1 18 d -2 18 d -3 18 d -4 18 d -6 18 d -4 10 d -2 9 d -7 18 d -9 18 d -7 13 d -3 5 d -11 18 d -12 17 d -1 1 d -14 19 d -11 12 d -5 6 d -17 18 d -3 2 d -17 16 d -9
 8 d -13 10 d -12 10 d -13 8 d -13 9 d -15 9 d -11 7 d -22 12 d -3 1 d -26 13 d -10 4 d -15 6 d -26 10 d -7 2 d -18 6 d -26 7 d -21 5 d -5 1 d -25 6 d cl s 0.0941176 0.666667 0.905882 c 0.977 0.977044 0.0583656 c black 0.0941176 0.666667 0.905882 c
 1423 1412 m 2 -1 d 26 -7 d 25 -6 d 18 -4 d 8 -3 d 25 -9 d 20 -6 d 6 -3 d 25 -11 d 12 -5 d 14 -7 d 24 -11 d 2 -1 d 25 -14 d 5 -3 d 21 -13 d 7 -5 d 18 -13 d 8 -5 d 18 -14 d 5 -4 d 21 -17 d 1 -2 d 19 -18 d 5 -5 d 12 -13 d 14 -14 d 3 -4 d 14 -18 d 8 -10
 d 5 -8 d 12 -18 d 9 -13 d 3 -6 d 9 -18 d 9 -18 d 5 -8 d 3 -10 d 6 -18 d 6 -18 d 6 -19 d 4 -12 d 1 -6 d 3 -18 d 2 -18 d 1 -18 d 1 -18 d -19 Y -1 -18 d -1 -18 d -2 -18 d -3 -18 d -1 -6 d -4 -12 d -6 -18 d -6 -19 d -6 -18 d -3 -10 d -5 -8 d -9 -18 d -9
 -18 d -3 -6 d -9 -12 d -12 -19 d -5 -7 d -8 -11 d -14 -18 d -3 -4 d -14 -14 d -12 -13 d -5 -5 d -19 -18 d -1 -2 d -21 -17 d -5 -4 d -18 -14 d -8 -5 d -18 -13 d -7 -5 d -21 -13 d -5 -3 d -25 -14 d -2 -1 d -24 -11 d -14 -7 d -12 -5 d -25 -11 d -6 -2 d
 -20 -7 d -25 -9 d -8 -3 d -18 -4 d -25 -6 d -26 -7 d -2 -1 d -24 -3 d -25 -4 d -26 -3 d -25 -3 d -26 -3 d -26 -1 d -51 X -25 2 d -26 2 d -26 3 d -25 4 d -26 3 d -17 3 d -8 2 d -26 7 d -26 6 d -12 3 d -13 5 d -26 9 d -14 5 d -11 5 d -26 10 d -7 3 d
 -19 9 d -17 9 d -8 4 d -26 14 d -25 16 d -3 2 d -23 16 d -3 2 d -22 18 d -2 X -20 19 d -4 3 d -15 15 d -11 10 d -6 8 d -18 18 d -1 2 d -12 16 d -14 17 d -1 1 d -10 19 d -13 18 d -1 3 d -7 15 d -9 18 d -10 18 d 1 Y -5 17 d -6 19 d -5 18 d -5 18 d -4
 18 d -1 3 d -1 15 d -2 18 d 55 Y 2 18 d 1 15 d 1 3 d 4 18 d 5 18 d 5 19 d 6 18 d 5 17 d 1 Y 10 18 d 9 18 d 7 16 d 1 2 d 13 19 d 10 18 d 1 1 d 14 17 d 12 16 d 1 2 d 18 18 d 6 8 d 11 10 d 15 15 d 4 3 d 20 19 d 2 1 d 22 17 d 3 2 d 23 16 d 3 2 d 25 16 d
 26 14 d 8 4 d 17 9 d 20 9 d 6 3 d 26 11 d 11 5 d 14 4 d 26 9 d 13 5 d 12 3 d 26 6 d 26 7 d 8 2 d 17 3 d 26 3 d 25 4 d 26 3 d 26 2 d 25 2 d 51 X 26 -1 d 26 -3 d 25 -2 d 26 -4 d 25 -3 d 24 -4 d cl s 0.977 0.977044 0.0583656 c black 0.0941176 0.666667
 0.905882 c 1323 1359 m -26 2 d -26 2 d -51 X -25 -2 d -26 -3 d -5 -1 d -21 -2 d -25 -3 d -26 -5 d -25 -7 d -3 -1 d -23 -5 d -26 -8 d -11 -5 d -14 -4 d -26 -11 d -6 -3 d -19 -8 d -19 -10 d -7 -4 d -25 -14 d -1 -1 d -25 -16 d -3 -2 d -23 -16 d -2 -2 d
 -22 -18 d -1 -1 d -20 -17 d -6 -6 d -12 -12 d -13 -16 d -2 -2 d -16 -18 d -8 -13 d -4 -6 d -13 -18 d -9 -18 d -11 -18 d -7 -18 d -6 -18 d -1 -4 d -6 -15 d -5 -18 d -4 -18 d -3 -18 d -2 -18 d -55 Y 2 -18 d 3 -18 d 4 -18 d 5 -18 d 6 -15 d 1 -3 d 6 -19
 d 7 -18 d 11 -18 d 9 -18 d 13 -18 d 4 -6 d 8 -12 d 16 -19 d 2 -2 d 13 -16 d 12 -11 d 6 -7 d 20 -17 d 1 -1 d 22 -18 d 2 -2 d 23 -16 d 3 -2 d 25 -16 d 1 -1 d 25 -14 d 7 -4 d 19 -10 d 19 -8 d 6 -3 d 26 -10 d 14 -5 d 11 -5 d 26 -8 d 23 -5 d 3 -1 d 25 -7
 d 26 -5 d 25 -3 d 21 -2 d 5 -1 d 26 -3 d 25 -1 d 26 -1 d 25 X 26 2 d 26 2 d 10 2 d 15 1 d 26 4 d 25 4 d 26 6 d 8 3 d 18 4 d 25 7 d 17 7 d 9 3 d 25 10 d 12 5 d 14 6 d 24 12 d 1 1 d 26 14 d 6 3 d 20 13 d 8 6 d 17 12 d 8 6 d 18 14 d 4 4 d 20 18 d 1 2 d
 18 16 d 8 10 d 8 8 d 14 19 d 4 5 d 10 13 d 11 18 d 4 8 d 7 10 d 9 18 d 7 18 d 3 8 d 5 11 d 6 18 d 5 18 d 4 18 d 2 18 d 2 18 d 1 18 d 19 Y -1 18 d -2 18 d -2 18 d -4 18 d -5 18 d -6 19 d -5 11 d -3 7 d -7 18 d -9 18 d -7 10 d -4 8 d -11 18 d -10 13 d
 -4 6 d -14 18 d -8 8 d -8 10 d -18 16 d -1 2 d -20 18 d -4 4 d -18 14 d -8 6 d -17 12 d -8 6 d -20 13 d -6 3 d -26 14 d -1 1 d -24 12 d -14 6 d -12 6 d -25 9 d -9 3 d -17 7 d -25 7 d -18 4 d -8 3 d -26 6 d -25 5 d -26 3 d -16 1 d -9 2 d cl s black[ 
 ] 0 sd 3 lw 363 1548 m 1791 X s 501 1509 m 39 Y s 570 1529 m 19 Y s 638 1529 m 19 Y s 707 1529 m 19 Y s 776 1509 m 39 Y s 845 1529 m 19 Y s 914 1529 m 19 Y s 983 1529 m 19 Y s 1052 1509 m 39 Y s 1121 1529 m 19 Y s 1190 1529 m 19 Y s 1259 1529 m 19 Y
 s 1327 1509 m 39 Y s 1396 1529 m 19 Y s 1465 1529 m 19 Y s 1534 1529 m 19 Y s 1603 1509 m 39 Y s 1672 1529 m 19 Y s 1741 1529 m 19 Y s 1810 1529 m 19 Y s 1879 1509 m 39 Y s 1948 1529 m 19 Y s 2017 1529 m 19 Y s 2085 1529 m 19 Y s 2154 1509 m 39 Y s
 501 1509 m 39 Y s 432 1529 m 19 Y s 2154 1509 m 39 Y s 363 277 m 1791 X s 501 316 m -39 Y s 570 296 m -19 Y s 638 296 m -19 Y s 707 296 m -19 Y s 776 316 m -39 Y s 845 296 m -19 Y s 914 296 m -19 Y s 983 296 m -19 Y s 1052 316 m -39 Y s 1121 296 m
 -19 Y s 1190 296 m -19 Y s 1259 296 m -19 Y s 1327 316 m -39 Y s 1396 296 m -19 Y s 1465 296 m -19 Y s 1534 296 m -19 Y s 1603 316 m -39 Y s 1672 296 m -19 Y s 1741 296 m -19 Y s 1810 296 m -19 Y s 1879 316 m -39 Y s 1948 296 m -19 Y s 2017 296 m
 -19 Y s 2085 296 m -19 Y s 2154 316 m -39 Y s 501 316 m -39 Y s 432 296 m -19 Y s 2154 316 m -39 Y s
 gsave  2268 1630 0 0 C 444.427 190.876 t 0 r /Times-Roman findfont 94.0134 sf 0 0 m (0.01) show NC gr 
 gsave  2268 1630 0 0 C 393.147 190.876 t 0 r /Symbol findfont 94.0134 sf 0 0 m (-) show NC gr 
 gsave  2268 1630 0 0 C 695.129 190.876 t 0 r /Times-Roman findfont 94.0134 sf 0 0 m (0.008) show NC gr 
 gsave  2268 1630 0 0 C 643.849 190.876 t 0 r /Symbol findfont 94.0134 sf 0 0 m (-) show NC gr 
 gsave  2268 1630 0 0 C 968.623 190.876 t 0 r /Times-Roman findfont 94.0134 sf 0 0 m (0.006) show NC gr 
 gsave  2268 1630 0 0 C 920.192 190.876 t 0 r /Symbol findfont 94.0134 sf 0 0 m (-) show NC gr 
 gsave  2268 1630 0 0 C 1242.12 190.876 t 0 r /Times-Roman findfont 94.0134 sf 0 0 m (0.004) show NC gr 
 gsave  2268 1630 0 0 C 1193.68 190.876 t 0 r /Symbol findfont 94.0134 sf 0 0 m (-) show NC gr 
 gsave  2268 1630 0 0 C 1518.46 190.876 t 0 r /Times-Roman findfont 94.0134 sf 0 0 m (0.002) show NC gr 
 gsave  2268 1630 0 0 C 1470.03 190.876 t 0 r /Symbol findfont 94.0134 sf 0 0 m (-) show NC gr 
 gsave  2268 1630 0 0 C 1854.63 190.876 t 0 r /Times-Roman findfont 94.0134 sf 0 0 m (0) show NC gr 
 gsave  2268 1630 0 0 C 2048.35 190.876 t 0 r /Times-Roman findfont 94.0134 sf 0 0 m (0.002) show NC gr  363 277 m 1271 Y s 416 277 m -53 X s 389 330 m -26 X s 389 383 m -26 X s 389 436 m -26 X s 416 489 m -53 X s 389 542 m -26 X s 389 595 m -26 X s
 389 648 m -26 X s 416 701 m -53 X s 389 754 m -26 X s 389 807 m -26 X s 389 860 m -26 X s 416 913 m -53 X s 389 966 m -26 X s 389 1018 m -26 X s 389 1071 m -26 X s 416 1124 m -53 X s 389 1177 m -26 X s 389 1230 m -26 X s 389 1283 m -26 X s 416 1336
 m -53 X s 389 1389 m -26 X s 389 1442 m -26 X s 389 1495 m -26 X s 416 1548 m -53 X s 416 277 m -53 X s 416 1548 m -53 X s
 gsave  2268 1630 0 0 C 128.2 245.005 t 0 r /Times-Roman findfont 94.0134 sf 0 0 m (0.006) show NC gr 
 gsave  2268 1630 0 0 C 76.92 245.005 t 0 r /Symbol findfont 94.0134 sf 0 0 m (-) show NC gr 
 gsave  2268 1630 0 0 C 128.2 455.822 t 0 r /Times-Roman findfont 94.0134 sf 0 0 m (0.004) show NC gr 
 gsave  2268 1630 0 0 C 76.92 455.822 t 0 r /Symbol findfont 94.0134 sf 0 0 m (-) show NC gr 
 gsave  2268 1630 0 0 C 128.2 666.64 t 0 r /Times-Roman findfont 94.0134 sf 0 0 m (0.002) show NC gr 
 gsave  2268 1630 0 0 C 76.92 666.64 t 0 r /Symbol findfont 94.0134 sf 0 0 m (-) show NC gr 
 gsave  2268 1630 0 0 C 293.436 880.307 t 0 r /Times-Roman findfont 94.0134 sf 0 0 m (0) show NC gr 
 gsave  2268 1630 0 0 C 128.2 1091.12 t 0 r /Times-Roman findfont 94.0134 sf 0 0 m (0.002) show NC gr 
 gsave  2268 1630 0 0 C 128.2 1304.79 t 0 r /Times-Roman findfont 94.0134 sf 0 0 m (0.004) show NC gr 
 gsave  2268 1630 0 0 C 128.2 1515.61 t 0 r /Times-Roman findfont 94.0134 sf 0 0 m (0.006) show NC gr  2154 277 m 1271 Y s 2101 277 m 53 X s 2128 330 m 26 X s 2128 383 m 26 X s 2128 436 m 26 X s 2101 489 m 53 X s 2128 542 m 26 X s 2128 595 m 26 X s
 2128 648 m 26 X s 2101 701 m 53 X s 2128 754 m 26 X s 2128 807 m 26 X s 2128 860 m 26 X s 2101 913 m 53 X s 2128 966 m 26 X s 2128 1018 m 26 X s 2128 1071 m 26 X s 2101 1124 m 53 X s 2128 1177 m 26 X s 2128 1230 m 26 X s 2128 1283 m 26 X s 2101 1336
 m 53 X s 2128 1389 m 26 X s 2128 1442 m 26 X s 2128 1495 m 26 X s 2101 1548 m 53 X s 2101 277 m 53 X s 2101 1548 m 53 X s 0.35 0.33 0.85 c /w 36 def /w2 {w 2 div} def /w3 {w 3 div} def 1879 924 m31 black
 gsave  2268 1630 0 0 C 598.267 1316.19 t 0 r /Times-Roman findfont 76.92 sf 0 0 m (SMEFT Run2) show NC gr 
 gsave  2268 1630 0 0 C 1227.87 1324.73 t 0 r /Times-Roman findfont 119.653 sf 0 0 m (GammaCombo) show NC gr  0.6 0.6 0.6 c black 0.6 0.6 0.6 c
 gsave  2268 1630 0 0 C 407.391 330.471 t 0 r /Times-Roman findfont 56.9778 sf 0 0 m (contours hold 68%, 95% CL) show NC gr 
 gr  gr showpage
end
%%EOF
