%!PS-Adobe-2.0 EPSF-2.0
%%BoundingBox:  0 0 567 407
%%Title: plots/eps/HGamEFTScanner_raw_2dscan_linear_obs_cHB:cHBt_cHB_cHBt.eps: SMEFT Run2
%%Creator: ROOT Version 6.08/02
%%CreationDate: Wed Jul 14 10:11:26 2021
%%DocumentNeededResources: ProcSet (FontSetInit)
%%EndComments
%%BeginProlog
80 dict begin
/s {stroke} def /l {lineto} def /m {moveto} def /t {translate} def
/r {rotate} def /rl {roll}  def /R {repeat} def
/d {rlineto} def /rm {rmoveto} def /gr {grestore} def /f {eofill} def
/c {setrgbcolor} def /black {0 setgray} def /sd {setdash} def
/cl {closepath} def /sf {scalefont setfont} def /lw {setlinewidth} def
/box {m dup 0 exch d exch 0 d 0 exch neg d cl} def
/NC{systemdict begin initclip end}def/C{NC box clip newpath}def
/bl {box s} def /bf {gsave box gsave f grestore 1 lw [] 0 sd s grestore} def /Y { 0 exch d} def /X { 0 d} def 
/K {{pop pop 0 moveto} exch kshow} bind def
/ita {/ang 15 def gsave [1 0 ang dup sin exch cos div 1 0 0] concat} def 
/mp {newpath /y exch def /x exch def} def
/side {[w .77 mul w .23 mul] .385 w mul sd w 0 l currentpoint t -144 r} def
/mr {mp x y w2 0 360 arc} def /m24 {mr s} def /m20 {mr f} def
/mb {mp x y w2 add m w2 neg 0 d 0 w neg d w 0 d 0 w d cl} def
/mt {mp x y w2 add m w2 neg w neg d w 0 d cl} def
/m21 {mb f} def /m25 {mb s} def /m22 {mt f} def /m26{mt s} def
/m23 {mp x y w2 sub m w2 w d w neg 0 d cl f} def
/m27 {mp x y w2 add m w3 neg w2 neg d w3 w2 neg d w3 w2 d cl s} def
/m28 {mp x w2 sub y w2 sub w3 add m w3 0 d  0 w3 neg d w3 0 d 0 w3 d w3 0 d  0 w3 d w3 neg 0 d 0 w3 d w3 neg 0 d 0 w3 neg d w3 neg 0 d cl s } def
/m29 {mp gsave x w2 sub y w2 add w3 sub m currentpoint t 4 {side} repeat cl fill gr} def
/m30 {mp gsave x w2 sub y w2 add w3 sub m currentpoint t 4 {side} repeat cl s gr} def
/m31 {mp x y w2 sub m 0 w d x w2 sub y m w 0 d x w2 sub y w2 add m w w neg d x w2 sub y w2 sub m w w d s} def
/m32 {mp x y w2 sub m w2 w d w neg 0 d cl s} def
/m33 {mp x y w2 add m w3 neg w2 neg d w3 w2 neg d w3 w2 d cl f} def
/m34 {mp x w2 sub y w2 sub w3 add m w3 0 d  0 w3 neg d w3 0 d 0 w3 d w3 0 d  0 w3 d w3 neg 0 d 0 w3 d w3 neg 0 d 0 w3 neg d w3 neg 0 d cl f } def
/m2 {mp x y w2 sub m 0 w d x w2 sub y m w 0 d s} def
/m5 {mp x w2 sub y w2 sub m w w d x w2 sub y w2 add m w w neg d s} def
%%IncludeResource: ProcSet (FontSetInit)
%%IncludeResource: font Times-Roman
%%IncludeResource: font Times-Italic
%%IncludeResource: font Times-Bold
%%IncludeResource: font Times-BoldItalic
%%IncludeResource: font Helvetica
%%IncludeResource: font Helvetica-Oblique
%%IncludeResource: font Helvetica-Bold
%%IncludeResource: font Helvetica-BoldOblique
%%IncludeResource: font Courier
%%IncludeResource: font Courier-Oblique
%%IncludeResource: font Courier-Bold
%%IncludeResource: font Courier-BoldOblique
%%IncludeResource: font Symbol
%%IncludeResource: font ZapfDingbats
/reEncode {exch findfont dup length dict begin {1 index /FID eq  {pop pop} {def} ifelse } forall /Encoding exch def currentdict end dup /FontName get exch definefont pop } def [/Times-Bold /Times-Italic /Times-BoldItalic /Helvetica /Helvetica-Oblique
 /Helvetica-Bold /Helvetica-BoldOblique /Courier /Courier-Oblique /Courier-Bold /Courier-BoldOblique /Times-Roman /AvantGarde-Book /AvantGarde-BookOblique /AvantGarde-Demi /AvantGarde-DemiOblique /Bookman-Demi /Bookman-DemiItalic /Bookman-Light
 /Bookman-LightItalic /Helvetica-Narrow /Helvetica-Narrow-Bold /Helvetica-Narrow-BoldOblique /Helvetica-Narrow-Oblique /NewCenturySchlbk-Roman /NewCenturySchlbk-Bold /NewCenturySchlbk-BoldItalic /NewCenturySchlbk-Italic /Palatino-Bold
 /Palatino-BoldItalic /Palatino-Italic /Palatino-Roman ] {ISOLatin1Encoding reEncode } forall
%%EndProlog
%%BeginSetup
%%EndSetup
newpath  gsave  .25 .25 scale  gsave  0 0 t black[  ] 0 sd 3 lw 1 1 1 c 2268 1630 0 0 bf black 1 1 1 c 1791 1271 363 277 bf black 1791 1271 363 277 bl 1 1 1 c 1791 1271 363 277 bf black 1791 1271 363 277 bl 363 277 m 1791 X s
 gsave  2268 1630 0 0 C 2045.5 25.64 t 0 r /Times-Italic findfont 79.7689 sf 0 0 m (HB) show NC gr 
 gsave  2268 1630 0 0 C 1960.04 59.8267 t 0 r /Times-Italic findfont 119.653 sf 0 0 m (C) show NC gr  6 lw 1960 148 m 86 X s 3 lw 363 277 m 1271 Y s
 gsave  2268 1630 0 0 C 170.933 1441.54 t 90 r /Times-Italic findfont 79.7689 sf 0 0 m (HB) show NC gr 
 gsave  2268 1630 0 0 C 136.747 1356.07 t 90 r /Times-Italic findfont 119.653 sf 0 0 m (C) show NC gr 
 gsave  2268 1630 0 0 C 71.2223 1398.81 t 90 r  -32 0 t /Times-Italic findfont 119.653 sf 0 0 m (~) show NC gr  0.827451 0.913725 1 c black 0.827451 0.913725 1 c 1711 1357 m 31 -21 d 5 -4 d 31 -25 d 1 X 26 -26 d 9 -10 d 13 -15 d 18 -26 d 5 -7 d 11
 -18 d 12 -26 d 1 -25 d -864 Y -24 -1 d -36 -1 d -36 -1 d -36 -1 d -36 -1 d -35 X -36 -1 d -72 X -36 -1 d -71 X -36 -1 d -287 X -36 1 d -107 X -36 1 d -72 X -35 1 d -36 1 d -36 X -36 1 d -36 1 d -36 1 d -21 1 d 864 Y 1 25 d 17 26 d 3 4 d 18 21 d 18
 21 d 5 5 d 27 25 d 4 4 d 27 22 d 9 6 d 27 19 d 9 6 d 32 19 d 4 2 d 35 19 d 11 5 d 25 11 d 35 14 d 1 1 d 36 12 d 36 11 d 6 2 d 30 7 d 35 8 d 36 6 d 27 4 d 9 1 d 36 4 d 36 2 d 35 1 d 36 X 36 -1 d 36 -3 d 30 -4 d 6 -1 d 36 -5 d 35 -8 d 36 -9 d 9 -2 d
 27 -9 d 36 -12 d 11 -5 d 25 -10 d 31 -15 d 5 -3 d 35 -20 d 5 -3 d f 0.35 0.33 0.85 c 6 lw 0.884975 0.752825 0.292488 c black 0.35 0.33 0.85 c 1711 1357 m 31 -21 d 5 -4 d 31 -25 d 1 X 26 -26 d 9 -10 d 13 -15 d 18 -26 d 5 -7 d 11 -18 d 12 -26 d 1 -25
 d -864 Y -24 -1 d -36 -1 d -36 -1 d -36 -1 d -36 -1 d -35 X -36 -1 d -72 X -36 -1 d -71 X -36 -1 d -287 X -36 1 d -107 X -36 1 d -72 X -35 1 d -36 1 d -36 X -36 1 d -36 1 d -36 1 d -21 1 d 864 Y 1 25 d 17 26 d 3 4 d 18 21 d 18 21 d 5 5 d 27 25 d 4 4
 d 27 22 d 9 6 d 27 19 d 9 6 d 32 19 d 4 2 d 35 19 d 11 5 d 25 11 d 35 14 d 1 1 d 36 12 d 36 11 d 6 2 d 30 7 d 35 8 d 36 6 d 27 4 d 9 1 d 36 4 d 36 2 d 35 1 d 36 X 36 -1 d 36 -3 d 30 -4 d 6 -1 d 36 -5 d 35 -8 d 36 -9 d 9 -2 d 27 -9 d 36 -12 d 11 -5 d
 25 -10 d 31 -15 d 5 -3 d 35 -20 d 5 -3 d cl s black 3 lw 0.745098 0.905882 0.992157 c black 0.745098 0.905882 0.992157 c 1563 1243 m 18 -13 d 18 -14 d 11 -11 d 23 -26 d 2 -21 d -868 Y -36 -1 d -36 X -36 -1 d -71 X -36 -1 d -323 X -35 1 d -72 X -36 1
 d -36 X -33 1 d 864 Y 2 25 d 28 26 d 3 3 d 31 22 d 5 4 d 36 21 d 1 1 d 35 16 d 22 9 d 14 5 d 35 11 d 35 10 d 1 X 36 6 d 36 5 d 36 3 d 35 1 d 36 -1 d 36 -4 d 36 -5 d 28 -5 d 8 -2 d 36 -11 d 35 -13 d 1 X 35 -17 d 16 -8 d 20 -13 d f black 0.0941176
 0.666667 0.905882 c black 0.0941176 0.666667 0.905882 c 1 lw << /PatternType 1 /PaintType 2 /TilingType 1 /BBox [ 0 0 100 100 ] /XStep 100 /YStep 100 /PaintProc { begin gsave 0 100 m 100 0 l s gr end } >> [ 0.24 0 0 0.24 0 0 ] makepattern /P05 exch
 def /cs {[/Pattern /DeviceRGB] setcolorspace} def /FA {f [/DeviceRGB] setcolorspace} def cs 0.0941176 0.666667 0.905882 P05 setcolor 1563 1243 m 18 -13 d 18 -14 d 11 -11 d 23 -26 d 2 -21 d -868 Y -36 -1 d -36 X -36 -1 d -71 X -36 -1 d -323 X -35 1 d
 -72 X -36 1 d -36 X -33 1 d 864 Y 2 25 d 28 26 d 3 3 d 31 22 d 5 4 d 36 21 d 1 1 d 35 16 d 22 9 d 14 5 d 35 11 d 35 10 d 1 X 36 6 d 36 5 d 36 3 d 35 1 d 36 -1 d 36 -4 d 36 -5 d 28 -5 d 8 -2 d 36 -11 d 35 -13 d 1 X 35 -17 d 16 -8 d 20 -13 d FA 3 lw
 0.0941176 0.666667 0.905882 c 6 lw 0.977 0.977044 0.0583656 c black 0.0941176 0.666667 0.905882 c 1563 1243 m 18 -13 d 18 -14 d 11 -11 d 23 -26 d 2 -21 d -868 Y -36 -1 d -36 X -36 -1 d -71 X -36 -1 d -323 X -35 1 d -72 X -36 1 d -36 X -33 1 d 864 Y
 2 25 d 28 26 d 3 3 d 31 22 d 5 4 d 36 21 d 1 1 d 35 16 d 22 9 d 14 5 d 35 11 d 35 10 d 1 X 36 6 d 36 5 d 36 3 d 35 1 d 36 -1 d 36 -4 d 36 -5 d 28 -5 d 8 -2 d 36 -11 d 35 -13 d 1 X 35 -17 d 16 -8 d 20 -13 d cl s 0.35 0.33 0.85 c[ 12 12] 0 sd 0.884975
 0.752825 0.292488 c black 0.35 0.33 0.85 c 1711 1357 m 31 -21 d 5 -4 d 31 -25 d 1 X 26 -26 d 9 -10 d 13 -15 d 18 -26 d 5 -7 d 11 -18 d 12 -26 d 1 -25 d -864 Y -24 -1 d -36 -1 d -36 -1 d -36 -1 d -36 -1 d -35 X -36 -1 d -72 X -36 -1 d -71 X -36 -1 d
 -287 X -36 1 d -107 X -36 1 d -72 X -35 1 d -36 1 d -36 X -36 1 d -36 1 d -36 1 d -21 1 d 864 Y 1 25 d 17 26 d 3 4 d 18 21 d 18 21 d 5 5 d 27 25 d 4 4 d 27 22 d 9 6 d 27 19 d 9 6 d 32 19 d 4 2 d 35 19 d 11 5 d 25 11 d 35 14 d 1 1 d 36 12 d 36 11 d 6
 2 d 30 7 d 35 8 d 36 6 d 27 4 d 9 1 d 36 4 d 36 2 d 35 1 d 36 X 36 -1 d 36 -3 d 30 -4 d 6 -1 d 36 -5 d 35 -8 d 36 -9 d 9 -2 d 27 -9 d 36 -12 d 11 -5 d 25 -10 d 31 -15 d 5 -3 d 35 -20 d 5 -3 d cl s 0.0941176 0.666667 0.905882 c 0.977 0.977044
 0.0583656 c black 0.0941176 0.666667 0.905882 c 1563 1243 m 18 -13 d 18 -14 d 11 -11 d 23 -26 d 2 -21 d -868 Y -36 -1 d -36 X -36 -1 d -71 X -36 -1 d -323 X -35 1 d -72 X -36 1 d -36 X -33 1 d 864 Y 2 25 d 28 26 d 3 3 d 31 22 d 5 4 d 36 21 d 1 1 d
 35 16 d 22 9 d 14 5 d 35 11 d 35 10 d 1 X 36 6 d 36 5 d 36 3 d 35 1 d 36 -1 d 36 -4 d 36 -5 d 28 -5 d 8 -2 d 36 -11 d 35 -13 d 1 X 35 -17 d 16 -8 d 20 -13 d cl s black[  ] 0 sd 3 lw 363 1548 m 1791 X s 757 1509 m 39 Y s 1056 1529 m 19 Y s 1354 1509
 m 39 Y s 1653 1529 m 19 Y s 1951 1509 m 39 Y s 757 1509 m 39 Y s 458 1529 m 19 Y s 1951 1509 m 39 Y s 363 277 m 1791 X s 757 316 m -39 Y s 1056 296 m -19 Y s 1354 316 m -39 Y s 1653 296 m -19 Y s 1951 316 m -39 Y s 757 316 m -39 Y s 458 296 m -19 Y
 s 1951 316 m -39 Y s
 gsave  2268 1630 0 0 C 675.187 190.876 t 0 r /Times-Roman findfont 94.0134 sf 0 0 m (0.005) show NC gr 
 gsave  2268 1630 0 0 C 623.907 190.876 t 0 r /Symbol findfont 94.0134 sf 0 0 m (-) show NC gr 
 gsave  2268 1630 0 0 C 1330.43 190.876 t 0 r /Times-Roman findfont 94.0134 sf 0 0 m (0) show NC gr 
 gsave  2268 1630 0 0 C 1843.23 190.876 t 0 r /Times-Roman findfont 94.0134 sf 0 0 m (0.005) show NC gr  363 277 m 1271 Y s 416 383 m -53 X s 389 542 m -26 X s 416 701 m -53 X s 389 860 m -26 X s 416 1019 m -53 X s 389 1177 m -26 X s 416 1336 m -53 X
 s 416 383 m -53 X s 416 1336 m -53 X s 389 1495 m -26 X s
 gsave  2268 1630 0 0 C 150.991 350.413 t 0 r /Times-Roman findfont 94.0134 sf 0 0 m (3000) show NC gr 
 gsave  2268 1630 0 0 C 99.7112 350.413 t 0 r /Symbol findfont 94.0134 sf 0 0 m (-) show NC gr 
 gsave  2268 1630 0 0 C 150.991 666.64 t 0 r /Times-Roman findfont 94.0134 sf 0 0 m (2000) show NC gr 
 gsave  2268 1630 0 0 C 99.7112 666.64 t 0 r /Symbol findfont 94.0134 sf 0 0 m (-) show NC gr 
 gsave  2268 1630 0 0 C 150.991 985.716 t 0 r /Times-Roman findfont 94.0134 sf 0 0 m (1000) show NC gr 
 gsave  2268 1630 0 0 C 99.7112 985.716 t 0 r /Symbol findfont 94.0134 sf 0 0 m (-) show NC gr 
 gsave  2268 1630 0 0 C 293.436 1304.79 t 0 r /Times-Roman findfont 94.0134 sf 0 0 m (0) show NC gr  2154 277 m 1271 Y s 2101 383 m 53 X s 2128 542 m 26 X s 2101 701 m 53 X s 2128 860 m 26 X s 2101 1019 m 53 X s 2128 1177 m 26 X s 2101 1336 m 53 X s
 2101 383 m 53 X s 2101 1336 m 53 X s 2128 1495 m 26 X s
 gsave  2268 1630 0 0 C 598.267 1316.19 t 0 r /Times-Roman findfont 76.92 sf 0 0 m (SMEFT Run2) show NC gr 
 gsave  2268 1630 0 0 C 1227.87 1324.73 t 0 r /Times-Roman findfont 119.653 sf 0 0 m (GammaCombo) show NC gr  0.6 0.6 0.6 c black 0.6 0.6 0.6 c
 gsave  2268 1630 0 0 C 407.391 330.471 t 0 r /Times-Roman findfont 56.9778 sf 0 0 m (contours hold 68%, 95% CL) show NC gr 
 gr  gr showpage
end
%%EOF
