%!PS-Adobe-2.0 EPSF-2.0
%%BoundingBox:  0 0 567 407
%%Title: plots/eps/HGamEFTScanner_cHW:cHWt_cHWt_cHW_full.eps: EFT Run 2 Scan of cHW:~cHW
%%Creator: ROOT Version 6.08/02
%%CreationDate: Fri Feb 15 18:18:16 2019
%%DocumentNeededResources: ProcSet (FontSetInit)
%%EndComments
%%BeginProlog
80 dict begin
/s {stroke} def /l {lineto} def /m {moveto} def /t {translate} def
/r {rotate} def /rl {roll}  def /R {repeat} def
/d {rlineto} def /rm {rmoveto} def /gr {grestore} def /f {eofill} def
/c {setrgbcolor} def /black {0 setgray} def /sd {setdash} def
/cl {closepath} def /sf {scalefont setfont} def /lw {setlinewidth} def
/box {m dup 0 exch d exch 0 d 0 exch neg d cl} def
/NC{systemdict begin initclip end}def/C{NC box clip newpath}def
/bl {box s} def /bf {gsave box gsave f grestore 1 lw [] 0 sd s grestore} def /Y { 0 exch d} def /X { 0 d} def 
/K {{pop pop 0 moveto} exch kshow} bind def
/ita {/ang 15 def gsave [1 0 ang dup sin exch cos div 1 0 0] concat} def 
/mp {newpath /y exch def /x exch def} def
/side {[w .77 mul w .23 mul] .385 w mul sd w 0 l currentpoint t -144 r} def
/mr {mp x y w2 0 360 arc} def /m24 {mr s} def /m20 {mr f} def
/mb {mp x y w2 add m w2 neg 0 d 0 w neg d w 0 d 0 w d cl} def
/mt {mp x y w2 add m w2 neg w neg d w 0 d cl} def
/m21 {mb f} def /m25 {mb s} def /m22 {mt f} def /m26{mt s} def
/m23 {mp x y w2 sub m w2 w d w neg 0 d cl f} def
/m27 {mp x y w2 add m w3 neg w2 neg d w3 w2 neg d w3 w2 d cl s} def
/m28 {mp x w2 sub y w2 sub w3 add m w3 0 d  0 w3 neg d w3 0 d 0 w3 d w3 0 d  0 w3 d w3 neg 0 d 0 w3 d w3 neg 0 d 0 w3 neg d w3 neg 0 d cl s } def
/m29 {mp gsave x w2 sub y w2 add w3 sub m currentpoint t 4 {side} repeat cl fill gr} def
/m30 {mp gsave x w2 sub y w2 add w3 sub m currentpoint t 4 {side} repeat cl s gr} def
/m31 {mp x y w2 sub m 0 w d x w2 sub y m w 0 d x w2 sub y w2 add m w w neg d x w2 sub y w2 sub m w w d s} def
/m32 {mp x y w2 sub m w2 w d w neg 0 d cl s} def
/m33 {mp x y w2 add m w3 neg w2 neg d w3 w2 neg d w3 w2 d cl f} def
/m34 {mp x w2 sub y w2 sub w3 add m w3 0 d  0 w3 neg d w3 0 d 0 w3 d w3 0 d  0 w3 d w3 neg 0 d 0 w3 d w3 neg 0 d 0 w3 neg d w3 neg 0 d cl f } def
/m2 {mp x y w2 sub m 0 w d x w2 sub y m w 0 d s} def
/m5 {mp x w2 sub y w2 sub m w w d x w2 sub y w2 add m w w neg d s} def
%%IncludeResource: ProcSet (FontSetInit)
%%IncludeResource: font Times-Roman
%%IncludeResource: font Times-Italic
%%IncludeResource: font Times-Bold
%%IncludeResource: font Times-BoldItalic
%%IncludeResource: font Helvetica
%%IncludeResource: font Helvetica-Oblique
%%IncludeResource: font Helvetica-Bold
%%IncludeResource: font Helvetica-BoldOblique
%%IncludeResource: font Courier
%%IncludeResource: font Courier-Oblique
%%IncludeResource: font Courier-Bold
%%IncludeResource: font Courier-BoldOblique
%%IncludeResource: font Symbol
%%IncludeResource: font ZapfDingbats
/reEncode {exch findfont dup length dict begin {1 index /FID eq  {pop pop} {def} ifelse } forall /Encoding exch def currentdict end dup /FontName get exch definefont pop } def [/Times-Bold /Times-Italic /Times-BoldItalic /Helvetica /Helvetica-Oblique
 /Helvetica-Bold /Helvetica-BoldOblique /Courier /Courier-Oblique /Courier-Bold /Courier-BoldOblique /Times-Roman /AvantGarde-Book /AvantGarde-BookOblique /AvantGarde-Demi /AvantGarde-DemiOblique /Bookman-Demi /Bookman-DemiItalic /Bookman-Light
 /Bookman-LightItalic /Helvetica-Narrow /Helvetica-Narrow-Bold /Helvetica-Narrow-BoldOblique /Helvetica-Narrow-Oblique /NewCenturySchlbk-Roman /NewCenturySchlbk-Bold /NewCenturySchlbk-BoldItalic /NewCenturySchlbk-Italic /Palatino-Bold
 /Palatino-BoldItalic /Palatino-Italic /Palatino-Roman ] {ISOLatin1Encoding reEncode } forall
%%EndProlog
%%BeginSetup
%%EndSetup
newpath  gsave  .25 .25 scale  gsave  0 0 t black[  ] 0 sd 3 lw 1 1 1 c 2268 1630 0 0 bf black 1 1 1 c 1701 1304 227 163 bf black 1701 1304 227 163 bl 1 1 1 c 1701 1304 227 163 bf black 1701 1304 227 163 bl 1 1 1 c 0.977 0.977044 0.0583656 c 170 130
 227 163 bf 170 130 397 163 bf 170 130 567 163 bf 170 130 737 163 bf 170 130 907 163 bf 170 130 1077 163 bf 170 130 1247 163 bf 170 130 1417 163 bf 170 130 1587 163 bf 171 130 1757 163 bf 170 131 227 293 bf 170 131 397 293 bf 170 131 567 293 bf 170
 131 737 293 bf 170 131 907 293 bf 170 131 1077 293 bf 170 131 1247 293 bf 170 131 1417 293 bf 170 131 1587 293 bf 171 131 1757 293 bf 170 130 227 424 bf 170 130 397 424 bf 170 130 567 424 bf 170 130 737 424 bf 170 130 907 424 bf 170 130 1077 424 bf
 170 130 1247 424 bf 170 130 1417 424 bf 170 130 1587 424 bf 171 130 1757 424 bf 170 130 227 554 bf 170 130 397 554 bf 170 130 567 554 bf 170 130 737 554 bf 170 130 907 554 bf 170 130 1077 554 bf 170 130 1247 554 bf 170 130 1417 554 bf 170 130 1587
 554 bf 171 130 1757 554 bf 170 131 227 684 bf 170 131 397 684 bf 0.256741 0.724669 0.603934 c 170 131 567 684 bf 0.067725 0.529938 0.829669 c 170 131 737 684 bf 0.0644875 0.400456 0.859991 c 170 131 907 684 bf 170 131 1077 684 bf 0.067725 0.529938
 0.829669 c 170 131 1247 684 bf 0.256741 0.724669 0.603934 c 170 131 1417 684 bf 0.829663 0.736138 0.340331 c 170 131 1587 684 bf 0.9896 0.847763 0.152144 c 171 131 1757 684 bf 0.977 0.977044 0.0583656 c 170 130 227 815 bf 170 130 397 815 bf
 0.0526375 0.656131 0.763481 c 170 130 567 815 bf 0.0609625 0.373419 0.865597 c 170 130 737 815 bf 0.198587 0.178884 0.551177 c 170 130 907 815 bf 170 130 1077 815 bf 0.0609625 0.373419 0.865597 c 170 130 1247 815 bf 0.0526375 0.656131 0.763481 c 170
 130 1417 815 bf 0.620256 0.744075 0.429856 c 170 130 1587 815 bf 0.962412 0.776187 0.225506 c 171 130 1757 815 bf 0.977 0.977044 0.0583656 c 170 131 227 945 bf 170 131 397 945 bf 0.9896 0.847763 0.152144 c 170 131 567 945 bf 0.979006 0.781194
 0.211153 c 170 131 737 945 bf 0.934756 0.767844 0.249428 c 170 131 907 945 bf 170 131 1077 945 bf 0.979006 0.781194 0.211153 c 170 131 1247 945 bf 0.9896 0.847763 0.152144 c 170 131 1417 945 bf 0.98 0.946262 0.0806938 c 170 131 1587 945 bf 0.977
 0.977044 0.0583656 c 171 131 1757 945 bf 170 130 227 1076 bf 170 130 397 1076 bf 170 130 567 1076 bf 170 130 737 1076 bf 170 130 907 1076 bf 170 130 1077 1076 bf 170 130 1247 1076 bf 170 130 1417 1076 bf 170 130 1587 1076 bf 171 130 1757 1076 bf 170
 130 227 1206 bf 170 130 397 1206 bf 170 130 567 1206 bf 170 130 737 1206 bf 170 130 907 1206 bf 170 130 1077 1206 bf 170 130 1247 1206 bf 170 130 1417 1206 bf 170 130 1587 1206 bf 171 130 1757 1206 bf 170 131 227 1336 bf 170 131 397 1336 bf 170 131
 567 1336 bf 170 131 737 1336 bf 170 131 907 1336 bf 170 131 1077 1336 bf 170 131 1247 1336 bf 170 131 1417 1336 bf 170 131 1587 1336 bf 171 131 1757 1336 bf 1 1 1 c black 227 163 m 1701 X s
 gsave  2268 1630 0 0 C 1868.87 37.0356 t 0 r /Helvetica findfont 34.1867 sf 0 0 m (HW) show NC gr 
 gsave  2268 1630 0 0 C 1843.23 56.9778 t 0 r /Helvetica findfont 54.1289 sf 0 0 m (c) show NC gr 
 gsave  2268 1630 0 0 C 1854.63 82.6178 t 0 r  -15 0 t /Helvetica findfont 54.1289 sf 0 0 m (~) show NC gr  227 200 m -37 Y s 261 181 m -18 Y s 295 181 m -18 Y s 329 181 m -18 Y s 363 181 m -18 Y s 397 200 m -37 Y s 431 181 m -18 Y s 465 181 m -18 Y
 s 499 181 m -18 Y s 533 181 m -18 Y s 567 200 m -37 Y s 601 181 m -18 Y s 635 181 m -18 Y s 669 181 m -18 Y s 703 181 m -18 Y s 737 200 m -37 Y s 771 181 m -18 Y s 805 181 m -18 Y s 839 181 m -18 Y s 873 181 m -18 Y s 907 200 m -37 Y s 941 181 m -18
 Y s 975 181 m -18 Y s 1009 181 m -18 Y s 1043 181 m -18 Y s 1077 200 m -37 Y s 1111 181 m -18 Y s 1145 181 m -18 Y s 1179 181 m -18 Y s 1213 181 m -18 Y s 1247 200 m -37 Y s 1281 181 m -18 Y s 1315 181 m -18 Y s 1349 181 m -18 Y s 1383 181 m -18 Y s
 1417 200 m -37 Y s 1451 181 m -18 Y s 1485 181 m -18 Y s 1519 181 m -18 Y s 1553 181 m -18 Y s 1587 200 m -37 Y s 1621 181 m -18 Y s 1655 181 m -18 Y s 1689 181 m -18 Y s 1723 181 m -18 Y s 1757 200 m -37 Y s 1791 181 m -18 Y s 1826 181 m -18 Y s
 1860 181 m -18 Y s 1894 181 m -18 Y s 1928 200 m -37 Y s 227 200 m -37 Y s
 gsave  2268 1630 0 0 C 202.271 111.107 t 0 r /Helvetica findfont 54.1289 sf 0 0 m (0.5) show NC gr 
 gsave  2268 1630 0 0 C 170.933 111.107 t 0 r /Symbol findfont 54.1289 sf 0 0 m (-) show NC gr 
 gsave  2268 1630 0 0 C 373.205 111.107 t 0 r /Helvetica findfont 54.1289 sf 0 0 m (0.4) show NC gr 
 gsave  2268 1630 0 0 C 341.867 111.107 t 0 r /Symbol findfont 54.1289 sf 0 0 m (-) show NC gr 
 gsave  2268 1630 0 0 C 544.138 111.107 t 0 r /Helvetica findfont 54.1289 sf 0 0 m (0.3) show NC gr 
 gsave  2268 1630 0 0 C 512.8 111.107 t 0 r /Symbol findfont 54.1289 sf 0 0 m (-) show NC gr 
 gsave  2268 1630 0 0 C 712.223 111.107 t 0 r /Helvetica findfont 54.1289 sf 0 0 m (0.2) show NC gr 
 gsave  2268 1630 0 0 C 680.885 111.107 t 0 r /Symbol findfont 54.1289 sf 0 0 m (-) show NC gr 
 gsave  2268 1630 0 0 C 886.005 111.107 t 0 r /Helvetica findfont 54.1289 sf 0 0 m (0.1) show NC gr 
 gsave  2268 1630 0 0 C 857.516 111.107 t 0 r /Symbol findfont 54.1289 sf 0 0 m (-) show NC gr 
 gsave  2268 1630 0 0 C 1062.64 111.107 t 0 r /Helvetica findfont 54.1289 sf 0 0 m (0) show NC gr 
 gsave  2268 1630 0 0 C 1210.78 111.107 t 0 r /Helvetica findfont 54.1289 sf 0 0 m (0.1) show NC gr 
 gsave  2268 1630 0 0 C 1378.86 111.107 t 0 r /Helvetica findfont 54.1289 sf 0 0 m (0.2) show NC gr 
 gsave  2268 1630 0 0 C 1549.8 111.107 t 0 r /Helvetica findfont 54.1289 sf 0 0 m (0.3) show NC gr 
 gsave  2268 1630 0 0 C 1717.88 111.107 t 0 r /Helvetica findfont 54.1289 sf 0 0 m (0.4) show NC gr 
 gsave  2268 1630 0 0 C 1888.81 111.107 t 0 r /Helvetica findfont 54.1289 sf 0 0 m (0.5) show NC gr  227 163 m 1304 Y s
 gsave  2268 1630 0 0 C 136.747 1410.2 t 90 r /Helvetica findfont 34.1867 sf 0 0 m (HW) show NC gr 
 gsave  2268 1630 0 0 C 116.804 1384.56 t 90 r /Helvetica findfont 54.1289 sf 0 0 m (c) show NC gr  83 1385 m 25 Y s 281 163 m -54 X s 254 189 m -27 X s 254 215 m -27 X s 254 241 m -27 X s 254 267 m -27 X s 281 293 m -54 X s 254 319 m -27 X s 254 345
 m -27 X s 254 372 m -27 X s 254 398 m -27 X s 281 424 m -54 X s 254 450 m -27 X s 254 476 m -27 X s 254 502 m -27 X s 254 528 m -27 X s 281 554 m -54 X s 254 580 m -27 X s 254 606 m -27 X s 254 632 m -27 X s 254 658 m -27 X s 281 684 m -54 X s 254
 710 m -27 X s 254 737 m -27 X s 254 763 m -27 X s 254 789 m -27 X s 281 815 m -54 X s 254 841 m -27 X s 254 867 m -27 X s 254 893 m -27 X s 254 919 m -27 X s 281 945 m -54 X s 254 971 m -27 X s 254 997 m -27 X s 254 1023 m -27 X s 254 1049 m -27 X s
 281 1076 m -54 X s 254 1102 m -27 X s 254 1128 m -27 X s 254 1154 m -27 X s 254 1180 m -27 X s 281 1206 m -54 X s 254 1232 m -27 X s 254 1258 m -27 X s 254 1284 m -27 X s 254 1310 m -27 X s 281 1336 m -54 X s 254 1362 m -27 X s 254 1388 m -27 X s
 254 1414 m -27 X s 254 1441 m -27 X s 281 1467 m -54 X s 281 163 m -54 X s
 gsave  2268 1630 0 0 C 128.2 145.293 t 0 r /Helvetica findfont 54.1289 sf 0 0 m (0.5) show NC gr 
 gsave  2268 1630 0 0 C 96.8623 145.293 t 0 r /Symbol findfont 54.1289 sf 0 0 m (-) show NC gr 
 gsave  2268 1630 0 0 C 128.2 273.493 t 0 r /Helvetica findfont 54.1289 sf 0 0 m (0.4) show NC gr 
 gsave  2268 1630 0 0 C 96.8623 273.493 t 0 r /Symbol findfont 54.1289 sf 0 0 m (-) show NC gr 
 gsave  2268 1630 0 0 C 128.2 404.542 t 0 r /Helvetica findfont 54.1289 sf 0 0 m (0.3) show NC gr 
 gsave  2268 1630 0 0 C 96.8623 404.542 t 0 r /Symbol findfont 54.1289 sf 0 0 m (-) show NC gr 
 gsave  2268 1630 0 0 C 128.2 535.591 t 0 r /Helvetica findfont 54.1289 sf 0 0 m (0.2) show NC gr 
 gsave  2268 1630 0 0 C 96.8623 535.591 t 0 r /Symbol findfont 54.1289 sf 0 0 m (-) show NC gr 
 gsave  2268 1630 0 0 C 136.747 666.64 t 0 r /Helvetica findfont 54.1289 sf 0 0 m (0.1) show NC gr 
 gsave  2268 1630 0 0 C 105.409 666.64 t 0 r /Symbol findfont 54.1289 sf 0 0 m (-) show NC gr 
 gsave  2268 1630 0 0 C 173.782 794.84 t 0 r /Helvetica findfont 54.1289 sf 0 0 m (0) show NC gr 
 gsave  2268 1630 0 0 C 136.747 925.889 t 0 r /Helvetica findfont 54.1289 sf 0 0 m (0.1) show NC gr 
 gsave  2268 1630 0 0 C 128.2 1056.94 t 0 r /Helvetica findfont 54.1289 sf 0 0 m (0.2) show NC gr 
 gsave  2268 1630 0 0 C 128.2 1187.99 t 0 r /Helvetica findfont 54.1289 sf 0 0 m (0.3) show NC gr 
 gsave  2268 1630 0 0 C 128.2 1319.04 t 0 r /Helvetica findfont 54.1289 sf 0 0 m (0.4) show NC gr 
 gsave  2268 1630 0 0 C 128.2 1447.24 t 0 r /Helvetica findfont 54.1289 sf 0 0 m (0.5) show NC gr  0.198587 0.178884 0.551177 c 102 14 1939 163 bf 0.184168 0.19761 0.583994 c 102 13 1939 177 bf 0.169748 0.216335 0.61681 c 102 14 1939 190 bf 0.160135
 0.228819 0.638687 c 102 14 1939 204 bf 0.145716 0.247545 0.671503 c 102 14 1939 218 bf 0.131297 0.266271 0.704319 c 102 13 1939 232 bf 0.121684 0.278755 0.726197 c 102 14 1939 245 bf 0.107265 0.297481 0.759013 c 102 14 1939 259 bf 0.0928452 0.316206
 0.791829 c 102 13 1939 273 bf 0.0832323 0.32869 0.813706 c 102 14 1939 286 bf 0.0688129 0.347416 0.846523 c 102 14 1939 300 bf 0.0597875 0.364406 0.867466 c 102 14 1939 314 bf 0.0609625 0.373419 0.865597 c 102 13 1939 328 bf 0.062725 0.386937
 0.862794 c 102 14 1939 341 bf 0.0644875 0.400456 0.859991 c 102 14 1939 355 bf 0.0656625 0.409469 0.858122 c 102 14 1939 369 bf 0.067425 0.422987 0.855319 c 102 13 1939 383 bf 0.0691875 0.436506 0.852516 c 102 14 1939 396 bf 0.0703625 0.445519
 0.850647 c 102 14 1939 410 bf 0.072125 0.459038 0.847844 c 102 13 1939 424 bf 0.0738875 0.472556 0.845041 c 102 14 1939 437 bf 0.07565 0.486075 0.842237 c 102 14 1939 451 bf 0.076825 0.495088 0.840369 c 102 14 1939 465 bf 0.0762875 0.508406 0.837028
 c 102 13 1939 479 bf 0.07115 0.521325 0.832613 c 102 14 1939 492 bf 0.067725 0.529938 0.829669 c 102 14 1939 506 bf 0.0625875 0.542856 0.825253 c 102 13 1939 520 bf 0.05745 0.555775 0.820837 c 102 14 1939 533 bf 0.054025 0.564388 0.817894 c 102 14
 1939 547 bf 0.0488875 0.577306 0.813478 c 102 14 1939 561 bf 0.04375 0.590225 0.809062 c 102 13 1939 575 bf 0.040325 0.598837 0.806119 c 102 14 1939 588 bf 0.0351875 0.611756 0.801703 c 102 14 1939 602 bf 0.03005 0.624675 0.797288 c 102 14 1939 616
 bf 0.026625 0.633287 0.794344 c 102 13 1939 630 bf 0.0281062 0.644272 0.786747 c 102 14 1939 643 bf 0.042825 0.651388 0.772788 c 102 14 1939 657 bf 0.0526375 0.656131 0.763481 c 102 13 1939 671 bf 0.0673563 0.663247 0.749522 c 102 14 1939 684 bf
 0.082075 0.670362 0.735563 c 102 14 1939 698 bf 0.0967937 0.677478 0.721603 c 102 14 1939 712 bf 0.106606 0.682222 0.712297 c 102 13 1939 726 bf 0.121325 0.689337 0.698337 c 102 14 1939 739 bf 0.136044 0.696453 0.684378 c 102 14 1939 753 bf 0.145856
 0.701197 0.675072 c 102 13 1939 767 bf 0.160575 0.708313 0.661112 c 102 14 1939 780 bf 0.175294 0.715428 0.647153 c 102 14 1939 794 bf 0.191134 0.718781 0.636991 c 102 14 1939 808 bf 0.223937 0.721725 0.620462 c 102 13 1939 822 bf 0.256741 0.724669
 0.603934 c 102 14 1939 835 bf 0.278609 0.726631 0.592916 c 102 14 1939 849 bf 0.311413 0.729575 0.576388 c 102 14 1939 863 bf 0.344216 0.732519 0.559859 c 102 13 1939 877 bf 0.366084 0.734481 0.548841 c 102 14 1939 890 bf 0.398887 0.737425 0.532313
 c 102 14 1939 904 bf 0.431691 0.740369 0.515784 c 102 13 1939 918 bf 0.453559 0.742331 0.504766 c 102 14 1939 931 bf 0.486362 0.745275 0.488238 c 102 14 1939 945 bf 0.519166 0.748219 0.471709 c 102 14 1939 959 bf 0.548131 0.748175 0.458931 c 102 13
 1939 973 bf 0.566163 0.74715 0.451663 c 102 14 1939 986 bf 0.593209 0.745613 0.440759 c 102 14 1939 1000 bf 0.620256 0.744075 0.429856 c 102 13 1939 1014 bf 0.638287 0.74305 0.422588 c 102 14 1939 1027 bf 0.665334 0.741512 0.411684 c 102 14 1939
 1041 bf 0.692381 0.739975 0.400781 c 102 14 1939 1055 bf 0.710413 0.73895 0.393512 c 102 13 1939 1069 bf 0.737459 0.737413 0.382609 c 102 14 1939 1082 bf 0.764506 0.735875 0.371706 c 102 14 1939 1096 bf 0.782538 0.73485 0.364437 c 102 14 1939 1110
 bf 0.809584 0.733312 0.353534 c 102 13 1939 1124 bf 0.829663 0.736138 0.340331 c 102 14 1939 1137 bf 0.840725 0.739475 0.330763 c 102 14 1939 1151 bf 0.857319 0.744481 0.316409 c 102 13 1939 1165 bf 0.873913 0.749488 0.302056 c 102 14 1939 1178 bf
 0.884975 0.752825 0.292488 c 102 14 1939 1192 bf 0.901569 0.757831 0.278134 c 102 14 1939 1206 bf 0.918163 0.762838 0.263781 c 102 13 1939 1220 bf 0.934756 0.767844 0.249428 c 102 14 1939 1233 bf 0.945819 0.771181 0.239859 c 102 14 1939 1247 bf
 0.962412 0.776187 0.225506 c 102 13 1939 1261 bf 0.979006 0.781194 0.211153 c 102 14 1939 1274 bf 0.990069 0.784531 0.201584 c 102 14 1939 1288 bf 0.9944 0.798513 0.187869 c 102 14 1939 1302 bf 0.9926 0.816981 0.174472 c 102 13 1939 1316 bf 0.9914
 0.829294 0.165541 c 102 14 1939 1329 bf 0.9896 0.847763 0.152144 c 102 14 1939 1343 bf 0.9878 0.866231 0.138747 c 102 14 1939 1357 bf 0.9866 0.878544 0.129816 c 102 13 1939 1371 bf 0.9848 0.897012 0.116419 c 102 14 1939 1384 bf 0.983 0.915481
 0.103022 c 102 14 1939 1398 bf 0.9818 0.927794 0.0940906 c 102 13 1939 1412 bf 0.98 0.946262 0.0806938 c 102 14 1939 1425 bf 0.9782 0.964731 0.0672969 c 102 14 1939 1439 bf 0.977 0.977044 0.0583656 c 102 14 1939 1453 bf black 2041 163 m 1304 Y s
 gsave  2268 1630 0 0 C 2162.31 1447.24 t 90 r /Helvetica findfont 34.1867 sf 0 0 m (2) show NC gr 
 gsave  2268 1630 0 0 C 2185.1 1418.75 t 90 r /Symbol findfont 54.1289 sf 0 0 m (c) show NC gr 
 gsave  2268 1630 0 0 C 2185.1 1384.56 t 90 r /Symbol findfont 54.1289 sf 0 0 m (D) show NC gr  1987 344 m 54 X s 1987 605 m 54 X s 1987 865 m 54 X s 1987 1126 m 54 X s 1987 1387 m 54 X s 1987 344 m 54 X s 1987 1387 m 54 X s
 gsave  2268 1630 0 0 C 2051.2 324.773 t 0 r /Helvetica findfont 54.1289 sf 0 0 m (40) show NC gr 
 gsave  2268 1630 0 0 C 2051.2 586.871 t 0 r /Helvetica findfont 54.1289 sf 0 0 m (45) show NC gr 
 gsave  2268 1630 0 0 C 2051.2 846.12 t 0 r /Helvetica findfont 54.1289 sf 0 0 m (50) show NC gr 
 gsave  2268 1630 0 0 C 2051.2 1108.22 t 0 r /Helvetica findfont 54.1289 sf 0 0 m (55) show NC gr 
 gsave  2268 1630 0 0 C 2051.2 1367.47 t 0 r /Helvetica findfont 54.1289 sf 0 0 m (60) show NC gr 
 gr  gr showpage
end
%%EOF
