%!PS-Adobe-2.0 EPSF-2.0
%%BoundingBox:  0 0 567 407
%%Title: plots/eps/HGamEFTScanner_2dscan_linear_quad_obs_final_cHWB:cHWBt_cHWB_cHWBt.eps: SMEFT Run2
%%Creator: ROOT Version 6.08/02
%%CreationDate: Thu Jul 22 11:25:18 2021
%%DocumentNeededResources: ProcSet (FontSetInit)
%%EndComments
%%BeginProlog
80 dict begin
/s {stroke} def /l {lineto} def /m {moveto} def /t {translate} def
/r {rotate} def /rl {roll}  def /R {repeat} def
/d {rlineto} def /rm {rmoveto} def /gr {grestore} def /f {eofill} def
/c {setrgbcolor} def /black {0 setgray} def /sd {setdash} def
/cl {closepath} def /sf {scalefont setfont} def /lw {setlinewidth} def
/box {m dup 0 exch d exch 0 d 0 exch neg d cl} def
/NC{systemdict begin initclip end}def/C{NC box clip newpath}def
/bl {box s} def /bf {gsave box gsave f grestore 1 lw [] 0 sd s grestore} def /Y { 0 exch d} def /X { 0 d} def 
/K {{pop pop 0 moveto} exch kshow} bind def
/ita {/ang 15 def gsave [1 0 ang dup sin exch cos div 1 0 0] concat} def 
/mp {newpath /y exch def /x exch def} def
/side {[w .77 mul w .23 mul] .385 w mul sd w 0 l currentpoint t -144 r} def
/mr {mp x y w2 0 360 arc} def /m24 {mr s} def /m20 {mr f} def
/mb {mp x y w2 add m w2 neg 0 d 0 w neg d w 0 d 0 w d cl} def
/mt {mp x y w2 add m w2 neg w neg d w 0 d cl} def
/m21 {mb f} def /m25 {mb s} def /m22 {mt f} def /m26{mt s} def
/m23 {mp x y w2 sub m w2 w d w neg 0 d cl f} def
/m27 {mp x y w2 add m w3 neg w2 neg d w3 w2 neg d w3 w2 d cl s} def
/m28 {mp x w2 sub y w2 sub w3 add m w3 0 d  0 w3 neg d w3 0 d 0 w3 d w3 0 d  0 w3 d w3 neg 0 d 0 w3 d w3 neg 0 d 0 w3 neg d w3 neg 0 d cl s } def
/m29 {mp gsave x w2 sub y w2 add w3 sub m currentpoint t 4 {side} repeat cl fill gr} def
/m30 {mp gsave x w2 sub y w2 add w3 sub m currentpoint t 4 {side} repeat cl s gr} def
/m31 {mp x y w2 sub m 0 w d x w2 sub y m w 0 d x w2 sub y w2 add m w w neg d x w2 sub y w2 sub m w w d s} def
/m32 {mp x y w2 sub m w2 w d w neg 0 d cl s} def
/m33 {mp x y w2 add m w3 neg w2 neg d w3 w2 neg d w3 w2 d cl f} def
/m34 {mp x w2 sub y w2 sub w3 add m w3 0 d  0 w3 neg d w3 0 d 0 w3 d w3 0 d  0 w3 d w3 neg 0 d 0 w3 d w3 neg 0 d 0 w3 neg d w3 neg 0 d cl f } def
/m2 {mp x y w2 sub m 0 w d x w2 sub y m w 0 d s} def
/m5 {mp x w2 sub y w2 sub m w w d x w2 sub y w2 add m w w neg d s} def
%%IncludeResource: ProcSet (FontSetInit)
%%IncludeResource: font Times-Roman
%%IncludeResource: font Times-Italic
%%IncludeResource: font Times-Bold
%%IncludeResource: font Times-BoldItalic
%%IncludeResource: font Helvetica
%%IncludeResource: font Helvetica-Oblique
%%IncludeResource: font Helvetica-Bold
%%IncludeResource: font Helvetica-BoldOblique
%%IncludeResource: font Courier
%%IncludeResource: font Courier-Oblique
%%IncludeResource: font Courier-Bold
%%IncludeResource: font Courier-BoldOblique
%%IncludeResource: font Symbol
%%IncludeResource: font ZapfDingbats
/reEncode {exch findfont dup length dict begin {1 index /FID eq  {pop pop} {def} ifelse } forall /Encoding exch def currentdict end dup /FontName get exch definefont pop } def [/Times-Bold /Times-Italic /Times-BoldItalic /Helvetica /Helvetica-Oblique
 /Helvetica-Bold /Helvetica-BoldOblique /Courier /Courier-Oblique /Courier-Bold /Courier-BoldOblique /Times-Roman /AvantGarde-Book /AvantGarde-BookOblique /AvantGarde-Demi /AvantGarde-DemiOblique /Bookman-Demi /Bookman-DemiItalic /Bookman-Light
 /Bookman-LightItalic /Helvetica-Narrow /Helvetica-Narrow-Bold /Helvetica-Narrow-BoldOblique /Helvetica-Narrow-Oblique /NewCenturySchlbk-Roman /NewCenturySchlbk-Bold /NewCenturySchlbk-BoldItalic /NewCenturySchlbk-Italic /Palatino-Bold
 /Palatino-BoldItalic /Palatino-Italic /Palatino-Roman ] {ISOLatin1Encoding reEncode } forall
%%EndProlog
%%BeginSetup
%%EndSetup
newpath  gsave  .25 .25 scale  gsave  0 0 t black[  ] 0 sd 3 lw 1 1 1 c 2268 1630 0 0 bf black 1 1 1 c 1791 1271 363 277 bf black 1791 1271 363 277 bl 1 1 1 c 1791 1271 363 277 bf black 1791 1271 363 277 bl 363 277 m 1791 X s
 gsave  2268 1630 0 0 C 1979.98 25.64 t 0 r /Times-Italic findfont 79.7689 sf 0 0 m (HWB) show NC gr 
 gsave  2268 1630 0 0 C 1903.06 59.8267 t 0 r /Times-Roman findfont 119.653 sf 0 0 m (C) show NC gr  6 lw 1903 151 m 77 X s 3 lw 363 277 m 1271 Y s
 gsave  2268 1630 0 0 C 170.933 1367.47 t 90 r /Times-Roman findfont 79.7689 sf 0 0 m (HWB) show NC gr 
 gsave  2268 1630 0 0 C 136.747 1290.55 t 90 r /Times-Roman findfont 119.653 sf 0 0 m (C) show NC gr 
 gsave  2268 1630 0 0 C 68.3734 1330.43 t 90 r  -32 0 t /Times-Roman findfont 119.653 sf 0 0 m (~) show NC gr  0.827451 0.913725 1 c black 0.827451 0.913725 1 c 744 740 m -9 18 d -1 2 d -5 16 d -6 19 d -5 18 d -5 18 d -5 18 d -2 18 d -1 18 d -1 18 d
 19 Y 1 18 d 1 18 d 2 18 d 5 18 d 5 18 d 5 19 d 6 18 d 5 16 d 1 2 d 9 18 d 9 18 d 7 13 d 3 5 d 12 19 d 10 16 d 2 2 d 15 18 d 9 12 d 6 6 d 16 18 d 3 3 d 17 15 d 9 9 d 12 9 d 13 12 d 10 7 d 16 11 d 10 7 d 16 10 d 13 8 d 12 7 d 22 11 d 4 2 d 25 12 d 11
 4 d 15 6 d 26 10 d 8 2 d 17 5 d 26 7 d 23 7 d 2 X 26 4 d 26 4 d 25 3 d 26 3 d 25 1 d 26 1 d 26 -1 d 25 -2 d 26 -2 d 25 -3 d 26 -4 d 23 -4 d 3 -1 d 25 -7 d 26 -7 d 12 -4 d 13 -4 d 26 -10 d 10 -4 d 15 -7 d 26 -11 d 26 -14 d 7 -4 d 18 -11 d 11 -7 d 15
 -10 d 11 -8 d 14 -11 d 9 -8 d 17 -13 d 5 -5 d 19 -18 d 2 -1 d 14 -17 d 11 -12 d 5 -6 d 14 -18 d 7 -9 d 6 -9 d 11 -19 d 8 -13 d 3 -5 d 8 -18 d 8 -18 d 7 -14 d 1 -4 d 6 -18 d 4 -19 d 5 -18 d 4 -18 d 3 -18 d 2 -18 d 1 -13 d -29 Y -1 -13 d -2 -18 d -3
 -18 d -4 -18 d -5 -18 d -4 -18 d -6 -19 d -1 -4 d -7 -14 d -8 -18 d -8 -18 d -3 -5 d -8 -13 d -11 -18 d -6 -10 d -7 -9 d -14 -18 d -5 -6 d -11 -12 d -14 -17 d -2 -1 d -19 -18 d -5 -5 d -17 -13 d -9 -8 d -14 -11 d -11 -8 d -15 -10 d -11 -7 d -18 -11
 d -7 -4 d -26 -14 d -26 -11 d -15 -7 d -10 -4 d -26 -10 d -13 -4 d -12 -4 d -26 -7 d -25 -7 d -3 X -23 -5 d -26 -3 d -25 -4 d -26 -2 d -25 -2 d -26 -1 d -26 1 d -25 1 d -26 3 d -25 3 d -26 4 d -26 4 d -2 1 d -23 6 d -26 7 d -17 5 d -8 3 d -26 9 d
 -15 6 d -11 4 d -25 12 d -4 2 d -22 12 d -12 6 d -13 8 d -16 10 d -10 7 d -16 11 d -10 7 d -13 12 d -12 9 d -9 9 d -17 15 d -3 3 d -16 18 d -6 6 d -9 12 d -15 18 d -2 2 d -10 17 d -12 18 d -3 5 d -7 13 d -9 18 d 111 36 d 7 -12 d 3 -6 d 10 -18 d 12
 -17 d 1 -1 d 13 -18 d 12 -14 d 4 -4 d 18 -19 d 4 -3 d 16 -15 d 9 -7 d 14 -11 d 12 -8 d 15 -10 d 10 -6 d 22 -12 d 4 -2 d 26 -13 d 8 -3 d 17 -8 d 26 -8 d 7 -3 d 18 -5 d 26 -7 d 26 -4 d 9 -2 d 16 -2 d 26 -3 d 25 -2 d 26 X 26 1 d 25 2 d 26 3 d 7 1 d 18
 3 d 26 5 d 26 7 d 8 3 d 17 6 d 26 9 d 7 4 d 18 7 d 21 11 d 5 3 d 25 15 d 1 X 25 17 d 2 1 d 23 18 d 1 1 d 19 17 d 6 6 d 13 13 d 13 16 d 2 2 d 14 18 d 9 15 d 3 3 d 11 18 d 9 18 d 3 8 d 5 11 d 7 18 d 6 18 d 4 18 d 3 18 d 1 10 d 1 8 d 1 18 d 19 Y -1 18
 d -1 8 d -1 10 d -3 18 d -4 18 d -6 18 d -7 19 d -5 10 d -3 8 d -9 18 d -11 18 d -3 4 d -9 14 d -14 18 d -2 3 d -13 16 d -13 12 d -6 6 d -19 17 d -1 1 d -23 18 d -2 1 d -25 17 d -1 X -25 16 d -6 2 d -20 11 d -18 7 d -7 4 d -26 10 d -17 5 d -8 3 d
 -26 7 d -26 5 d -19 3 d -6 1 d -26 3 d -25 2 d -26 1 d -26 X -25 -2 d -26 -3 d -16 -2 d -9 -2 d -26 -4 d -26 -7 d -18 -5 d -7 -2 d -26 -9 d -17 -8 d -8 -3 d -26 -12 d -4 -3 d -22 -11 d -10 -7 d -15 -10 d -12 -8 d -14 -11 d -9 -7 d -16 -15 d -4 -3 d
 -18 -18 d -4 -5 d -12 -14 d -13 -18 d -1 -1 d -12 -17 d -10 -18 d -3 -6 d -7 -12 d -8 -18 d -6 -19 d -5 -15 d -3 Y -5 -18 d -4 -18 d -2 -18 d -1 -18 d -19 Y 1 -18 d 2 -18 d 4 -18 d 4 -18 d 1 -2 d 5 -16 d 6 -18 d 8 -19 d f 0.35 0.33 0.85 c 6 lw
 0.884975 0.752825 0.292488 c black 0.35 0.33 0.85 c 1451 1375 m 25 -7 d 26 -7 d 12 -4 d 13 -4 d 26 -10 d 10 -4 d 15 -7 d 26 -11 d 26 -14 d 7 -4 d 18 -11 d 11 -7 d 15 -10 d 11 -8 d 14 -11 d 9 -8 d 17 -13 d 5 -5 d 19 -18 d 2 -1 d 14 -17 d 11 -12 d 5
 -6 d 14 -18 d 7 -9 d 6 -9 d 11 -19 d 8 -13 d 3 -5 d 8 -18 d 8 -18 d 7 -14 d 1 -4 d 6 -18 d 4 -19 d 5 -18 d 4 -18 d 3 -18 d 2 -18 d 1 -13 d -29 Y -1 -13 d -2 -18 d -3 -18 d -4 -18 d -5 -18 d -4 -18 d -6 -19 d -1 -4 d -7 -14 d -8 -18 d -8 -18 d -3 -5
 d -8 -13 d -11 -18 d -6 -10 d -7 -9 d -14 -18 d -5 -6 d -11 -12 d -14 -17 d -2 -1 d -19 -18 d -5 -5 d -17 -13 d -9 -8 d -14 -11 d -11 -8 d -15 -10 d -11 -7 d -18 -11 d -7 -4 d -26 -14 d -26 -11 d -15 -7 d -10 -4 d -26 -10 d -13 -4 d -12 -4 d -26 -7
 d -25 -7 d -3 X -23 -5 d -26 -3 d -25 -4 d -26 -2 d -25 -2 d -26 -1 d -26 1 d -25 1 d -26 3 d -25 3 d -26 4 d -26 4 d -2 1 d -23 6 d -26 7 d -17 5 d -8 3 d -26 9 d -15 6 d -11 4 d -25 12 d -4 2 d -22 12 d -12 6 d -13 8 d -16 10 d -10 7 d -16 11 d
 -10 7 d -13 12 d -12 9 d -9 9 d -17 15 d -3 3 d -16 18 d -6 6 d -9 12 d -15 18 d -2 2 d -10 17 d -12 18 d -3 5 d -7 13 d -9 18 d -9 18 d -1 2 d -5 16 d -6 19 d -5 18 d -5 18 d -5 18 d -2 18 d -1 18 d -1 18 d 19 Y 1 18 d 1 18 d 2 18 d 5 18 d 5 18 d 5
 19 d 6 18 d 5 16 d 1 2 d 9 18 d 9 18 d 7 13 d 3 5 d 12 19 d 10 16 d 2 2 d 15 18 d 9 12 d 6 6 d 16 18 d 3 3 d 17 15 d 9 9 d 12 9 d 13 12 d 10 7 d 16 11 d 10 7 d 16 10 d 13 8 d 12 7 d 22 11 d 4 2 d 25 12 d 11 4 d 15 6 d 26 10 d 8 2 d 17 5 d 26 7 d 23
 7 d 2 X 26 4 d 26 4 d 25 3 d 26 3 d 25 1 d 26 1 d 26 -1 d 25 -2 d 26 -2 d 25 -3 d 26 -4 d 23 -4 d 3 -1 d cl s 0.884975 0.752825 0.292488 c black 0.35 0.33 0.85 c 1374 1286 m -26 3 d -25 2 d -26 1 d -26 X -25 -2 d -26 -3 d -16 -2 d -9 -2 d -26 -4 d
 -26 -7 d -18 -5 d -7 -2 d -26 -9 d -17 -8 d -8 -3 d -26 -12 d -4 -3 d -22 -11 d -10 -7 d -15 -10 d -12 -8 d -14 -11 d -9 -7 d -16 -15 d -4 -3 d -18 -18 d -4 -5 d -12 -14 d -13 -18 d -1 -1 d -12 -17 d -10 -18 d -3 -6 d -7 -12 d -8 -18 d -6 -19 d -5
 -15 d -3 Y -5 -18 d -4 -18 d -2 -18 d -1 -18 d -19 Y 1 -18 d 2 -18 d 4 -18 d 4 -18 d 1 -2 d 5 -16 d 6 -18 d 8 -19 d 7 -12 d 3 -6 d 10 -18 d 12 -17 d 1 -1 d 13 -18 d 12 -14 d 4 -4 d 18 -19 d 4 -3 d 16 -15 d 9 -7 d 14 -11 d 12 -8 d 15 -10 d 10 -6 d 22
 -12 d 4 -2 d 26 -13 d 8 -3 d 17 -8 d 26 -8 d 7 -3 d 18 -5 d 26 -7 d 26 -4 d 9 -2 d 16 -2 d 26 -3 d 25 -2 d 26 X 26 1 d 25 2 d 26 3 d 7 1 d 18 3 d 26 5 d 26 7 d 8 3 d 17 6 d 26 9 d 7 4 d 18 7 d 21 11 d 5 3 d 25 15 d 1 X 25 17 d 2 1 d 23 18 d 1 1 d 19
 17 d 6 6 d 13 13 d 13 16 d 2 2 d 14 18 d 9 15 d 3 3 d 11 18 d 9 18 d 3 8 d 5 11 d 7 18 d 6 18 d 4 18 d 3 18 d 1 10 d 1 8 d 1 18 d 19 Y -1 18 d -1 8 d -1 10 d -3 18 d -4 18 d -6 18 d -7 19 d -5 10 d -3 8 d -9 18 d -11 18 d -3 4 d -9 14 d -14 18 d -2
 3 d -13 16 d -13 12 d -6 6 d -19 17 d -1 1 d -23 18 d -2 1 d -25 17 d -1 X -25 16 d -6 2 d -20 11 d -18 7 d -7 4 d -26 10 d -17 5 d -8 3 d -26 7 d -26 5 d -19 3 d -6 1 d cl s black 3 lw 0.745098 0.905882 0.992157 c black 0.745098 0.905882 0.992157 c
 727 903 m 19 Y 1 18 d 2 18 d 2 18 d 2 16 d 1 2 d 6 18 d 6 19 d 6 18 d 5 18 d 2 3 d 9 15 d 9 18 d 7 15 d 3 3 d 13 19 d 10 15 d 2 3 d 16 18 d 7 9 d 9 9 d 17 18 d 21 18 d 4 4 d 19 14 d 7 6 d 18 13 d 8 5 d 20 13 d 5 3 d 26 14 d 1 1 d 24 10 d 16 8 d 10 4
 d 26 9 d 12 5 d 13 4 d 26 7 d 25 7 d 26 5 d 26 3 d 25 4 d 26 2 d 25 2 d 52 X 25 -2 d 26 -3 d 25 -3 d 26 -4 d 20 -4 d 6 -1 d 25 -8 d 26 -6 d 8 -3 d 17 -7 d 26 -9 d 5 -2 d 20 -10 d 19 -8 d 7 -4 d 26 -14 d 1 X 24 -16 d 4 -2 d 22 -16 d 3 -3 d 22 -17 d 1
 -1 d 19 -18 d 6 -5 d 11 -13 d 15 -14 d 3 -4 d 14 -18 d 8 -10 d 5 -8 d 12 -19 d 9 -12 d 3 -6 d 8 -18 d 9 -18 d 5 -9 d 3 -9 d 6 -18 d 5 -19 d 5 -18 d 4 -18 d 3 -13 d 1 -5 d 1 -18 d 1 -18 d -19 Y -1 -18 d -1 -18 d -1 -5 d -3 -13 d -4 -18 d -5 -18 d -5
 -18 d -6 -19 d -3 -8 d -5 -10 d -9 -18 d -8 -18 d -3 -6 d -9 -12 d -12 -18 d -5 -9 d -8 -10 d -14 -18 d -3 -4 d -15 -14 d -11 -13 d -6 -5 d -19 -18 d -1 -1 d -22 -17 d -3 -3 d -22 -16 d -4 -2 d -24 -16 d -1 X -26 -14 d -7 -4 d -19 -8 d -20 -10 d -5
 -2 d -26 -9 d -17 -7 d -8 -3 d -26 -6 d -25 -8 d -6 -1 d -20 -4 d -26 -4 d -25 -3 d -26 -3 d -25 -2 d -52 X -25 2 d -26 2 d -25 4 d -26 4 d -26 4 d -25 7 d -26 7 d -13 4 d -12 5 d -26 9 d -10 4 d -16 8 d -24 10 d -1 1 d -26 14 d -5 3 d -20 13 d -8 5
 d -18 13 d -7 6 d -19 14 d -4 4 d -21 18 d -17 18 d -9 9 d -7 9 d -16 18 d -2 3 d -10 16 d -13 18 d -3 3 d -7 15 d -9 18 d -9 15 d -2 3 d -5 18 d -6 19 d -6 18 d -6 18 d -1 2 d -2 16 d -2 18 d -2 18 d -1 18 d 69 X 1 -18 d 2 -18 d 3 -18 d 5 -18 d 4
 -9 d 2 -9 d 5 -18 d 7 -19 d 11 -18 d 9 -18 d 11 -18 d 6 -7 d 7 -11 d 15 -18 d 3 -4 d 13 -15 d 13 -12 d 6 -6 d 20 -17 d 1 -1 d 24 -18 d 26 -18 d 1 X 24 -15 d 7 -3 d 19 -11 d 19 -8 d 7 -3 d 25 -10 d 16 -5 d 10 -3 d 25 -8 d 26 -5 d 11 -2 d 15 -3 d 25
 -4 d 26 -3 d 25 -1 d 52 X 25 2 d 26 3 d 25 5 d 6 1 d 20 4 d 26 6 d 25 8 d 26 8 d 23 10 d 2 2 d 26 11 d 10 6 d 15 8 d 17 10 d 9 6 d 18 12 d 8 6 d 16 12 d 9 8 d 12 10 d 14 15 d 3 3 d 17 19 d 5 7 d 10 11 d 12 18 d 4 7 d 8 11 d 10 18 d 8 18 d 1 Y 9 18 d
 6 18 d 5 18 d 3 18 d 2 15 d 1 3 d 3 18 d 1 18 d 19 Y -1 18 d -3 18 d -1 3 d -2 15 d -3 18 d -5 18 d -6 19 d -9 17 d 1 Y -8 18 d -10 18 d -8 11 d -4 7 d -12 18 d -10 11 d -5 8 d -17 18 d -3 3 d -14 15 d -12 10 d -9 8 d -16 12 d -8 6 d -18 13 d -9 5 d
 -17 10 d -15 8 d -10 6 d -26 12 d -2 1 d -23 10 d -26 8 d -25 9 d -26 5 d -20 4 d -6 1 d -25 5 d -26 3 d -25 2 d -26 1 d -26 -1 d -25 -1 d -26 -3 d -25 -4 d -15 -3 d -11 -2 d -26 -5 d -25 -8 d -10 -3 d -16 -5 d -25 -10 d -7 -3 d -19 -8 d -19 -11 d
 -7 -3 d -24 -15 d -1 X -26 -17 d -1 Y -24 -18 d -1 -1 d -20 -17 d -6 -6 d -13 -12 d -13 -15 d -3 -3 d -15 -19 d -7 -11 d -6 -7 d -11 -18 d -9 -17 d -1 Y -11 -18 d -7 -18 d -5 -19 d -2 -9 d -4 -9 d -5 -18 d -3 -18 d -2 -18 d -1 -18 d -19 Y f black
 0.0941176 0.666667 0.905882 c black 0.0941176 0.666667 0.905882 c 1 lw << /PatternType 1 /PaintType 2 /TilingType 1 /BBox [ 0 0 100 100 ] /XStep 100 /YStep 100 /PaintProc { begin gsave 0 100 m 100 0 l s gr end } >> [ 0.24 0 0 0.24 0 0 ] makepattern
 /P05 exch def /cs {[/Pattern /DeviceRGB] setcolorspace} def /FA {f [/DeviceRGB] setcolorspace} def cs 0.0941176 0.666667 0.905882 P05 setcolor 727 903 m 19 Y 1 18 d 2 18 d 2 18 d 2 16 d 1 2 d 6 18 d 6 19 d 6 18 d 5 18 d 2 3 d 9 15 d 9 18 d 7 15 d 3
 3 d 13 19 d 10 15 d 2 3 d 16 18 d 7 9 d 9 9 d 17 18 d 21 18 d 4 4 d 19 14 d 7 6 d 18 13 d 8 5 d 20 13 d 5 3 d 26 14 d 1 1 d 24 10 d 16 8 d 10 4 d 26 9 d 12 5 d 13 4 d 26 7 d 25 7 d 26 5 d 26 3 d 25 4 d 26 2 d 25 2 d 52 X 25 -2 d 26 -3 d 25 -3 d 26
 -4 d 20 -4 d 6 -1 d 25 -8 d 26 -6 d 8 -3 d 17 -7 d 26 -9 d 5 -2 d 20 -10 d 19 -8 d 7 -4 d 26 -14 d 1 X 24 -16 d 4 -2 d 22 -16 d 3 -3 d 22 -17 d 1 -1 d 19 -18 d 6 -5 d 11 -13 d 15 -14 d 3 -4 d 14 -18 d 8 -10 d 5 -8 d 12 -19 d 9 -12 d 3 -6 d 8 -18 d 9
 -18 d 5 -9 d 3 -9 d 6 -18 d 5 -19 d 5 -18 d 4 -18 d 3 -13 d 1 -5 d 1 -18 d 1 -18 d -19 Y -1 -18 d -1 -18 d -1 -5 d -3 -13 d -4 -18 d -5 -18 d -5 -18 d -6 -19 d -3 -8 d -5 -10 d -9 -18 d -8 -18 d -3 -6 d -9 -12 d -12 -18 d -5 -9 d -8 -10 d -14 -18 d
 -3 -4 d -15 -14 d -11 -13 d -6 -5 d -19 -18 d -1 -1 d -22 -17 d -3 -3 d -22 -16 d -4 -2 d -24 -16 d -1 X -26 -14 d -7 -4 d -19 -8 d -20 -10 d -5 -2 d -26 -9 d -17 -7 d -8 -3 d -26 -6 d -25 -8 d -6 -1 d -20 -4 d -26 -4 d -25 -3 d -26 -3 d -25 -2 d
 -52 X -25 2 d -26 2 d -25 4 d -26 4 d -26 4 d -25 7 d -26 7 d -13 4 d -12 5 d -26 9 d -10 4 d -16 8 d -24 10 d -1 1 d -26 14 d -5 3 d -20 13 d -8 5 d -18 13 d -7 6 d -19 14 d -4 4 d -21 18 d -17 18 d -9 9 d -7 9 d -16 18 d -2 3 d -10 16 d -13 18 d
 -3 3 d -7 15 d -9 18 d -9 15 d -2 3 d -5 18 d -6 19 d -6 18 d -6 18 d -1 2 d -2 16 d -2 18 d -2 18 d -1 18 d 69 X 1 -18 d 2 -18 d 3 -18 d 5 -18 d 4 -9 d 2 -9 d 5 -18 d 7 -19 d 11 -18 d 9 -18 d 11 -18 d 6 -7 d 7 -11 d 15 -18 d 3 -4 d 13 -15 d 13 -12
 d 6 -6 d 20 -17 d 1 -1 d 24 -18 d 26 -18 d 1 X 24 -15 d 7 -3 d 19 -11 d 19 -8 d 7 -3 d 25 -10 d 16 -5 d 10 -3 d 25 -8 d 26 -5 d 11 -2 d 15 -3 d 25 -4 d 26 -3 d 25 -1 d 52 X 25 2 d 26 3 d 25 5 d 6 1 d 20 4 d 26 6 d 25 8 d 26 8 d 23 10 d 2 2 d 26 11 d
 10 6 d 15 8 d 17 10 d 9 6 d 18 12 d 8 6 d 16 12 d 9 8 d 12 10 d 14 15 d 3 3 d 17 19 d 5 7 d 10 11 d 12 18 d 4 7 d 8 11 d 10 18 d 8 18 d 1 Y 9 18 d 6 18 d 5 18 d 3 18 d 2 15 d 1 3 d 3 18 d 1 18 d 19 Y -1 18 d -3 18 d -1 3 d -2 15 d -3 18 d -5 18 d -6
 19 d -9 17 d 1 Y -8 18 d -10 18 d -8 11 d -4 7 d -12 18 d -10 11 d -5 8 d -17 18 d -3 3 d -14 15 d -12 10 d -9 8 d -16 12 d -8 6 d -18 13 d -9 5 d -17 10 d -15 8 d -10 6 d -26 12 d -2 1 d -23 10 d -26 8 d -25 9 d -26 5 d -20 4 d -6 1 d -25 5 d -26 3
 d -25 2 d -26 1 d -26 -1 d -25 -1 d -26 -3 d -25 -4 d -15 -3 d -11 -2 d -26 -5 d -25 -8 d -10 -3 d -16 -5 d -25 -10 d -7 -3 d -19 -8 d -19 -11 d -7 -3 d -24 -15 d -1 X -26 -17 d -1 Y -24 -18 d -1 -1 d -20 -17 d -6 -6 d -13 -12 d -13 -15 d -3 -3 d
 -15 -19 d -7 -11 d -6 -7 d -11 -18 d -9 -17 d -1 Y -11 -18 d -7 -18 d -5 -19 d -2 -9 d -4 -9 d -5 -18 d -3 -18 d -2 -18 d -1 -18 d -19 Y FA 3 lw 0.0941176 0.666667 0.905882 c 6 lw 0.977 0.977044 0.0583656 c black 0.0941176 0.666667 0.905882 c 1451
 1356 m 25 -8 d 26 -6 d 8 -3 d 17 -7 d 26 -9 d 5 -2 d 20 -10 d 19 -8 d 7 -4 d 26 -14 d 1 X 24 -16 d 4 -2 d 22 -16 d 3 -3 d 22 -17 d 1 -1 d 19 -18 d 6 -5 d 11 -13 d 15 -14 d 3 -4 d 14 -18 d 8 -10 d 5 -8 d 12 -19 d 9 -12 d 3 -6 d 8 -18 d 9 -18 d 5 -9 d
 3 -9 d 6 -18 d 5 -19 d 5 -18 d 4 -18 d 3 -13 d 1 -5 d 1 -18 d 1 -18 d -19 Y -1 -18 d -1 -18 d -1 -5 d -3 -13 d -4 -18 d -5 -18 d -5 -18 d -6 -19 d -3 -8 d -5 -10 d -9 -18 d -8 -18 d -3 -6 d -9 -12 d -12 -18 d -5 -9 d -8 -10 d -14 -18 d -3 -4 d -15
 -14 d -11 -13 d -6 -5 d -19 -18 d -1 -1 d -22 -17 d -3 -3 d -22 -16 d -4 -2 d -24 -16 d -1 X -26 -14 d -7 -4 d -19 -8 d -20 -10 d -5 -2 d -26 -9 d -17 -7 d -8 -3 d -26 -6 d -25 -8 d -6 -1 d -20 -4 d -26 -4 d -25 -3 d -26 -3 d -25 -2 d -52 X -25 2 d
 -26 2 d -25 4 d -26 4 d -26 4 d -25 7 d -26 7 d -13 4 d -12 5 d -26 9 d -10 4 d -16 8 d -24 10 d -1 1 d -26 14 d -5 3 d -20 13 d -8 5 d -18 13 d -7 6 d -19 14 d -4 4 d -21 18 d -17 18 d -9 9 d -7 9 d -16 18 d -2 3 d -10 16 d -13 18 d -3 3 d -7 15 d
 -9 18 d -9 15 d -2 3 d -5 18 d -6 19 d -6 18 d -6 18 d -1 2 d -2 16 d -2 18 d -2 18 d -1 18 d 19 Y 1 18 d 2 18 d 2 18 d 2 16 d 1 2 d 6 18 d 6 19 d 6 18 d 5 18 d 2 3 d 9 15 d 9 18 d 7 15 d 3 3 d 13 19 d 10 15 d 2 3 d 16 18 d 7 9 d 9 9 d 17 18 d 21 18
 d 4 4 d 19 14 d 7 6 d 18 13 d 8 5 d 20 13 d 5 3 d 26 14 d 1 1 d 24 10 d 16 8 d 10 4 d 26 9 d 12 5 d 13 4 d 26 7 d 25 7 d 26 5 d 26 3 d 25 4 d 26 2 d 25 2 d 52 X 25 -2 d 26 -3 d 25 -3 d 26 -4 d 20 -4 d 6 -1 d cl s 0.977 0.977044 0.0583656 c black
 0.0941176 0.666667 0.905882 c 1399 1304 m -25 5 d -26 3 d -25 2 d -26 1 d -26 -1 d -25 -1 d -26 -3 d -25 -4 d -15 -3 d -11 -2 d -26 -5 d -25 -8 d -10 -3 d -16 -5 d -25 -10 d -7 -3 d -19 -8 d -19 -11 d -7 -3 d -24 -15 d -1 X -26 -17 d -1 Y -24 -18 d
 -1 -1 d -20 -17 d -6 -6 d -13 -12 d -13 -15 d -3 -3 d -15 -19 d -7 -11 d -6 -7 d -11 -18 d -9 -17 d -1 Y -11 -18 d -7 -18 d -5 -19 d -2 -9 d -4 -9 d -5 -18 d -3 -18 d -2 -18 d -1 -18 d -19 Y 1 -18 d 2 -18 d 3 -18 d 5 -18 d 4 -9 d 2 -9 d 5 -18 d 7
 -19 d 11 -18 d 9 -18 d 11 -18 d 6 -7 d 7 -11 d 15 -18 d 3 -4 d 13 -15 d 13 -12 d 6 -6 d 20 -17 d 1 -1 d 24 -18 d 26 -18 d 1 X 24 -15 d 7 -3 d 19 -11 d 19 -8 d 7 -3 d 25 -10 d 16 -5 d 10 -3 d 25 -8 d 26 -5 d 11 -2 d 15 -3 d 25 -4 d 26 -3 d 25 -1 d 52
 X 25 2 d 26 3 d 25 5 d 6 1 d 20 4 d 26 6 d 25 8 d 26 8 d 23 10 d 2 2 d 26 11 d 10 6 d 15 8 d 17 10 d 9 6 d 18 12 d 8 6 d 16 12 d 9 8 d 12 10 d 14 15 d 3 3 d 17 19 d 5 7 d 10 11 d 12 18 d 4 7 d 8 11 d 10 18 d 8 18 d 1 Y 9 18 d 6 18 d 5 18 d 3 18 d 2
 15 d 1 3 d 3 18 d 1 18 d 19 Y -1 18 d -3 18 d -1 3 d -2 15 d -3 18 d -5 18 d -6 19 d -9 17 d 1 Y -8 18 d -10 18 d -8 11 d -4 7 d -12 18 d -10 11 d -5 8 d -17 18 d -3 3 d -14 15 d -12 10 d -9 8 d -16 12 d -8 6 d -18 13 d -9 5 d -17 10 d -15 8 d -10 6
 d -26 12 d -2 1 d -23 10 d -26 8 d -25 9 d -26 5 d -20 4 d -6 1 d cl s 0.35 0.33 0.85 c[ 12 12] 0 sd 0.884975 0.752825 0.292488 c black 0.35 0.33 0.85 c 1451 1375 m 25 -7 d 26 -7 d 12 -4 d 13 -4 d 26 -10 d 10 -4 d 15 -7 d 26 -11 d 26 -14 d 7 -4 d 18
 -11 d 11 -7 d 15 -10 d 11 -8 d 14 -11 d 9 -8 d 17 -13 d 5 -5 d 19 -18 d 2 -1 d 14 -17 d 11 -12 d 5 -6 d 14 -18 d 7 -9 d 6 -9 d 11 -19 d 8 -13 d 3 -5 d 8 -18 d 8 -18 d 7 -14 d 1 -4 d 6 -18 d 4 -19 d 5 -18 d 4 -18 d 3 -18 d 2 -18 d 1 -13 d -29 Y -1
 -13 d -2 -18 d -3 -18 d -4 -18 d -5 -18 d -4 -18 d -6 -19 d -1 -4 d -7 -14 d -8 -18 d -8 -18 d -3 -5 d -8 -13 d -11 -18 d -6 -10 d -7 -9 d -14 -18 d -5 -6 d -11 -12 d -14 -17 d -2 -1 d -19 -18 d -5 -5 d -17 -13 d -9 -8 d -14 -11 d -11 -8 d -15 -10 d
 -11 -7 d -18 -11 d -7 -4 d -26 -14 d -26 -11 d -15 -7 d -10 -4 d -26 -10 d -13 -4 d -12 -4 d -26 -7 d -25 -7 d -3 X -23 -5 d -26 -3 d -25 -4 d -26 -2 d -25 -2 d -26 -1 d -26 1 d -25 1 d -26 3 d -25 3 d -26 4 d -26 4 d -2 1 d -23 6 d -26 7 d -17 5 d
 -8 3 d -26 9 d -15 6 d -11 4 d -25 12 d -4 2 d -22 12 d -12 6 d -13 8 d -16 10 d -10 7 d -16 11 d -10 7 d -13 12 d -12 9 d -9 9 d -17 15 d -3 3 d -16 18 d -6 6 d -9 12 d -15 18 d -2 2 d -10 17 d -12 18 d -3 5 d -7 13 d -9 18 d -9 18 d -1 2 d -5 16 d
 -6 19 d -5 18 d -5 18 d -5 18 d -2 18 d -1 18 d -1 18 d 19 Y 1 18 d 1 18 d 2 18 d 5 18 d 5 18 d 5 19 d 6 18 d 5 16 d 1 2 d 9 18 d 9 18 d 7 13 d 3 5 d 12 19 d 10 16 d 2 2 d 15 18 d 9 12 d 6 6 d 16 18 d 3 3 d 17 15 d 9 9 d 12 9 d 13 12 d 10 7 d 16 11
 d 10 7 d 16 10 d 13 8 d 12 7 d 22 11 d 4 2 d 25 12 d 11 4 d 15 6 d 26 10 d 8 2 d 17 5 d 26 7 d 23 7 d 2 X 26 4 d 26 4 d 25 3 d 26 3 d 25 1 d 26 1 d 26 -1 d 25 -2 d 26 -2 d 25 -3 d 26 -4 d 23 -4 d 3 -1 d cl s 0.884975 0.752825 0.292488 c black 0.35
 0.33 0.85 c 1374 1286 m -26 3 d -25 2 d -26 1 d -26 X -25 -2 d -26 -3 d -16 -2 d -9 -2 d -26 -4 d -26 -7 d -18 -5 d -7 -2 d -26 -9 d -17 -8 d -8 -3 d -26 -12 d -4 -3 d -22 -11 d -10 -7 d -15 -10 d -12 -8 d -14 -11 d -9 -7 d -16 -15 d -4 -3 d -18 -18
 d -4 -5 d -12 -14 d -13 -18 d -1 -1 d -12 -17 d -10 -18 d -3 -6 d -7 -12 d -8 -18 d -6 -19 d -5 -15 d -3 Y -5 -18 d -4 -18 d -2 -18 d -1 -18 d -19 Y 1 -18 d 2 -18 d 4 -18 d 4 -18 d 1 -2 d 5 -16 d 6 -18 d 8 -19 d 7 -12 d 3 -6 d 10 -18 d 12 -17 d 1 -1
 d 13 -18 d 12 -14 d 4 -4 d 18 -19 d 4 -3 d 16 -15 d 9 -7 d 14 -11 d 12 -8 d 15 -10 d 10 -6 d 22 -12 d 4 -2 d 26 -13 d 8 -3 d 17 -8 d 26 -8 d 7 -3 d 18 -5 d 26 -7 d 26 -4 d 9 -2 d 16 -2 d 26 -3 d 25 -2 d 26 X 26 1 d 25 2 d 26 3 d 7 1 d 18 3 d 26 5 d
 26 7 d 8 3 d 17 6 d 26 9 d 7 4 d 18 7 d 21 11 d 5 3 d 25 15 d 1 X 25 17 d 2 1 d 23 18 d 1 1 d 19 17 d 6 6 d 13 13 d 13 16 d 2 2 d 14 18 d 9 15 d 3 3 d 11 18 d 9 18 d 3 8 d 5 11 d 7 18 d 6 18 d 4 18 d 3 18 d 1 10 d 1 8 d 1 18 d 19 Y -1 18 d -1 8 d -1
 10 d -3 18 d -4 18 d -6 18 d -7 19 d -5 10 d -3 8 d -9 18 d -11 18 d -3 4 d -9 14 d -14 18 d -2 3 d -13 16 d -13 12 d -6 6 d -19 17 d -1 1 d -23 18 d -2 1 d -25 17 d -1 X -25 16 d -6 2 d -20 11 d -18 7 d -7 4 d -26 10 d -17 5 d -8 3 d -26 7 d -26 5
 d -19 3 d -6 1 d cl s 0.0941176 0.666667 0.905882 c 0.977 0.977044 0.0583656 c black 0.0941176 0.666667 0.905882 c 1451 1356 m 25 -8 d 26 -6 d 8 -3 d 17 -7 d 26 -9 d 5 -2 d 20 -10 d 19 -8 d 7 -4 d 26 -14 d 1 X 24 -16 d 4 -2 d 22 -16 d 3 -3 d 22 -17
 d 1 -1 d 19 -18 d 6 -5 d 11 -13 d 15 -14 d 3 -4 d 14 -18 d 8 -10 d 5 -8 d 12 -19 d 9 -12 d 3 -6 d 8 -18 d 9 -18 d 5 -9 d 3 -9 d 6 -18 d 5 -19 d 5 -18 d 4 -18 d 3 -13 d 1 -5 d 1 -18 d 1 -18 d -19 Y -1 -18 d -1 -18 d -1 -5 d -3 -13 d -4 -18 d -5 -18 d
 -5 -18 d -6 -19 d -3 -8 d -5 -10 d -9 -18 d -8 -18 d -3 -6 d -9 -12 d -12 -18 d -5 -9 d -8 -10 d -14 -18 d -3 -4 d -15 -14 d -11 -13 d -6 -5 d -19 -18 d -1 -1 d -22 -17 d -3 -3 d -22 -16 d -4 -2 d -24 -16 d -1 X -26 -14 d -7 -4 d -19 -8 d -20 -10 d
 -5 -2 d -26 -9 d -17 -7 d -8 -3 d -26 -6 d -25 -8 d -6 -1 d -20 -4 d -26 -4 d -25 -3 d -26 -3 d -25 -2 d -52 X -25 2 d -26 2 d -25 4 d -26 4 d -26 4 d -25 7 d -26 7 d -13 4 d -12 5 d -26 9 d -10 4 d -16 8 d -24 10 d -1 1 d -26 14 d -5 3 d -20 13 d
 -8 5 d -18 13 d -7 6 d -19 14 d -4 4 d -21 18 d -17 18 d -9 9 d -7 9 d -16 18 d -2 3 d -10 16 d -13 18 d -3 3 d -7 15 d -9 18 d -9 15 d -2 3 d -5 18 d -6 19 d -6 18 d -6 18 d -1 2 d -2 16 d -2 18 d -2 18 d -1 18 d 19 Y 1 18 d 2 18 d 2 18 d 2 16 d 1
 2 d 6 18 d 6 19 d 6 18 d 5 18 d 2 3 d 9 15 d 9 18 d 7 15 d 3 3 d 13 19 d 10 15 d 2 3 d 16 18 d 7 9 d 9 9 d 17 18 d 21 18 d 4 4 d 19 14 d 7 6 d 18 13 d 8 5 d 20 13 d 5 3 d 26 14 d 1 1 d 24 10 d 16 8 d 10 4 d 26 9 d 12 5 d 13 4 d 26 7 d 25 7 d 26 5 d
 26 3 d 25 4 d 26 2 d 25 2 d 52 X 25 -2 d 26 -3 d 25 -3 d 26 -4 d 20 -4 d 6 -1 d cl s 0.977 0.977044 0.0583656 c black 0.0941176 0.666667 0.905882 c 1399 1304 m -25 5 d -26 3 d -25 2 d -26 1 d -26 -1 d -25 -1 d -26 -3 d -25 -4 d -15 -3 d -11 -2 d -26
 -5 d -25 -8 d -10 -3 d -16 -5 d -25 -10 d -7 -3 d -19 -8 d -19 -11 d -7 -3 d -24 -15 d -1 X -26 -17 d -1 Y -24 -18 d -1 -1 d -20 -17 d -6 -6 d -13 -12 d -13 -15 d -3 -3 d -15 -19 d -7 -11 d -6 -7 d -11 -18 d -9 -17 d -1 Y -11 -18 d -7 -18 d -5 -19 d
 -2 -9 d -4 -9 d -5 -18 d -3 -18 d -2 -18 d -1 -18 d -19 Y 1 -18 d 2 -18 d 3 -18 d 5 -18 d 4 -9 d 2 -9 d 5 -18 d 7 -19 d 11 -18 d 9 -18 d 11 -18 d 6 -7 d 7 -11 d 15 -18 d 3 -4 d 13 -15 d 13 -12 d 6 -6 d 20 -17 d 1 -1 d 24 -18 d 26 -18 d 1 X 24 -15 d
 7 -3 d 19 -11 d 19 -8 d 7 -3 d 25 -10 d 16 -5 d 10 -3 d 25 -8 d 26 -5 d 11 -2 d 15 -3 d 25 -4 d 26 -3 d 25 -1 d 52 X 25 2 d 26 3 d 25 5 d 6 1 d 20 4 d 26 6 d 25 8 d 26 8 d 23 10 d 2 2 d 26 11 d 10 6 d 15 8 d 17 10 d 9 6 d 18 12 d 8 6 d 16 12 d 9 8 d
 12 10 d 14 15 d 3 3 d 17 19 d 5 7 d 10 11 d 12 18 d 4 7 d 8 11 d 10 18 d 8 18 d 1 Y 9 18 d 6 18 d 5 18 d 3 18 d 2 15 d 1 3 d 3 18 d 1 18 d 19 Y -1 18 d -3 18 d -1 3 d -2 15 d -3 18 d -5 18 d -6 19 d -9 17 d 1 Y -8 18 d -10 18 d -8 11 d -4 7 d -12 18
 d -10 11 d -5 8 d -17 18 d -3 3 d -14 15 d -12 10 d -9 8 d -16 12 d -8 6 d -18 13 d -9 5 d -17 10 d -15 8 d -10 6 d -26 12 d -2 1 d -23 10 d -26 8 d -25 9 d -26 5 d -20 4 d -6 1 d cl s black[  ] 0 sd 3 lw 363 1548 m 1791 X s 699 1509 m 39 Y s 979
 1529 m 19 Y s 1259 1509 m 39 Y s 1539 1529 m 19 Y s 1818 1509 m 39 Y s 699 1509 m 39 Y s 419 1529 m 19 Y s 1818 1509 m 39 Y s 2098 1529 m 19 Y s 363 277 m 1791 X s 699 316 m -39 Y s 979 296 m -19 Y s 1259 316 m -39 Y s 1539 296 m -19 Y s 1818 316 m
 -39 Y s 699 316 m -39 Y s 419 296 m -19 Y s 1818 316 m -39 Y s 2098 296 m -19 Y s
 gsave  2268 1630 0 0 C 643.849 190.876 t 0 r /Times-Roman findfont 94.0134 sf 0 0 m (0.01) show NC gr 
 gsave  2268 1630 0 0 C 592.569 190.876 t 0 r /Symbol findfont 94.0134 sf 0 0 m (-) show NC gr 
 gsave  2268 1630 0 0 C 1176.59 190.876 t 0 r /Times-Roman findfont 94.0134 sf 0 0 m (0.005) show NC gr 
 gsave  2268 1630 0 0 C 1125.31 190.876 t 0 r /Symbol findfont 94.0134 sf 0 0 m (-) show NC gr 
 gsave  2268 1630 0 0 C 1794.8 190.876 t 0 r /Times-Roman findfont 94.0134 sf 0 0 m (0) show NC gr  363 277 m 1271 Y s 416 459 m -53 X s 389 686 m -26 X s 416 913 m -53 X s 389 1140 m -26 X s 416 1367 m -53 X s 416 459 m -53 X s 416 1367 m -53 X s
 gsave  2268 1630 0 0 C 131.049 424.485 t 0 r /Times-Roman findfont 94.0134 sf 0 0 m (0.005) show NC gr 
 gsave  2268 1630 0 0 C 79.7689 424.485 t 0 r /Symbol findfont 94.0134 sf 0 0 m (-) show NC gr 
 gsave  2268 1630 0 0 C 293.436 880.307 t 0 r /Times-Roman findfont 94.0134 sf 0 0 m (0) show NC gr 
 gsave  2268 1630 0 0 C 131.049 1333.28 t 0 r /Times-Roman findfont 94.0134 sf 0 0 m (0.005) show NC gr  2154 277 m 1271 Y s 2101 459 m 53 X s 2128 686 m 26 X s 2101 913 m 53 X s 2128 1140 m 26 X s 2101 1367 m 53 X s 2101 459 m 53 X s 2101 1367 m 53
 X s 0.35 0.33 0.85 c /w 36 def /w2 {w 2 div} def /w3 {w 3 div} def 1823 860 m31 761 939 m31 black
 gsave  2268 1630 0 0 C 598.267 1316.19 t 0 r /Times-Roman findfont 76.92 sf 0 0 m (SMEFT Run2) show NC gr 
 gsave  2268 1630 0 0 C 1227.87 1324.73 t 0 r /Times-Roman findfont 119.653 sf 0 0 m (GammaCombo) show NC gr  0.6 0.6 0.6 c black 0.6 0.6 0.6 c
 gsave  2268 1630 0 0 C 407.391 330.471 t 0 r /Times-Roman findfont 56.9778 sf 0 0 m (contours hold 68%, 95% CL) show NC gr 
 gr  gr showpage
end
%%EOF
