%!PS-Adobe-2.0 EPSF-2.0
%%BoundingBox:  0 0 567 407
%%Title: plots/eps/HGamEFTScanner_2dscan_linear_quad_obs_cHW:cHWt_cHW_cHWt.eps: SMEFT Run2
%%Creator: ROOT Version 6.08/02
%%CreationDate: Tue Jul 13 06:39:49 2021
%%DocumentNeededResources: ProcSet (FontSetInit)
%%EndComments
%%BeginProlog
80 dict begin
/s {stroke} def /l {lineto} def /m {moveto} def /t {translate} def
/r {rotate} def /rl {roll}  def /R {repeat} def
/d {rlineto} def /rm {rmoveto} def /gr {grestore} def /f {eofill} def
/c {setrgbcolor} def /black {0 setgray} def /sd {setdash} def
/cl {closepath} def /sf {scalefont setfont} def /lw {setlinewidth} def
/box {m dup 0 exch d exch 0 d 0 exch neg d cl} def
/NC{systemdict begin initclip end}def/C{NC box clip newpath}def
/bl {box s} def /bf {gsave box gsave f grestore 1 lw [] 0 sd s grestore} def /Y { 0 exch d} def /X { 0 d} def 
/K {{pop pop 0 moveto} exch kshow} bind def
/ita {/ang 15 def gsave [1 0 ang dup sin exch cos div 1 0 0] concat} def 
/mp {newpath /y exch def /x exch def} def
/side {[w .77 mul w .23 mul] .385 w mul sd w 0 l currentpoint t -144 r} def
/mr {mp x y w2 0 360 arc} def /m24 {mr s} def /m20 {mr f} def
/mb {mp x y w2 add m w2 neg 0 d 0 w neg d w 0 d 0 w d cl} def
/mt {mp x y w2 add m w2 neg w neg d w 0 d cl} def
/m21 {mb f} def /m25 {mb s} def /m22 {mt f} def /m26{mt s} def
/m23 {mp x y w2 sub m w2 w d w neg 0 d cl f} def
/m27 {mp x y w2 add m w3 neg w2 neg d w3 w2 neg d w3 w2 d cl s} def
/m28 {mp x w2 sub y w2 sub w3 add m w3 0 d  0 w3 neg d w3 0 d 0 w3 d w3 0 d  0 w3 d w3 neg 0 d 0 w3 d w3 neg 0 d 0 w3 neg d w3 neg 0 d cl s } def
/m29 {mp gsave x w2 sub y w2 add w3 sub m currentpoint t 4 {side} repeat cl fill gr} def
/m30 {mp gsave x w2 sub y w2 add w3 sub m currentpoint t 4 {side} repeat cl s gr} def
/m31 {mp x y w2 sub m 0 w d x w2 sub y m w 0 d x w2 sub y w2 add m w w neg d x w2 sub y w2 sub m w w d s} def
/m32 {mp x y w2 sub m w2 w d w neg 0 d cl s} def
/m33 {mp x y w2 add m w3 neg w2 neg d w3 w2 neg d w3 w2 d cl f} def
/m34 {mp x w2 sub y w2 sub w3 add m w3 0 d  0 w3 neg d w3 0 d 0 w3 d w3 0 d  0 w3 d w3 neg 0 d 0 w3 d w3 neg 0 d 0 w3 neg d w3 neg 0 d cl f } def
/m2 {mp x y w2 sub m 0 w d x w2 sub y m w 0 d s} def
/m5 {mp x w2 sub y w2 sub m w w d x w2 sub y w2 add m w w neg d s} def
%%IncludeResource: ProcSet (FontSetInit)
%%IncludeResource: font Times-Roman
%%IncludeResource: font Times-Italic
%%IncludeResource: font Times-Bold
%%IncludeResource: font Times-BoldItalic
%%IncludeResource: font Helvetica
%%IncludeResource: font Helvetica-Oblique
%%IncludeResource: font Helvetica-Bold
%%IncludeResource: font Helvetica-BoldOblique
%%IncludeResource: font Courier
%%IncludeResource: font Courier-Oblique
%%IncludeResource: font Courier-Bold
%%IncludeResource: font Courier-BoldOblique
%%IncludeResource: font Symbol
%%IncludeResource: font ZapfDingbats
/reEncode {exch findfont dup length dict begin {1 index /FID eq  {pop pop} {def} ifelse } forall /Encoding exch def currentdict end dup /FontName get exch definefont pop } def [/Times-Bold /Times-Italic /Times-BoldItalic /Helvetica /Helvetica-Oblique
 /Helvetica-Bold /Helvetica-BoldOblique /Courier /Courier-Oblique /Courier-Bold /Courier-BoldOblique /Times-Roman /AvantGarde-Book /AvantGarde-BookOblique /AvantGarde-Demi /AvantGarde-DemiOblique /Bookman-Demi /Bookman-DemiItalic /Bookman-Light
 /Bookman-LightItalic /Helvetica-Narrow /Helvetica-Narrow-Bold /Helvetica-Narrow-BoldOblique /Helvetica-Narrow-Oblique /NewCenturySchlbk-Roman /NewCenturySchlbk-Bold /NewCenturySchlbk-BoldItalic /NewCenturySchlbk-Italic /Palatino-Bold
 /Palatino-BoldItalic /Palatino-Italic /Palatino-Roman ] {ISOLatin1Encoding reEncode } forall
%%EndProlog
%%BeginSetup
%%EndSetup
newpath  gsave  .25 .25 scale  gsave  0 0 t black[  ] 0 sd 3 lw 1 1 1 c 2268 1630 0 0 bf black 1 1 1 c 1791 1271 363 277 bf black 1791 1271 363 277 bl 1 1 1 c 1791 1271 363 277 bf black 1791 1271 363 277 bl 363 277 m 1791 X s
 gsave  2268 1630 0 0 C 2019.86 25.64 t 0 r /Times-Italic findfont 79.7689 sf 0 0 m (HW) show NC gr 
 gsave  2268 1630 0 0 C 1934.4 62.6756 t 0 r /Times-Italic findfont 119.653 sf 0 0 m (C) show NC gr  6 lw 1934 151 m 86 X s 3 lw 363 277 m 1271 Y s
 gsave  2268 1630 0 0 C 170.933 1415.9 t 90 r /Times-Italic findfont 79.7689 sf 0 0 m (HW) show NC gr 
 gsave  2268 1630 0 0 C 133.898 1330.43 t 90 r /Times-Italic findfont 119.653 sf 0 0 m (C) show NC gr 
 gsave  2268 1630 0 0 C 68.3734 1373.17 t 90 r  -32 0 t /Times-Italic findfont 119.653 sf 0 0 m (~) show NC gr  0.827451 0.913725 1 c black 0.827451 0.913725 1 c 1399 1260 m 26 -3 d 26 -4 d 24 -5 d 1 X 26 -6 d 25 -7 d 19 -5 d 7 -2 d 25 -9 d 22 -7 d 4
 -1 d 26 -11 d 14 -6 d 11 -6 d 26 -12 d 1 X 24 -14 d 7 -4 d 19 -12 d 9 -6 d 17 -12 d 8 -7 d 17 -13 d 5 -5 d 21 -18 d 16 -18 d 9 -10 d 7 -8 d 14 -18 d 5 -8 d 6 -11 d 11 -18 d 9 -16 d -2 Y 7 -18 d 6 -18 d 4 -18 d 4 -19 d 2 -18 d 1 -18 d -18 Y -3 -18 d
 -3 -18 d -5 -18 d -6 -19 d -6 -18 d -1 -2 d -9 -16 d -10 -18 d -7 -12 d -5 -6 d -14 -18 d -7 -9 d -8 -10 d -17 -18 d -20 -18 d -6 -5 d -16 -13 d -9 -7 d -16 -11 d -10 -7 d -18 -11 d -8 -5 d -23 -14 d -2 -1 d -26 -12 d -10 -5 d -15 -6 d -26 -11 d -2
 -1 d -24 -8 d -25 -9 d -4 -1 d -22 -5 d -25 -7 d -24 -6 d -2 -1 d -25 -4 d -26 -4 d -26 -4 d -25 -3 d -23 -2 d -3 -1 d -25 -1 d -26 -1 d -26 X -25 1 d -26 1 d -19 1 d -6 X -26 3 d -26 4 d -25 4 d -26 4 d -18 3 d -7 2 d -26 6 d -26 7 d -12 3 d -13 5
 d -26 8 d -14 5 d -11 5 d -26 11 d -7 2 d -19 10 d -17 8 d -8 5 d -25 14 d -1 X -25 17 d -2 1 d -24 17 d -1 1 d -22 18 d -2 3 d -16 15 d -10 10 d -8 8 d -16 19 d -2 1 d -11 17 d -13 18 d -1 3 d -8 15 d -9 18 d -8 18 d -1 2 d -4 17 d -4 18 d -4 18 d
 -2 18 d 18 Y 1 18 d 2 18 d 3 19 d 4 18 d 4 15 d 1 3 d 9 18 d 8 18 d 8 15 d 2 3 d 13 19 d 10 15 d 3 3 d 16 18 d 7 8 d 10 10 d 16 15 d 3 3 d 22 18 d 1 Y 25 18 d 1 X 25 16 d 2 2 d 24 13 d 9 5 d 16 8 d 21 10 d 5 2 d 26 11 d 13 5 d 12 4 d 26 9 d 16 5 d 9
 3 d 26 6 d 26 7 d 10 2 d 15 3 d 26 4 d 25 4 d 26 3 d 26 3 d 16 2 d 9 X 26 1 d 77 X 18 -1 d 7 -1 d 26 -3 d 25 -3 d -25 -91 d -26 3 d -25 2 d -26 1 d -26 X -25 -1 d -26 -1 d -25 -2 d -26 -3 d -26 -4 d -25 -6 d -2 X -24 -6 d -25 -7 d -17 -5 d -9 -3 d
 -26 -10 d -12 -6 d -13 -5 d -25 -13 d -1 X -25 -15 d -6 -3 d -20 -13 d -6 -5 d -20 -16 d -3 -2 d -19 -18 d -3 -4 d -14 -15 d -12 -15 d -2 -3 d -12 -18 d -10 -18 d -1 -4 d -7 -14 d -6 -18 d -4 -19 d -3 -18 d -36 Y 3 -18 d 4 -18 d 6 -18 d 7 -14 d 2 -5
 d 9 -18 d 13 -18 d 1 -2 d 12 -16 d 14 -14 d 3 -4 d 20 -18 d 2 -2 d 21 -17 d 5 -4 d 21 -14 d 5 -2 d 25 -15 d 2 -1 d 24 -12 d 14 -6 d 11 -5 d 26 -10 d 11 -3 d 15 -5 d 25 -7 d 26 -6 d 1 X 24 -6 d 26 -4 d 26 -3 d 25 -2 d 26 -2 d 51 X 26 1 d 25 2 d 26 3
 d 25 3 d 26 5 d 9 3 d 17 3 d 25 7 d 25 8 d 1 X 25 9 d 22 9 d 4 2 d 25 11 d 9 5 d 17 9 d 15 9 d 11 7 d 16 11 d 9 8 d 13 11 d 13 11 d 7 7 d 16 18 d 2 3 d 13 15 d 11 18 d 2 3 d 9 15 d 8 19 d 6 18 d 3 14 d 1 4 d 3 18 d 36 Y -3 18 d -1 5 d -3 14 d -6 18
 d -8 18 d -9 16 d -1 2 d -12 18 d -13 16 d -1 2 d -16 19 d -8 7 d -12 11 d -14 11 d -9 7 d -16 12 d -10 6 d -16 10 d -16 8 d -10 6 d -25 11 d -3 1 d -23 10 d -24 9 d -1 X -26 8 d -25 7 d -14 3 d -12 3 d -26 5 d -25 3 d f 0.35 0.33 0.85 c 6 lw
 0.884975 0.752825 0.292488 c black 0.35 0.33 0.85 c 1341 1267 m 7 -1 d 26 -3 d 25 -3 d 26 -3 d 26 -4 d 24 -5 d 1 X 26 -6 d 25 -7 d 19 -5 d 7 -2 d 25 -9 d 22 -7 d 4 -1 d 26 -11 d 14 -6 d 11 -6 d 26 -12 d 1 X 24 -14 d 7 -4 d 19 -12 d 9 -6 d 17 -12 d 8
 -7 d 17 -13 d 5 -5 d 21 -18 d 16 -18 d 9 -10 d 7 -8 d 14 -18 d 5 -8 d 6 -11 d 11 -18 d 9 -16 d -2 Y 7 -18 d 6 -18 d 4 -18 d 4 -19 d 2 -18 d 1 -18 d -18 Y -3 -18 d -3 -18 d -5 -18 d -6 -19 d -6 -18 d -1 -2 d -9 -16 d -10 -18 d -7 -12 d -5 -6 d -14
 -18 d -7 -9 d -8 -10 d -17 -18 d -20 -18 d -6 -5 d -16 -13 d -9 -7 d -16 -11 d -10 -7 d -18 -11 d -8 -5 d -23 -14 d -2 -1 d -26 -12 d -10 -5 d -15 -6 d -26 -11 d -2 -1 d -24 -8 d -25 -9 d -4 -1 d -22 -5 d -25 -7 d -24 -6 d -2 -1 d -25 -4 d -26 -4 d
 -26 -4 d -25 -3 d -23 -2 d -3 -1 d -25 -1 d -26 -1 d -26 X -25 1 d -26 1 d -19 1 d -6 X -26 3 d -26 4 d -25 4 d -26 4 d -18 3 d -7 2 d -26 6 d -26 7 d -12 3 d -13 5 d -26 8 d -14 5 d -11 5 d -26 11 d -7 2 d -19 10 d -17 8 d -8 5 d -25 14 d -1 X -25
 17 d -2 1 d -24 17 d -1 1 d -22 18 d -2 3 d -16 15 d -10 10 d -8 8 d -16 19 d -2 1 d -11 17 d -13 18 d -1 3 d -8 15 d -9 18 d -8 18 d -1 2 d -4 17 d -4 18 d -4 18 d -2 18 d 18 Y 1 18 d 2 18 d 3 19 d 4 18 d 4 15 d 1 3 d 9 18 d 8 18 d 8 15 d 2 3 d 13
 19 d 10 15 d 3 3 d 16 18 d 7 8 d 10 10 d 16 15 d 3 3 d 22 18 d 1 Y 25 18 d 1 X 25 16 d 2 2 d 24 13 d 9 5 d 16 8 d 21 10 d 5 2 d 26 11 d 13 5 d 12 4 d 26 9 d 16 5 d 9 3 d 26 6 d 26 7 d 10 2 d 15 3 d 26 4 d 25 4 d 26 3 d 26 3 d 16 2 d 9 X 26 1 d 77 X
 18 -1 d cl s 0.884975 0.752825 0.292488 c black 0.35 0.33 0.85 c 1425 1161 m -26 5 d -25 3 d -26 3 d -25 2 d -26 1 d -26 X -25 -1 d -26 -1 d -25 -2 d -26 -3 d -26 -4 d -25 -6 d -2 X -24 -6 d -25 -7 d -17 -5 d -9 -3 d -26 -10 d -12 -6 d -13 -5 d -25
 -13 d -1 X -25 -15 d -6 -3 d -20 -13 d -6 -5 d -20 -16 d -3 -2 d -19 -18 d -3 -4 d -14 -15 d -12 -15 d -2 -3 d -12 -18 d -10 -18 d -1 -4 d -7 -14 d -6 -18 d -4 -19 d -3 -18 d -36 Y 3 -18 d 4 -18 d 6 -18 d 7 -14 d 2 -5 d 9 -18 d 13 -18 d 1 -2 d 12
 -16 d 14 -14 d 3 -4 d 20 -18 d 2 -2 d 21 -17 d 5 -4 d 21 -14 d 5 -2 d 25 -15 d 2 -1 d 24 -12 d 14 -6 d 11 -5 d 26 -10 d 11 -3 d 15 -5 d 25 -7 d 26 -6 d 1 X 24 -6 d 26 -4 d 26 -3 d 25 -2 d 26 -2 d 51 X 26 1 d 25 2 d 26 3 d 25 3 d 26 5 d 9 3 d 17 3 d
 25 7 d 25 8 d 1 X 25 9 d 22 9 d 4 2 d 25 11 d 9 5 d 17 9 d 15 9 d 11 7 d 16 11 d 9 8 d 13 11 d 13 11 d 7 7 d 16 18 d 2 3 d 13 15 d 11 18 d 2 3 d 9 15 d 8 19 d 6 18 d 3 14 d 1 4 d 3 18 d 36 Y -3 18 d -1 5 d -3 14 d -6 18 d -8 18 d -9 16 d -1 2 d -12
 18 d -13 16 d -1 2 d -16 19 d -8 7 d -12 11 d -14 11 d -9 7 d -16 12 d -10 6 d -16 10 d -16 8 d -10 6 d -25 11 d -3 1 d -23 10 d -24 9 d -1 X -26 8 d -25 7 d -14 3 d -12 3 d cl s black 3 lw 0.745098 0.905882 0.992157 c black 0.745098 0.905882
 0.992157 c 1118 1237 m 25 4 d 26 3 d 26 4 d 4 X 21 2 d 26 X 25 1 d 26 X 26 -1 d 25 -1 d 5 -1 d 21 -2 d 25 -4 d 26 -4 d 26 -4 d 25 -4 d 26 -7 d 25 -7 d 16 -4 d 10 -3 d 25 -10 d 17 -5 d 9 -4 d 26 -11 d 7 -3 d 18 -10 d 18 -8 d 8 -5 d 24 -13 d 1 -2 d 26
 -17 d 23 -18 d 3 -2 d 17 -16 d 8 -7 d 11 -11 d 15 -15 d 2 -3 d 13 -18 d 10 -13 d 4 -6 d 10 -18 d 11 -18 d 1 -2 d 5 -16 d 6 -18 d 5 -18 d 4 -19 d 2 -18 d 1 -18 d -18 Y -3 -18 d -4 -18 d -5 -18 d -5 -19 d -6 -17 d -1 -1 d -11 -18 d -10 -18 d -4 -7 d
 -9 -11 d -13 -18 d -3 -4 d -14 -15 d -12 -12 d -6 -6 d -19 -17 d -1 -1 d -24 -18 d -1 -1 d -25 -17 d -1 X -25 -15 d -6 -3 d -20 -10 d -15 -9 d -10 -4 d -26 -11 d -6 -3 d -20 -6 d -25 -10 d -6 -2 d -20 -5 d -25 -7 d -22 -6 d -4 -1 d -25 -4 d -26 -4 d
 -26 -4 d -25 -4 d -8 -1 d -18 -1 d -25 -2 d -77 X -26 1 d -25 1 d -8 1 d -18 2 d -26 4 d -25 4 d -26 5 d -19 3 d -6 2 d -26 7 d -26 7 d -9 2 d -16 6 d -26 9 d -9 3 d -16 8 d -26 10 d -1 X -25 14 d -9 5 d -16 9 d -14 9 d -12 7 d -15 11 d -10 7 d -14
 11 d -12 10 d -8 8 d -17 16 d -3 2 d -15 19 d -8 8 d -7 10 d -12 18 d -7 9 d -4 9 d -9 18 d -8 18 d -4 10 d -3 9 d -4 18 d -2 18 d -2 18 d -1 18 d 1 18 d 2 18 d 3 19 d 4 18 d 2 8 d 4 10 d 9 18 d 8 18 d 4 8 d 8 10 d 12 19 d 6 8 d 9 10 d 15 18 d 2 2 d
 18 16 d 7 7 d 14 11 d 12 10 d 12 8 d 13 10 d 14 9 d 12 7 d 18 11 d 7 3 d 26 14 d 2 1 d 24 9 d 19 9 d 6 2 d 26 9 d 19 7 d 6 2 d 26 6 d 26 7 d 11 3 d 14 3 d 26 4 d 25 -51 d -25 -4 d -22 -6 d -4 -1 d -25 -6 d -26 -8 d -9 -3 d -17 -5 d -25 -11 d -6 -2 d
 -20 -9 d -18 -10 d -7 -3 d -25 -15 d -1 -1 d -26 -17 d -24 -18 d -1 -1 d -20 -17 d -6 -7 d -12 -11 d -13 -18 d -1 -1 d -14 -18 d -10 -18 d -1 -2 d -9 -16 d -7 -18 d -5 -18 d -4 -19 d -7 Y -2 -11 d -1 -18 d 1 -18 d 2 -10 d -8 Y 4 -18 d 5 -18 d 7 -19
 d 9 -14 d 2 -4 d 10 -18 d 14 -17 d -1 Y 14 -18 d 11 -11 d 7 -7 d 19 -16 d 3 -3 d 22 -17 d 2 -1 d 24 -16 d 3 -2 d 23 -13 d 9 -5 d 16 -9 d 23 -9 d 3 -1 d 25 -11 d 20 -6 d 6 -3 d 26 -8 d 25 -6 d 9 -2 d 17 -4 d 25 -5 d 26 -4 d 26 -2 d 25 -2 d 16 -1 d 10
 X 25 -1 d 26 X 20 1 d 6 1 d 25 1 d 26 2 d 25 4 d 26 4 d 26 6 d 25 6 d 26 7 d 15 6 d 10 3 d 26 9 d 12 6 d 13 5 d 26 13 d 26 14 d 7 4 d 18 12 d 9 6 d 17 13 d 7 5 d 18 17 d 2 2 d 18 18 d 6 7 d 10 11 d 13 18 d 3 6 d 8 12 d 9 18 d 7 19 d 1 4 d 5 14 d 5
 18 d 2 18 d 1 18 d 18 Y -3 18 d -4 19 d -6 14 d -1 4 d -6 18 d -9 18 d -9 14 d -3 4 d -12 18 d -11 13 d -5 6 d -18 18 d -3 2 d -17 16 d -8 7 d -15 11 d -11 8 d -17 10 d -8 6 d -24 12 d -2 1 d -26 13 d -10 5 d -15 6 d -26 9 d -7 3 d -18 6 d -26 8 d
 -20 4 d -5 1 d -26 7 d -26 4 d -25 3 d -26 2 d -14 1 d -11 1 d -26 2 d -26 X -25 -1 d -26 -2 d -3 X -22 -2 d -26 -2 d -26 -4 d f black 0.0941176 0.666667 0.905882 c black 0.0941176 0.666667 0.905882 c 1 lw << /PatternType 1 /PaintType 2 /TilingType
 1 /BBox [ 0 0 100 100 ] /XStep 100 /YStep 100 /PaintProc { begin gsave 0 100 m 100 0 l s gr end } >> [ 0.24 0 0 0.24 0 0 ] makepattern /P05 exch def /cs {[/Pattern /DeviceRGB] setcolorspace} def /FA {f [/DeviceRGB] setcolorspace} def cs 0.0941176
 0.666667 0.905882 P05 setcolor 1118 1237 m 25 4 d 26 3 d 26 4 d 4 X 21 2 d 26 X 25 1 d 26 X 26 -1 d 25 -1 d 5 -1 d 21 -2 d 25 -4 d 26 -4 d 26 -4 d 25 -4 d 26 -7 d 25 -7 d 16 -4 d 10 -3 d 25 -10 d 17 -5 d 9 -4 d 26 -11 d 7 -3 d 18 -10 d 18 -8 d 8 -5
 d 24 -13 d 1 -2 d 26 -17 d 23 -18 d 3 -2 d 17 -16 d 8 -7 d 11 -11 d 15 -15 d 2 -3 d 13 -18 d 10 -13 d 4 -6 d 10 -18 d 11 -18 d 1 -2 d 5 -16 d 6 -18 d 5 -18 d 4 -19 d 2 -18 d 1 -18 d -18 Y -3 -18 d -4 -18 d -5 -18 d -5 -19 d -6 -17 d -1 -1 d -11 -18
 d -10 -18 d -4 -7 d -9 -11 d -13 -18 d -3 -4 d -14 -15 d -12 -12 d -6 -6 d -19 -17 d -1 -1 d -24 -18 d -1 -1 d -25 -17 d -1 X -25 -15 d -6 -3 d -20 -10 d -15 -9 d -10 -4 d -26 -11 d -6 -3 d -20 -6 d -25 -10 d -6 -2 d -20 -5 d -25 -7 d -22 -6 d -4 -1
 d -25 -4 d -26 -4 d -26 -4 d -25 -4 d -8 -1 d -18 -1 d -25 -2 d -77 X -26 1 d -25 1 d -8 1 d -18 2 d -26 4 d -25 4 d -26 5 d -19 3 d -6 2 d -26 7 d -26 7 d -9 2 d -16 6 d -26 9 d -9 3 d -16 8 d -26 10 d -1 X -25 14 d -9 5 d -16 9 d -14 9 d -12 7 d
 -15 11 d -10 7 d -14 11 d -12 10 d -8 8 d -17 16 d -3 2 d -15 19 d -8 8 d -7 10 d -12 18 d -7 9 d -4 9 d -9 18 d -8 18 d -4 10 d -3 9 d -4 18 d -2 18 d -2 18 d -1 18 d 1 18 d 2 18 d 3 19 d 4 18 d 2 8 d 4 10 d 9 18 d 8 18 d 4 8 d 8 10 d 12 19 d 6 8 d
 9 10 d 15 18 d 2 2 d 18 16 d 7 7 d 14 11 d 12 10 d 12 8 d 13 10 d 14 9 d 12 7 d 18 11 d 7 3 d 26 14 d 2 1 d 24 9 d 19 9 d 6 2 d 26 9 d 19 7 d 6 2 d 26 6 d 26 7 d 11 3 d 14 3 d 26 4 d 25 -51 d -25 -4 d -22 -6 d -4 -1 d -25 -6 d -26 -8 d -9 -3 d -17
 -5 d -25 -11 d -6 -2 d -20 -9 d -18 -10 d -7 -3 d -25 -15 d -1 -1 d -26 -17 d -24 -18 d -1 -1 d -20 -17 d -6 -7 d -12 -11 d -13 -18 d -1 -1 d -14 -18 d -10 -18 d -1 -2 d -9 -16 d -7 -18 d -5 -18 d -4 -19 d -7 Y -2 -11 d -1 -18 d 1 -18 d 2 -10 d -8 Y
 4 -18 d 5 -18 d 7 -19 d 9 -14 d 2 -4 d 10 -18 d 14 -17 d -1 Y 14 -18 d 11 -11 d 7 -7 d 19 -16 d 3 -3 d 22 -17 d 2 -1 d 24 -16 d 3 -2 d 23 -13 d 9 -5 d 16 -9 d 23 -9 d 3 -1 d 25 -11 d 20 -6 d 6 -3 d 26 -8 d 25 -6 d 9 -2 d 17 -4 d 25 -5 d 26 -4 d 26
 -2 d 25 -2 d 16 -1 d 10 X 25 -1 d 26 X 20 1 d 6 1 d 25 1 d 26 2 d 25 4 d 26 4 d 26 6 d 25 6 d 26 7 d 15 6 d 10 3 d 26 9 d 12 6 d 13 5 d 26 13 d 26 14 d 7 4 d 18 12 d 9 6 d 17 13 d 7 5 d 18 17 d 2 2 d 18 18 d 6 7 d 10 11 d 13 18 d 3 6 d 8 12 d 9 18 d
 7 19 d 1 4 d 5 14 d 5 18 d 2 18 d 1 18 d 18 Y -3 18 d -4 19 d -6 14 d -1 4 d -6 18 d -9 18 d -9 14 d -3 4 d -12 18 d -11 13 d -5 6 d -18 18 d -3 2 d -17 16 d -8 7 d -15 11 d -11 8 d -17 10 d -8 6 d -24 12 d -2 1 d -26 13 d -10 5 d -15 6 d -26 9 d -7
 3 d -18 6 d -26 8 d -20 4 d -5 1 d -26 7 d -26 4 d -25 3 d -26 2 d -14 1 d -11 1 d -26 2 d -26 X -25 -1 d -26 -2 d -3 X -22 -2 d -26 -2 d -26 -4 d FA 3 lw 0.0941176 0.666667 0.905882 c 6 lw 0.977 0.977044 0.0583656 c black 0.0941176 0.666667
 0.905882 c 1353 1248 m 21 -2 d 25 -4 d 26 -4 d 26 -4 d 25 -4 d 26 -7 d 25 -7 d 16 -4 d 10 -3 d 25 -10 d 17 -5 d 9 -4 d 26 -11 d 7 -3 d 18 -10 d 18 -8 d 8 -5 d 24 -13 d 1 -2 d 26 -17 d 23 -18 d 3 -2 d 17 -16 d 8 -7 d 11 -11 d 15 -15 d 2 -3 d 13 -18 d
 10 -13 d 4 -6 d 10 -18 d 11 -18 d 1 -2 d 5 -16 d 6 -18 d 5 -18 d 4 -19 d 2 -18 d 1 -18 d -18 Y -3 -18 d -4 -18 d -5 -18 d -5 -19 d -6 -17 d -1 -1 d -11 -18 d -10 -18 d -4 -7 d -9 -11 d -13 -18 d -3 -4 d -14 -15 d -12 -12 d -6 -6 d -19 -17 d -1 -1 d
 -24 -18 d -1 -1 d -25 -17 d -1 X -25 -15 d -6 -3 d -20 -10 d -15 -9 d -10 -4 d -26 -11 d -6 -3 d -20 -6 d -25 -10 d -6 -2 d -20 -5 d -25 -7 d -22 -6 d -4 -1 d -25 -4 d -26 -4 d -26 -4 d -25 -4 d -8 -1 d -18 -1 d -25 -2 d -77 X -26 1 d -25 1 d -8 1 d
 -18 2 d -26 4 d -25 4 d -26 5 d -19 3 d -6 2 d -26 7 d -26 7 d -9 2 d -16 6 d -26 9 d -9 3 d -16 8 d -26 10 d -1 X -25 14 d -9 5 d -16 9 d -14 9 d -12 7 d -15 11 d -10 7 d -14 11 d -12 10 d -8 8 d -17 16 d -3 2 d -15 19 d -8 8 d -7 10 d -12 18 d -7
 9 d -4 9 d -9 18 d -8 18 d -4 10 d -3 9 d -4 18 d -2 18 d -2 18 d -1 18 d 1 18 d 2 18 d 3 19 d 4 18 d 2 8 d 4 10 d 9 18 d 8 18 d 4 8 d 8 10 d 12 19 d 6 8 d 9 10 d 15 18 d 2 2 d 18 16 d 7 7 d 14 11 d 12 10 d 12 8 d 13 10 d 14 9 d 12 7 d 18 11 d 7 3 d
 26 14 d 2 1 d 24 9 d 19 9 d 6 2 d 26 9 d 19 7 d 6 2 d 26 6 d 26 7 d 11 3 d 14 3 d 26 4 d 25 4 d 26 3 d 26 4 d 4 X 21 2 d 26 X 25 1 d 26 X 26 -1 d 25 -1 d 5 -1 d cl s 0.977 0.977044 0.0583656 c black 0.0941176 0.666667 0.905882 c 1297 1197 m -26 X
 -25 -1 d -26 -2 d -3 X -22 -2 d -26 -2 d -26 -4 d -25 -4 d -22 -6 d -4 -1 d -25 -6 d -26 -8 d -9 -3 d -17 -5 d -25 -11 d -6 -2 d -20 -9 d -18 -10 d -7 -3 d -25 -15 d -1 -1 d -26 -17 d -24 -18 d -1 -1 d -20 -17 d -6 -7 d -12 -11 d -13 -18 d -1 -1 d
 -14 -18 d -10 -18 d -1 -2 d -9 -16 d -7 -18 d -5 -18 d -4 -19 d -7 Y -2 -11 d -1 -18 d 1 -18 d 2 -10 d -8 Y 4 -18 d 5 -18 d 7 -19 d 9 -14 d 2 -4 d 10 -18 d 14 -17 d -1 Y 14 -18 d 11 -11 d 7 -7 d 19 -16 d 3 -3 d 22 -17 d 2 -1 d 24 -16 d 3 -2 d 23 -13
 d 9 -5 d 16 -9 d 23 -9 d 3 -1 d 25 -11 d 20 -6 d 6 -3 d 26 -8 d 25 -6 d 9 -2 d 17 -4 d 25 -5 d 26 -4 d 26 -2 d 25 -2 d 16 -1 d 10 X 25 -1 d 26 X 20 1 d 6 1 d 25 1 d 26 2 d 25 4 d 26 4 d 26 6 d 25 6 d 26 7 d 15 6 d 10 3 d 26 9 d 12 6 d 13 5 d 26 13 d
 26 14 d 7 4 d 18 12 d 9 6 d 17 13 d 7 5 d 18 17 d 2 2 d 18 18 d 6 7 d 10 11 d 13 18 d 3 6 d 8 12 d 9 18 d 7 19 d 1 4 d 5 14 d 5 18 d 2 18 d 1 18 d 18 Y -3 18 d -4 19 d -6 14 d -1 4 d -6 18 d -9 18 d -9 14 d -3 4 d -12 18 d -11 13 d -5 6 d -18 18 d
 -3 2 d -17 16 d -8 7 d -15 11 d -11 8 d -17 10 d -8 6 d -24 12 d -2 1 d -26 13 d -10 5 d -15 6 d -26 9 d -7 3 d -18 6 d -26 8 d -20 4 d -5 1 d -26 7 d -26 4 d -25 3 d -26 2 d -14 1 d -11 1 d -26 2 d cl s 0.35 0.33 0.85 c[ 12 12] 0 sd 0.884975
 0.752825 0.292488 c black 0.35 0.33 0.85 c 1341 1267 m 7 -1 d 26 -3 d 25 -3 d 26 -3 d 26 -4 d 24 -5 d 1 X 26 -6 d 25 -7 d 19 -5 d 7 -2 d 25 -9 d 22 -7 d 4 -1 d 26 -11 d 14 -6 d 11 -6 d 26 -12 d 1 X 24 -14 d 7 -4 d 19 -12 d 9 -6 d 17 -12 d 8 -7 d 17
 -13 d 5 -5 d 21 -18 d 16 -18 d 9 -10 d 7 -8 d 14 -18 d 5 -8 d 6 -11 d 11 -18 d 9 -16 d -2 Y 7 -18 d 6 -18 d 4 -18 d 4 -19 d 2 -18 d 1 -18 d -18 Y -3 -18 d -3 -18 d -5 -18 d -6 -19 d -6 -18 d -1 -2 d -9 -16 d -10 -18 d -7 -12 d -5 -6 d -14 -18 d -7
 -9 d -8 -10 d -17 -18 d -20 -18 d -6 -5 d -16 -13 d -9 -7 d -16 -11 d -10 -7 d -18 -11 d -8 -5 d -23 -14 d -2 -1 d -26 -12 d -10 -5 d -15 -6 d -26 -11 d -2 -1 d -24 -8 d -25 -9 d -4 -1 d -22 -5 d -25 -7 d -24 -6 d -2 -1 d -25 -4 d -26 -4 d -26 -4 d
 -25 -3 d -23 -2 d -3 -1 d -25 -1 d -26 -1 d -26 X -25 1 d -26 1 d -19 1 d -6 X -26 3 d -26 4 d -25 4 d -26 4 d -18 3 d -7 2 d -26 6 d -26 7 d -12 3 d -13 5 d -26 8 d -14 5 d -11 5 d -26 11 d -7 2 d -19 10 d -17 8 d -8 5 d -25 14 d -1 X -25 17 d -2 1
 d -24 17 d -1 1 d -22 18 d -2 3 d -16 15 d -10 10 d -8 8 d -16 19 d -2 1 d -11 17 d -13 18 d -1 3 d -8 15 d -9 18 d -8 18 d -1 2 d -4 17 d -4 18 d -4 18 d -2 18 d 18 Y 1 18 d 2 18 d 3 19 d 4 18 d 4 15 d 1 3 d 9 18 d 8 18 d 8 15 d 2 3 d 13 19 d 10 15
 d 3 3 d 16 18 d 7 8 d 10 10 d 16 15 d 3 3 d 22 18 d 1 Y 25 18 d 1 X 25 16 d 2 2 d 24 13 d 9 5 d 16 8 d 21 10 d 5 2 d 26 11 d 13 5 d 12 4 d 26 9 d 16 5 d 9 3 d 26 6 d 26 7 d 10 2 d 15 3 d 26 4 d 25 4 d 26 3 d 26 3 d 16 2 d 9 X 26 1 d 77 X 18 -1 d cl
 s 0.884975 0.752825 0.292488 c black 0.35 0.33 0.85 c 1425 1161 m -26 5 d -25 3 d -26 3 d -25 2 d -26 1 d -26 X -25 -1 d -26 -1 d -25 -2 d -26 -3 d -26 -4 d -25 -6 d -2 X -24 -6 d -25 -7 d -17 -5 d -9 -3 d -26 -10 d -12 -6 d -13 -5 d -25 -13 d -1 X
 -25 -15 d -6 -3 d -20 -13 d -6 -5 d -20 -16 d -3 -2 d -19 -18 d -3 -4 d -14 -15 d -12 -15 d -2 -3 d -12 -18 d -10 -18 d -1 -4 d -7 -14 d -6 -18 d -4 -19 d -3 -18 d -36 Y 3 -18 d 4 -18 d 6 -18 d 7 -14 d 2 -5 d 9 -18 d 13 -18 d 1 -2 d 12 -16 d 14 -14
 d 3 -4 d 20 -18 d 2 -2 d 21 -17 d 5 -4 d 21 -14 d 5 -2 d 25 -15 d 2 -1 d 24 -12 d 14 -6 d 11 -5 d 26 -10 d 11 -3 d 15 -5 d 25 -7 d 26 -6 d 1 X 24 -6 d 26 -4 d 26 -3 d 25 -2 d 26 -2 d 51 X 26 1 d 25 2 d 26 3 d 25 3 d 26 5 d 9 3 d 17 3 d 25 7 d 25 8 d
 1 X 25 9 d 22 9 d 4 2 d 25 11 d 9 5 d 17 9 d 15 9 d 11 7 d 16 11 d 9 8 d 13 11 d 13 11 d 7 7 d 16 18 d 2 3 d 13 15 d 11 18 d 2 3 d 9 15 d 8 19 d 6 18 d 3 14 d 1 4 d 3 18 d 36 Y -3 18 d -1 5 d -3 14 d -6 18 d -8 18 d -9 16 d -1 2 d -12 18 d -13 16 d
 -1 2 d -16 19 d -8 7 d -12 11 d -14 11 d -9 7 d -16 12 d -10 6 d -16 10 d -16 8 d -10 6 d -25 11 d -3 1 d -23 10 d -24 9 d -1 X -26 8 d -25 7 d -14 3 d -12 3 d cl s 0.0941176 0.666667 0.905882 c 0.977 0.977044 0.0583656 c black 0.0941176 0.666667
 0.905882 c 1353 1248 m 21 -2 d 25 -4 d 26 -4 d 26 -4 d 25 -4 d 26 -7 d 25 -7 d 16 -4 d 10 -3 d 25 -10 d 17 -5 d 9 -4 d 26 -11 d 7 -3 d 18 -10 d 18 -8 d 8 -5 d 24 -13 d 1 -2 d 26 -17 d 23 -18 d 3 -2 d 17 -16 d 8 -7 d 11 -11 d 15 -15 d 2 -3 d 13 -18 d
 10 -13 d 4 -6 d 10 -18 d 11 -18 d 1 -2 d 5 -16 d 6 -18 d 5 -18 d 4 -19 d 2 -18 d 1 -18 d -18 Y -3 -18 d -4 -18 d -5 -18 d -5 -19 d -6 -17 d -1 -1 d -11 -18 d -10 -18 d -4 -7 d -9 -11 d -13 -18 d -3 -4 d -14 -15 d -12 -12 d -6 -6 d -19 -17 d -1 -1 d
 -24 -18 d -1 -1 d -25 -17 d -1 X -25 -15 d -6 -3 d -20 -10 d -15 -9 d -10 -4 d -26 -11 d -6 -3 d -20 -6 d -25 -10 d -6 -2 d -20 -5 d -25 -7 d -22 -6 d -4 -1 d -25 -4 d -26 -4 d -26 -4 d -25 -4 d -8 -1 d -18 -1 d -25 -2 d -77 X -26 1 d -25 1 d -8 1 d
 -18 2 d -26 4 d -25 4 d -26 5 d -19 3 d -6 2 d -26 7 d -26 7 d -9 2 d -16 6 d -26 9 d -9 3 d -16 8 d -26 10 d -1 X -25 14 d -9 5 d -16 9 d -14 9 d -12 7 d -15 11 d -10 7 d -14 11 d -12 10 d -8 8 d -17 16 d -3 2 d -15 19 d -8 8 d -7 10 d -12 18 d -7
 9 d -4 9 d -9 18 d -8 18 d -4 10 d -3 9 d -4 18 d -2 18 d -2 18 d -1 18 d 1 18 d 2 18 d 3 19 d 4 18 d 2 8 d 4 10 d 9 18 d 8 18 d 4 8 d 8 10 d 12 19 d 6 8 d 9 10 d 15 18 d 2 2 d 18 16 d 7 7 d 14 11 d 12 10 d 12 8 d 13 10 d 14 9 d 12 7 d 18 11 d 7 3 d
 26 14 d 2 1 d 24 9 d 19 9 d 6 2 d 26 9 d 19 7 d 6 2 d 26 6 d 26 7 d 11 3 d 14 3 d 26 4 d 25 4 d 26 3 d 26 4 d 4 X 21 2 d 26 X 25 1 d 26 X 26 -1 d 25 -1 d 5 -1 d cl s 0.977 0.977044 0.0583656 c black 0.0941176 0.666667 0.905882 c 1297 1197 m -26 X
 -25 -1 d -26 -2 d -3 X -22 -2 d -26 -2 d -26 -4 d -25 -4 d -22 -6 d -4 -1 d -25 -6 d -26 -8 d -9 -3 d -17 -5 d -25 -11 d -6 -2 d -20 -9 d -18 -10 d -7 -3 d -25 -15 d -1 -1 d -26 -17 d -24 -18 d -1 -1 d -20 -17 d -6 -7 d -12 -11 d -13 -18 d -1 -1 d
 -14 -18 d -10 -18 d -1 -2 d -9 -16 d -7 -18 d -5 -18 d -4 -19 d -7 Y -2 -11 d -1 -18 d 1 -18 d 2 -10 d -8 Y 4 -18 d 5 -18 d 7 -19 d 9 -14 d 2 -4 d 10 -18 d 14 -17 d -1 Y 14 -18 d 11 -11 d 7 -7 d 19 -16 d 3 -3 d 22 -17 d 2 -1 d 24 -16 d 3 -2 d 23 -13
 d 9 -5 d 16 -9 d 23 -9 d 3 -1 d 25 -11 d 20 -6 d 6 -3 d 26 -8 d 25 -6 d 9 -2 d 17 -4 d 25 -5 d 26 -4 d 26 -2 d 25 -2 d 16 -1 d 10 X 25 -1 d 26 X 20 1 d 6 1 d 25 1 d 26 2 d 25 4 d 26 4 d 26 6 d 25 6 d 26 7 d 15 6 d 10 3 d 26 9 d 12 6 d 13 5 d 26 13 d
 26 14 d 7 4 d 18 12 d 9 6 d 17 13 d 7 5 d 18 17 d 2 2 d 18 18 d 6 7 d 10 11 d 13 18 d 3 6 d 8 12 d 9 18 d 7 19 d 1 4 d 5 14 d 5 18 d 2 18 d 1 18 d 18 Y -3 18 d -4 19 d -6 14 d -1 4 d -6 18 d -9 18 d -9 14 d -3 4 d -12 18 d -11 13 d -5 6 d -18 18 d
 -3 2 d -17 16 d -8 7 d -15 11 d -11 8 d -17 10 d -8 6 d -24 12 d -2 1 d -26 13 d -10 5 d -15 6 d -26 9 d -7 3 d -18 6 d -26 8 d -20 4 d -5 1 d -26 7 d -26 4 d -25 3 d -26 2 d -14 1 d -11 1 d -26 2 d cl s black[  ] 0 sd 3 lw 363 1548 m 1791 X s 363
 1509 m 39 Y s 542 1529 m 19 Y s 721 1509 m 39 Y s 900 1529 m 19 Y s 1079 1509 m 39 Y s 1259 1529 m 19 Y s 1438 1509 m 39 Y s 1617 1529 m 19 Y s 1796 1509 m 39 Y s 1975 1529 m 19 Y s 2154 1509 m 39 Y s 363 1509 m 39 Y s 2154 1509 m 39 Y s 363 277 m
 1791 X s 363 316 m -39 Y s 542 296 m -19 Y s 721 316 m -39 Y s 900 296 m -19 Y s 1079 316 m -39 Y s 1259 296 m -19 Y s 1438 316 m -39 Y s 1617 296 m -19 Y s 1796 316 m -39 Y s 1975 296 m -19 Y s 2154 316 m -39 Y s 363 316 m -39 Y s 2154 316 m -39 Y
 s
 gsave  2268 1630 0 0 C 282.04 190.876 t 0 r /Times-Roman findfont 94.0134 sf 0 0 m (0.005) show NC gr 
 gsave  2268 1630 0 0 C 230.76 190.876 t 0 r /Symbol findfont 94.0134 sf 0 0 m (-) show NC gr 
 gsave  2268 1630 0 0 C 697.978 190.876 t 0 r /Times-Roman findfont 94.0134 sf 0 0 m (0) show NC gr 
 gsave  2268 1630 0 0 C 971.472 190.876 t 0 r /Times-Roman findfont 94.0134 sf 0 0 m (0.005) show NC gr 
 gsave  2268 1630 0 0 C 1356.07 190.876 t 0 r /Times-Roman findfont 94.0134 sf 0 0 m (0.01) show NC gr 
 gsave  2268 1630 0 0 C 1689.39 190.876 t 0 r /Times-Roman findfont 94.0134 sf 0 0 m (0.015) show NC gr 
 gsave  2268 1630 0 0 C 2071.14 190.876 t 0 r /Times-Roman findfont 94.0134 sf 0 0 m (0.02) show NC gr  363 277 m 1271 Y s 416 413 m -53 X s 389 527 m -26 X s 416 640 m -53 X s 389 754 m -26 X s 416 867 m -53 X s 389 981 m -26 X s 416 1094 m -53 X s
 389 1208 m -26 X s 416 1321 m -53 X s 389 1435 m -26 X s 416 1548 m -53 X s 416 413 m -53 X s 389 300 m -26 X s 416 1548 m -53 X s
 gsave  2268 1630 0 0 C 182.329 381.751 t 0 r /Times-Roman findfont 94.0134 sf 0 0 m (0.01) show NC gr 
 gsave  2268 1630 0 0 C 131.049 381.751 t 0 r /Symbol findfont 94.0134 sf 0 0 m (-) show NC gr 
 gsave  2268 1630 0 0 C 131.049 606.814 t 0 r /Times-Roman findfont 94.0134 sf 0 0 m (0.005) show NC gr 
 gsave  2268 1630 0 0 C 79.7689 606.814 t 0 r /Symbol findfont 94.0134 sf 0 0 m (-) show NC gr 
 gsave  2268 1630 0 0 C 293.436 834.725 t 0 r /Times-Roman findfont 94.0134 sf 0 0 m (0) show NC gr 
 gsave  2268 1630 0 0 C 131.049 1062.64 t 0 r /Times-Roman findfont 94.0134 sf 0 0 m (0.005) show NC gr 
 gsave  2268 1630 0 0 C 182.329 1287.7 t 0 r /Times-Roman findfont 94.0134 sf 0 0 m (0.01) show NC gr 
 gsave  2268 1630 0 0 C 131.049 1515.61 t 0 r /Times-Roman findfont 94.0134 sf 0 0 m (0.015) show NC gr  2154 277 m 1271 Y s 2101 413 m 53 X s 2128 527 m 26 X s 2101 640 m 53 X s 2128 754 m 26 X s 2101 867 m 53 X s 2128 981 m 26 X s 2101 1094 m 53 X
 s 2128 1208 m 26 X s 2101 1321 m 53 X s 2128 1435 m 26 X s 2101 1548 m 53 X s 2101 413 m 53 X s 2128 300 m 26 X s 2101 1548 m 53 X s 0.35 0.33 0.85 c /w 36 def /w2 {w 2 div} def /w3 {w 3 div} def 1441 525 m31 1454 1207 m31 725 946 m31 917 1143 m31
 black
 gsave  2268 1630 0 0 C 598.267 1316.19 t 0 r /Times-Roman findfont 76.92 sf 0 0 m (SMEFT Run2) show NC gr 
 gsave  2268 1630 0 0 C 1227.87 1324.73 t 0 r /Times-Roman findfont 119.653 sf 0 0 m (GammaCombo) show NC gr  0.6 0.6 0.6 c black 0.6 0.6 0.6 c
 gsave  2268 1630 0 0 C 407.391 330.471 t 0 r /Times-Roman findfont 56.9778 sf 0 0 m (contours hold 68%, 95% CL) show NC gr 
 gr  gr showpage
end
%%EOF
