%!PS-Adobe-2.0 EPSF-2.0
%%BoundingBox:  0 0 567 407
%%Title: plots/eps/HGamEFTScanner_cHW:cHWt_Njets_cg_cgt.eps: EFT Run 2 Scan of cHW:~cHW: Njets only
%%Creator: ROOT Version 6.08/02
%%CreationDate: Fri Nov 30 16:53:46 2018
%%DocumentNeededResources: ProcSet (FontSetInit)
%%EndComments
%%BeginProlog
80 dict begin
/s {stroke} def /l {lineto} def /m {moveto} def /t {translate} def
/r {rotate} def /rl {roll}  def /R {repeat} def
/d {rlineto} def /rm {rmoveto} def /gr {grestore} def /f {eofill} def
/c {setrgbcolor} def /black {0 setgray} def /sd {setdash} def
/cl {closepath} def /sf {scalefont setfont} def /lw {setlinewidth} def
/box {m dup 0 exch d exch 0 d 0 exch neg d cl} def
/NC{systemdict begin initclip end}def/C{NC box clip newpath}def
/bl {box s} def /bf {gsave box gsave f grestore 1 lw [] 0 sd s grestore} def /Y { 0 exch d} def /X { 0 d} def 
/K {{pop pop 0 moveto} exch kshow} bind def
/ita {/ang 15 def gsave [1 0 ang dup sin exch cos div 1 0 0] concat} def 
/mp {newpath /y exch def /x exch def} def
/side {[w .77 mul w .23 mul] .385 w mul sd w 0 l currentpoint t -144 r} def
/mr {mp x y w2 0 360 arc} def /m24 {mr s} def /m20 {mr f} def
/mb {mp x y w2 add m w2 neg 0 d 0 w neg d w 0 d 0 w d cl} def
/mt {mp x y w2 add m w2 neg w neg d w 0 d cl} def
/m21 {mb f} def /m25 {mb s} def /m22 {mt f} def /m26{mt s} def
/m23 {mp x y w2 sub m w2 w d w neg 0 d cl f} def
/m27 {mp x y w2 add m w3 neg w2 neg d w3 w2 neg d w3 w2 d cl s} def
/m28 {mp x w2 sub y w2 sub w3 add m w3 0 d  0 w3 neg d w3 0 d 0 w3 d w3 0 d  0 w3 d w3 neg 0 d 0 w3 d w3 neg 0 d 0 w3 neg d w3 neg 0 d cl s } def
/m29 {mp gsave x w2 sub y w2 add w3 sub m currentpoint t 4 {side} repeat cl fill gr} def
/m30 {mp gsave x w2 sub y w2 add w3 sub m currentpoint t 4 {side} repeat cl s gr} def
/m31 {mp x y w2 sub m 0 w d x w2 sub y m w 0 d x w2 sub y w2 add m w w neg d x w2 sub y w2 sub m w w d s} def
/m32 {mp x y w2 sub m w2 w d w neg 0 d cl s} def
/m33 {mp x y w2 add m w3 neg w2 neg d w3 w2 neg d w3 w2 d cl f} def
/m34 {mp x w2 sub y w2 sub w3 add m w3 0 d  0 w3 neg d w3 0 d 0 w3 d w3 0 d  0 w3 d w3 neg 0 d 0 w3 d w3 neg 0 d 0 w3 neg d w3 neg 0 d cl f } def
/m2 {mp x y w2 sub m 0 w d x w2 sub y m w 0 d s} def
/m5 {mp x w2 sub y w2 sub m w w d x w2 sub y w2 add m w w neg d s} def
%%IncludeResource: ProcSet (FontSetInit)
%%IncludeResource: font Times-Roman
%%IncludeResource: font Times-Italic
%%IncludeResource: font Times-Bold
%%IncludeResource: font Times-BoldItalic
%%IncludeResource: font Helvetica
%%IncludeResource: font Helvetica-Oblique
%%IncludeResource: font Helvetica-Bold
%%IncludeResource: font Helvetica-BoldOblique
%%IncludeResource: font Courier
%%IncludeResource: font Courier-Oblique
%%IncludeResource: font Courier-Bold
%%IncludeResource: font Courier-BoldOblique
%%IncludeResource: font Symbol
%%IncludeResource: font ZapfDingbats
/reEncode {exch findfont dup length dict begin {1 index /FID eq  {pop pop} {def} ifelse } forall /Encoding exch def currentdict end dup /FontName get exch definefont pop } def [/Times-Bold /Times-Italic /Times-BoldItalic /Helvetica /Helvetica-Oblique
 /Helvetica-Bold /Helvetica-BoldOblique /Courier /Courier-Oblique /Courier-Bold /Courier-BoldOblique /Times-Roman /AvantGarde-Book /AvantGarde-BookOblique /AvantGarde-Demi /AvantGarde-DemiOblique /Bookman-Demi /Bookman-DemiItalic /Bookman-Light
 /Bookman-LightItalic /Helvetica-Narrow /Helvetica-Narrow-Bold /Helvetica-Narrow-BoldOblique /Helvetica-Narrow-Oblique /NewCenturySchlbk-Roman /NewCenturySchlbk-Bold /NewCenturySchlbk-BoldItalic /NewCenturySchlbk-Italic /Palatino-Bold
 /Palatino-BoldItalic /Palatino-Italic /Palatino-Roman ] {ISOLatin1Encoding reEncode } forall
%%EndProlog
%%BeginSetup
%%EndSetup
newpath  gsave  .25 .25 scale  gsave  0 0 t black[  ] 0 sd 3 lw 1 1 1 c 2268 1630 0 0 bf black 1 1 1 c 1791 1271 363 277 bf black 1791 1271 363 277 bl 1 1 1 c 1791 1271 363 277 bf black 1791 1271 363 277 bl 363 277 m 1791 X s
 gsave  2268 1630 0 0 C 2113.88 51.28 t 0 r /Times-Roman findfont 79.7689 sf 0 0 m (g) show NC gr 
 gsave  2268 1630 0 0 C 2062.6 76.92 t 0 r /Times-Roman findfont 119.653 sf 0 0 m (c) show NC gr  6 lw 2063 142 m 51 X s 3 lw 363 277 m 1271 Y s
 gsave  2268 1630 0 0 C 145.293 1509.91 t 90 r /Times-Roman findfont 79.7689 sf 0 0 m (g) show NC gr 
 gsave  2268 1630 0 0 C 119.653 1458.63 t 90 r /Times-Roman findfont 119.653 sf 0 0 m (c) show NC gr 
 gsave  2268 1630 0 0 C 76.92 1484.27 t 90 r  -32 0 t /Times-Roman findfont 119.653 sf 0 0 m (~) show NC gr  0.827451 0.913725 1 c black 0.827451 0.913725 1 c 950 1236 m -4 -3 d 4 -2 d 3 2 d 6 -4 d -3 -2 d 3 -2 d 2 2 d 6 -4 d -2 -2 d 2 -2 d 3 2 d 6
 -5 d -2 -2 d 2 -1 d 3 1 d 6 -4 d -2 -2 d 2 -2 d 3 2 d 6 -5 d -2 -1 d 2 -2 d 3 2 d 6 -5 d -2 -2 d 2 -1 d 2 1 d 7 -5 d -1 -1 d 1 -1 d 2 1 d 7 -5 d -1 -1 d 1 -1 d 2 1 d 7 -6 d -1 -1 d 2 X 8 -6 d -251 Y -672 X 626 Y 1783 X -1265 Y -1783 X 632 Y 815 X 9
 -2 d 1 -1 d 1 -6 d 2 -6 d 4 -7 d 1 -1 d 5 -5 d 4 -4 d 4 -2 d 5 -4 d 8 -3 d 1 X 9 -4 d 9 -1 d 9 -1 d 9 X 9 1 d 9 1 d 9 2 d 9 -1 d 5 3 d 4 2 d 6 5 d 3 2 d 4 4 d -2 6 d 3 7 d 2 6 d 1 6 d 120 32 d 6 X 9 -1 d 1 1 d 7 Y 1 6 d 6 Y -2 1 d 188 158 d 9 6 d 1
 X -1 1 d 8 6 d 1 -1 d 1 1 d -1 X 8 6 d 1 -1 d 1 1 d -1 1 d 8 6 d 1 -2 d 2 2 d -2 1 d 7 5 d 2 -1 d 2 1 d -2 1 d 7 5 d 2 -1 d 2 1 d -2 2 d 7 5 d 2 -2 d 2 2 d -2 1 d 6 5 d 3 -2 d 2 2 d -2 2 d 6 4 d 3 -2 d 2 2 d -2 2 d -3 -2 d -6 -4 d -3 -2 d -6 -5 d -2
 -1 d -7 -5 d -2 -2 d -7 -5 d -2 -1 d -7 -5 d -1 -1 d -8 -6 d -1 -1 d -8 -6 d -1 X -8 -6 d -1 Y -9 -6 d -188 -158 d -1 -1 d -8 -5 d -9 -1 d -2 X 2 -5 d 1 -1 d 2 -7 d -120 -32 d -8 5 d -9 1 d -9 X -9 1 d -43 X 43 X 9 1 d 9 3 d 3 2 d 5 6 d -3 7 d -5 4
 d -2 2 d -7 5 d -3 2 d -6 3 d -9 3 d -2 X -7 2 d -9 1 d -9 X -9 -1 d -8 -2 d -1 X -9 -3 d -7 -3 d -2 -2 d -7 -5 d -2 -1 d -5 -5 d -3 -7 d 4 -6 d -5 -2 d -9 -1 d -152 X 251 Y 1 X -1 X -8 6 d -1 1 d -7 6 d -2 1 d -7 5 d -2 1 d -7 5 d -2 2 d -6 5 d -3
 1 d -6 5 d -3 2 d -6 4 d -3 2 d -6 5 d -3 2 d -6 4 d -2 2 d -6 4 d -3 3 d -6 4 d -3 2 d -4 -2 d 4 -2 d 3 2 d f 0.35 0.33 0.85 c 6 lw 0.884975 0.752825 0.292488 c black 0.35 0.33 0.85 c 1021 1545 m 1129 X -1265 Y -1783 X 632 Y 815 X 9 -2 d 1 -1 d 1
 -6 d 2 -6 d 4 -7 d 1 -1 d 5 -5 d 4 -4 d 4 -2 d 5 -4 d 8 -3 d 1 X 9 -4 d 9 -1 d 9 -1 d 9 X 9 1 d 9 1 d 9 2 d 9 -1 d 5 3 d 4 2 d 6 5 d 3 2 d 4 4 d -2 6 d 3 7 d 2 6 d 1 6 d -8 5 d -9 1 d -9 X -9 1 d -43 X 43 X 9 1 d 9 3 d 3 2 d 5 6 d -3 7 d -5 4 d -2 2
 d -7 5 d -3 2 d -6 3 d -9 3 d -2 X -7 2 d -9 1 d -9 X -9 -1 d -8 -2 d -1 X -9 -3 d -7 -3 d -2 -2 d -7 -5 d -2 -1 d -5 -5 d -3 -7 d 4 -6 d -5 -2 d -9 -1 d -824 X 626 Y 654 X cl s 0.884975 0.752825 0.292488 c black 0.35 0.33 0.85 c 1459 960 m -8 -5 d
 -9 -1 d -2 X 2 -5 d 1 -1 d 2 -7 d 6 X 9 -1 d 1 1 d 7 Y 1 6 d 6 Y -2 1 d -1 -1 d cl s 0.884975 0.752825 0.292488 c black 0.35 0.33 0.85 c 1648 1119 m cl s 0.884975 0.752825 0.292488 c black 0.35 0.33 0.85 c 1657 1126 m -1 Y 1 X -1 1 d cl s 0.884975
 0.752825 0.292488 c black 0.35 0.33 0.85 c 1666 1132 m -1 X 1 -1 d 1 1 d -1 X cl s 0.884975 0.752825 0.292488 c black 0.35 0.33 0.85 c 1675 1139 m -1 -1 d 1 -1 d 1 1 d -1 1 d cl s 0.884975 0.752825 0.292488 c black 0.35 0.33 0.85 c 1684 1146 m -1 -1
 d 1 -2 d 2 2 d -2 1 d cl s 0.884975 0.752825 0.292488 c black 0.35 0.33 0.85 c 1693 1152 m -2 -1 d 2 -1 d 2 1 d -2 1 d cl s 0.884975 0.752825 0.292488 c black 0.35 0.33 0.85 c 1702 1159 m -2 -2 d 2 -1 d 2 1 d -2 2 d cl s 0.884975 0.752825 0.292488 c
 black 0.35 0.33 0.85 c 1711 1165 m -2 -1 d 2 -2 d 2 2 d -2 1 d cl s 0.884975 0.752825 0.292488 c black 0.35 0.33 0.85 c 1039 1170 m 1 X -1 X cl s 0.884975 0.752825 0.292488 c black 0.35 0.33 0.85 c 1720 1172 m -3 -2 d 3 -2 d 2 2 d -2 2 d cl s
 0.884975 0.752825 0.292488 c black 0.35 0.33 0.85 c 1030 1177 m -1 -1 d 2 X -1 1 d cl s 0.884975 0.752825 0.292488 c black 0.35 0.33 0.85 c 1729 1178 m -3 -2 d 3 -2 d 2 2 d -2 2 d cl s 0.884975 0.752825 0.292488 c black 0.35 0.33 0.85 c 1021 1184 m
 -1 -1 d 1 -1 d 2 1 d -2 1 d cl s 0.884975 0.752825 0.292488 c black 0.35 0.33 0.85 c 1012 1190 m -1 -1 d 1 -1 d 2 1 d -2 1 d cl s 0.884975 0.752825 0.292488 c black 0.35 0.33 0.85 c 1003 1197 m -2 -2 d 2 -1 d 2 1 d -2 2 d cl s 0.884975 0.752825
 0.292488 c black 0.35 0.33 0.85 c 994 1203 m -2 -1 d 2 -2 d 3 2 d -3 1 d cl s 0.884975 0.752825 0.292488 c black 0.35 0.33 0.85 c 985 1210 m -2 -2 d 2 -2 d 3 2 d -3 2 d cl s 0.884975 0.752825 0.292488 c black 0.35 0.33 0.85 c 976 1216 m -2 -2 d 2 -1
 d 3 1 d -3 2 d cl s 0.884975 0.752825 0.292488 c black 0.35 0.33 0.85 c 967 1223 m -2 -2 d 2 -2 d 3 2 d -3 2 d cl s 0.884975 0.752825 0.292488 c black 0.35 0.33 0.85 c 959 1229 m -3 -2 d 3 -2 d 2 2 d -2 2 d cl s 0.884975 0.752825 0.292488 c black
 0.35 0.33 0.85 c 950 1236 m -4 -3 d 4 -2 d 3 2 d -3 3 d cl s 0.884975 0.752825 0.292488 c black 0.35 0.33 0.85 c 941 1242 m -4 -2 d 4 -2 d 3 2 d -3 2 d cl s black 3 lw 0.745098 0.905882 0.992157 c black 0.745098 0.905882 0.992157 c 950 1239 m -8 -6
 d 8 -5 d 7 5 d 2 -1 d -8 -5 d 8 -5 d 7 5 d 1 -1 d -7 -5 d 7 -5 d 8 5 d 1 -1 d -7 -6 d 7 -5 d 8 5 d 1 -1 d -7 -5 d 7 -5 d 8 5 d 1 -1 d -7 -5 d 7 -5 d 8 5 d 1 -2 d -7 -5 d 7 -5 d 8 5 d 1 -1 d -7 -5 d 7 -5 d 7 5 d 2 -1 d -7 -5 d 7 -5 d 7 5 d 2 -2 d -7
 -5 d 7 -5 d 7 5 d 2 -1 d -7 -5 d 7 -5 d 7 5 d 2 -2 d -7 -4 d 7 -5 d 7 5 d 2 -2 d -7 -5 d 7 -4 d 3 -2 d 6 -5 d 3 -1 d 6 -5 d 3 -2 d 6 -4 d 6 4 d 3 -2 d -6 -4 d 6 -4 d 5 4 d 4 -3 d -5 -4 d 5 -3 d 5 -3 d 4 -3 d 6 -3 d 3 -2 d 7 -5 d 2 X 50 -38 d 3 -2 d
 8 -4 d 1 -1 d 2 1 d 43 -27 d -7 -5 d 7 -5 d 3 -1 d 6 -5 d 3 -2 d 6 -4 d 6 4 d 3 -2 d -5 -4 d 5 -3 d 5 -3 d 4 -3 d 8 -4 d 1 X 9 -3 d 9 -2 d 5 -1 d 4 -1 d 9 -3 d 5 -2 d 4 -2 d 8 -5 d 1 X 9 -6 d 8 -6 d 1 -1 d 4 1 d 5 X 6 -7 d 3 -3 d 2 -3 d 4 -6 d 3 -5
 d 8 -1 d 2 -1 d 2 -6 d 2 -7 d 1 -6 d 1 -6 d -7 Y -6 -6 d -51 -6 d -4 3 d -2 3 d 13 Y -7 4 d -7 -4 d -2 -1 d -9 1 d -56 X 47 X 9 1 d 9 5 d 8 6 d -4 7 d -4 4 d -2 2 d -7 6 d -1 1 d -8 5 d -3 1 d -6 3 d -9 2 d -6 1 d -3 1 d -9 1 d -9 X -9 -1 d -3 -1 d
 -6 X -9 -3 d -6 -3 d -3 -1 d -8 -5 d -1 -1 d -7 -6 d -2 -1 d -5 -5 d -3 -7 d 8 -6 d -9 -1 d -824 X 624 Y 1783 X -1265 Y -1783 X 630 Y 815 X 2 -1 d -6 Y 2 -6 d 5 -7 d 4 -6 d 5 -5 d 2 -1 d 7 -5 d 3 -2 d 6 -4 d 9 -2 d 9 -4 d 9 -1 d 9 -1 d 9 X 9 1 d 4
 -1 d 5 -3 d 9 2 d 1 1 d 8 1 d 9 4 d 2 1 d 7 4 d 3 2 d 6 5 d 1 2 d 6 6 d 2 6 d 4 7 d 51 6 d 4 -6 d 3 -3 d 4 -4 d 5 -3 d 5 3 d 4 3 d 5 4 d 25 Y 4 2 d 18 X 7 4 d 7 Y 2 1 d 9 X 7 5 d 49 X 7 -1 d 9 -1 d 9 -1 d 9 X 4 3 d -4 3 d -9 X -9 -1 d -9 -1 d -7 -1
 d -49 X 19 Y -7 5 d 18 33 d 1 X 8 4 d 3 3 d -3 2 d 5 4 d 4 -3 d 4 3 d 59 43 d 2 2 d 7 4 d 3 2 d -3 2 d 4 4 d 5 -3 d 4 3 d -4 3 d 4 4 d 5 -4 d 4 4 d -4 3 d 3 3 d 5 -4 d 6 4 d -6 4 d 4 2 d 5 -4 d 6 4 d -6 4 d 3 3 d 6 -5 d 6 5 d -6 4 d 3 2 d 6 -4 d 7 4
 d -7 4 d 3 2 d 6 -4 d 7 4 d -7 5 d 3 2 d 6 -5 d 7 5 d -7 4 d 3 2 d 6 -5 d 7 5 d -7 5 d 2 1 d 7 -4 d 7 4 d -7 5 d 2 2 d 7 -5 d 7 5 d -7 5 d 2 1 d 7 -5 d 7 5 d -7 5 d 2 2 d 7 -6 d 7 6 d -7 5 d 2 1 d 7 -5 d 7 5 d -7 5 d 2 1 d 7 -5 d 7 5 d -7 5 d 2 2 d
 7 -6 d 7 6 d -7 5 d 2 1 d 7 -5 d 7 5 d -7 5 d 1 1 d 8 -5 d 7 5 d -7 6 d -8 -6 d -1 -1 d -7 -5 d -2 -1 d -7 -5 d -2 -2 d -7 -5 d -2 -1 d -7 -5 d -2 -1 d -7 -5 d -2 -2 d -7 -5 d -2 -1 d -7 -5 d -2 -2 d -7 -5 d -2 -1 d -6 -5 d -3 -2 d -6 -4 d -3 -2 d
 -6 -5 d -3 -2 d -6 -4 d -3 -2 d -6 -4 d -3 -3 d -5 -4 d -4 -2 d -5 -4 d -3 -3 d -5 -3 d -4 -4 d -5 -3 d -4 -4 d -4 -2 d 4 -2 d -7 -4 d -2 1 d -2 -1 d 2 -2 d -59 -43 d -4 3 d -4 -3 d -5 -4 d -3 -2 d 3 -3 d -8 -4 d -1 1 d -1 -1 d 1 X -18 -33 d -7 -5 d
 -2 -1 d -9 X -2 1 d 7 Y -7 4 d -6 -4 d -3 -2 d -6 -5 d -3 -2 d -5 -4 d -4 -3 d -9 -1 d -9 X -6 4 d -2 2 d -7 -2 d -2 3 d 1 3 d 1 7 d 2 6 d 1 6 d 1 7 d -6 4 d 26 35 d 2 5 d -2 1 d -1 -1 d 1 -5 d -26 -35 d -9 -1 d -5 -3 d -4 -4 d -9 -1 d -6 5 d 1 6 d
 -4 3 d -4 3 d -5 4 d -9 -1 d -4 4 d -5 3 d -18 X -4 3 d -5 4 d -18 X -3 2 d -6 5 d -6 -5 d -3 2 d 6 5 d -6 4 d -6 -4 d -3 1 d 7 5 d -7 5 d -43 27 d -2 1 d -1 -1 d -8 4 d 4 2 d -4 3 d -3 -3 d -50 38 d 1 X -1 1 d -2 -1 d -7 5 d 3 2 d -3 2 d -3 -2 d -6
 3 d 4 3 d -4 3 d -4 -3 d -5 3 d 5 3 d -5 4 d -4 3 d -5 4 d -3 2 d -6 4 d -6 -4 d -3 2 d 6 5 d -6 4 d -6 -4 d -3 1 d 6 5 d -6 4 d -6 -4 d -3 2 d 7 4 d -7 5 d -2 2 d -7 4 d -2 2 d -7 5 d -2 1 d -7 5 d -2 2 d -7 5 d -2 1 d -7 5 d -1 1 d -8 5 d -1 2 d
 -8 5 d -1 1 d -8 5 d -1 1 d -8 6 d -1 1 d -8 5 d -1 1 d -7 5 d -2 1 d -7 6 d -2 1 d -7 5 d -8 -5 d 8 -5 d 7 5 d f black 0.0941176 0.666667 0.905882 c black 0.0941176 0.666667 0.905882 c 1 lw << /PatternType 1 /PaintType 2 /TilingType 1 /BBox [ 0 0
 100 100 ] /XStep 100 /YStep 100 /PaintProc { begin gsave 0 100 m 100 0 l s gr end } >> [ 0.24 0 0 0.24 0 0 ] makepattern /P05 exch def /cs {[/Pattern /DeviceRGB] setcolorspace} def /FA {f [/DeviceRGB] setcolorspace} def cs 0.0941176 0.666667
 0.905882 P05 setcolor 950 1239 m -8 -6 d 8 -5 d 7 5 d 2 -1 d -8 -5 d 8 -5 d 7 5 d 1 -1 d -7 -5 d 7 -5 d 8 5 d 1 -1 d -7 -6 d 7 -5 d 8 5 d 1 -1 d -7 -5 d 7 -5 d 8 5 d 1 -1 d -7 -5 d 7 -5 d 8 5 d 1 -2 d -7 -5 d 7 -5 d 8 5 d 1 -1 d -7 -5 d 7 -5 d 7 5 d
 2 -1 d -7 -5 d 7 -5 d 7 5 d 2 -2 d -7 -5 d 7 -5 d 7 5 d 2 -1 d -7 -5 d 7 -5 d 7 5 d 2 -2 d -7 -4 d 7 -5 d 7 5 d 2 -2 d -7 -5 d 7 -4 d 3 -2 d 6 -5 d 3 -1 d 6 -5 d 3 -2 d 6 -4 d 6 4 d 3 -2 d -6 -4 d 6 -4 d 5 4 d 4 -3 d -5 -4 d 5 -3 d 5 -3 d 4 -3 d 6
 -3 d 3 -2 d 7 -5 d 2 X 50 -38 d 3 -2 d 8 -4 d 1 -1 d 2 1 d 43 -27 d -7 -5 d 7 -5 d 3 -1 d 6 -5 d 3 -2 d 6 -4 d 6 4 d 3 -2 d -5 -4 d 5 -3 d 5 -3 d 4 -3 d 8 -4 d 1 X 9 -3 d 9 -2 d 5 -1 d 4 -1 d 9 -3 d 5 -2 d 4 -2 d 8 -5 d 1 X 9 -6 d 8 -6 d 1 -1 d 4 1
 d 5 X 6 -7 d 3 -3 d 2 -3 d 4 -6 d 3 -5 d 8 -1 d 2 -1 d 2 -6 d 2 -7 d 1 -6 d 1 -6 d -7 Y -6 -6 d -51 -6 d -4 3 d -2 3 d 13 Y -7 4 d -7 -4 d -2 -1 d -9 1 d -56 X 47 X 9 1 d 9 5 d 8 6 d -4 7 d -4 4 d -2 2 d -7 6 d -1 1 d -8 5 d -3 1 d -6 3 d -9 2 d -6
 1 d -3 1 d -9 1 d -9 X -9 -1 d -3 -1 d -6 X -9 -3 d -6 -3 d -3 -1 d -8 -5 d -1 -1 d -7 -6 d -2 -1 d -5 -5 d -3 -7 d 8 -6 d -9 -1 d -824 X 624 Y 1783 X -1265 Y -1783 X 630 Y 815 X 2 -1 d -6 Y 2 -6 d 5 -7 d 4 -6 d 5 -5 d 2 -1 d 7 -5 d 3 -2 d 6 -4 d 9
 -2 d 9 -4 d 9 -1 d 9 -1 d 9 X 9 1 d 4 -1 d 5 -3 d 9 2 d 1 1 d 8 1 d 9 4 d 2 1 d 7 4 d 3 2 d 6 5 d 1 2 d 6 6 d 2 6 d 4 7 d 51 6 d 4 -6 d 3 -3 d 4 -4 d 5 -3 d 5 3 d 4 3 d 5 4 d 25 Y 4 2 d 18 X 7 4 d 7 Y 2 1 d 9 X 7 5 d 49 X 7 -1 d 9 -1 d 9 -1 d 9 X 4
 3 d -4 3 d -9 X -9 -1 d -9 -1 d -7 -1 d -49 X 19 Y -7 5 d 18 33 d 1 X 8 4 d 3 3 d -3 2 d 5 4 d 4 -3 d 4 3 d 59 43 d 2 2 d 7 4 d 3 2 d -3 2 d 4 4 d 5 -3 d 4 3 d -4 3 d 4 4 d 5 -4 d 4 4 d -4 3 d 3 3 d 5 -4 d 6 4 d -6 4 d 4 2 d 5 -4 d 6 4 d -6 4 d 3 3
 d 6 -5 d 6 5 d -6 4 d 3 2 d 6 -4 d 7 4 d -7 4 d 3 2 d 6 -4 d 7 4 d -7 5 d 3 2 d 6 -5 d 7 5 d -7 4 d 3 2 d 6 -5 d 7 5 d -7 5 d 2 1 d 7 -4 d 7 4 d -7 5 d 2 2 d 7 -5 d 7 5 d -7 5 d 2 1 d 7 -5 d 7 5 d -7 5 d 2 2 d 7 -6 d 7 6 d -7 5 d 2 1 d 7 -5 d 7 5 d
 -7 5 d 2 1 d 7 -5 d 7 5 d -7 5 d 2 2 d 7 -6 d 7 6 d -7 5 d 2 1 d 7 -5 d 7 5 d -7 5 d 1 1 d 8 -5 d 7 5 d -7 6 d -8 -6 d -1 -1 d -7 -5 d -2 -1 d -7 -5 d -2 -2 d -7 -5 d -2 -1 d -7 -5 d -2 -1 d -7 -5 d -2 -2 d -7 -5 d -2 -1 d -7 -5 d -2 -2 d -7 -5 d -2
 -1 d -6 -5 d -3 -2 d -6 -4 d -3 -2 d -6 -5 d -3 -2 d -6 -4 d -3 -2 d -6 -4 d -3 -3 d -5 -4 d -4 -2 d -5 -4 d -3 -3 d -5 -3 d -4 -4 d -5 -3 d -4 -4 d -4 -2 d 4 -2 d -7 -4 d -2 1 d -2 -1 d 2 -2 d -59 -43 d -4 3 d -4 -3 d -5 -4 d -3 -2 d 3 -3 d -8 -4 d
 -1 1 d -1 -1 d 1 X -18 -33 d -7 -5 d -2 -1 d -9 X -2 1 d 7 Y -7 4 d -6 -4 d -3 -2 d -6 -5 d -3 -2 d -5 -4 d -4 -3 d -9 -1 d -9 X -6 4 d -2 2 d -7 -2 d -2 3 d 1 3 d 1 7 d 2 6 d 1 6 d 1 7 d -6 4 d 26 35 d 2 5 d -2 1 d -1 -1 d 1 -5 d -26 -35 d -9 -1 d
 -5 -3 d -4 -4 d -9 -1 d -6 5 d 1 6 d -4 3 d -4 3 d -5 4 d -9 -1 d -4 4 d -5 3 d -18 X -4 3 d -5 4 d -18 X -3 2 d -6 5 d -6 -5 d -3 2 d 6 5 d -6 4 d -6 -4 d -3 1 d 7 5 d -7 5 d -43 27 d -2 1 d -1 -1 d -8 4 d 4 2 d -4 3 d -3 -3 d -50 38 d 1 X -1 1 d
 -2 -1 d -7 5 d 3 2 d -3 2 d -3 -2 d -6 3 d 4 3 d -4 3 d -4 -3 d -5 3 d 5 3 d -5 4 d -4 3 d -5 4 d -3 2 d -6 4 d -6 -4 d -3 2 d 6 5 d -6 4 d -6 -4 d -3 1 d 6 5 d -6 4 d -6 -4 d -3 2 d 7 4 d -7 5 d -2 2 d -7 4 d -2 2 d -7 5 d -2 1 d -7 5 d -2 2 d -7 5
 d -2 1 d -7 5 d -1 1 d -8 5 d -1 2 d -8 5 d -1 1 d -8 5 d -1 1 d -8 6 d -1 1 d -8 5 d -1 1 d -7 5 d -2 1 d -7 6 d -2 1 d -7 5 d -8 -5 d 8 -5 d 7 5 d FA 3 lw 0.0941176 0.666667 0.905882 c 6 lw 0.977 0.977044 0.0583656 c black 0.0941176 0.666667
 0.905882 c 959 1545 m 1191 X -1265 Y -1783 X 630 Y 815 X 2 -1 d -6 Y 2 -6 d 5 -7 d 4 -6 d 5 -5 d 2 -1 d 7 -5 d 3 -2 d 6 -4 d 9 -2 d 9 -4 d 9 -1 d 9 -1 d 9 X 9 1 d 4 -1 d 5 -3 d 9 2 d 1 1 d 8 1 d 9 4 d 2 1 d 7 4 d 3 2 d 6 5 d 1 2 d 6 6 d 2 6 d 4 7 d
 -4 3 d -2 3 d 13 Y -7 4 d -7 -4 d -2 -1 d -9 1 d -56 X 47 X 9 1 d 9 5 d 8 6 d -4 7 d -4 4 d -2 2 d -7 6 d -1 1 d -8 5 d -3 1 d -6 3 d -9 2 d -6 1 d -3 1 d -9 1 d -9 X -9 -1 d -3 -1 d -6 X -9 -3 d -6 -3 d -3 -1 d -8 -5 d -1 -1 d -7 -6 d -2 -1 d -5 -5
 d -3 -7 d 8 -6 d -9 -1 d -824 X 624 Y 592 X cl s 0.977 0.977044 0.0583656 c black 0.0941176 0.666667 0.905882 c 1433 971 m -6 -4 d -3 -2 d -6 -5 d -3 -2 d -5 -4 d -4 -3 d -9 -1 d -9 X -6 4 d -2 2 d -7 -2 d 4 -6 d 3 -5 d 8 -1 d 2 -1 d 2 -6 d 2 -7 d 1
 -6 d 1 -6 d -7 Y -6 -6 d 4 -6 d 3 -3 d 4 -4 d 5 -3 d 5 3 d 4 3 d 5 4 d 25 Y 4 2 d 18 X 7 4 d 7 Y 2 1 d 9 X 7 5 d 19 Y -7 5 d -7 -5 d -2 -1 d -9 X -2 1 d 7 Y -7 4 d cl s 0.977 0.977044 0.0583656 c black 0.0941176 0.666667 0.905882 c 1550 944 m -9 X
 -9 -1 d -9 -1 d -7 -1 d 7 -1 d 9 -1 d 9 -1 d 9 X 4 3 d -4 3 d cl s 0.977 0.977044 0.0583656 c black 0.0941176 0.666667 0.905882 c 1263 1015 m -5 -4 d 5 -3 d 5 -3 d 4 -3 d 8 -4 d 1 X 9 -3 d 9 -2 d 5 -1 d 4 -1 d 9 -3 d 5 -2 d 4 -2 d 8 -5 d 1 X 9 -6 d
 8 -6 d 1 -1 d 4 1 d 5 X 6 -7 d 3 -3 d 1 3 d 1 7 d 2 6 d 1 6 d 1 7 d -6 4 d -9 -1 d -5 -3 d -4 -4 d -9 -1 d -6 5 d 1 6 d -4 3 d -4 3 d -5 4 d -9 -1 d -4 4 d -5 3 d -18 X -4 3 d -5 4 d -18 X cl s 0.977 0.977044 0.0583656 c black 0.0941176 0.666667
 0.905882 c 1478 999 m -1 -1 d 2 X -1 1 d cl s 0.977 0.977044 0.0583656 c black 0.0941176 0.666667 0.905882 c 1487 1007 m -3 -2 d 3 -3 d 3 3 d -3 2 d cl s 0.977 0.977044 0.0583656 c black 0.0941176 0.666667 0.905882 c 1496 1014 m -4 -3 d 4 -3 d 4 3 d
 -4 3 d cl s 0.977 0.977044 0.0583656 c black 0.0941176 0.666667 0.905882 c 1254 1022 m -6 -5 d 6 -4 d 6 4 d -6 5 d cl s 0.977 0.977044 0.0583656 c black 0.0941176 0.666667 0.905882 c 1245 1028 m -6 -4 d 6 -5 d 6 5 d -6 4 d cl s 0.977 0.977044
 0.0583656 c black 0.0941176 0.666667 0.905882 c 1236 1035 m -7 -5 d 7 -5 d 7 5 d -7 5 d cl s 0.977 0.977044 0.0583656 c black 0.0941176 0.666667 0.905882 c 1397 1031 m -1 -1 d 1 -5 d 2 5 d -2 1 d cl s 0.977 0.977044 0.0583656 c black 0.0941176
 0.666667 0.905882 c 1559 1057 m -2 -1 d 2 -2 d 2 2 d -2 1 d cl s 0.977 0.977044 0.0583656 c black 0.0941176 0.666667 0.905882 c 1191 1063 m -1 -1 d 1 -1 d 2 1 d -2 1 d cl s 0.977 0.977044 0.0583656 c black 0.0941176 0.666667 0.905882 c 1568 1064 m
 -4 -2 d 4 -2 d 3 2 d -3 2 d cl s 0.977 0.977044 0.0583656 c black 0.0941176 0.666667 0.905882 c 1182 1071 m -3 -3 d 3 -2 d 4 2 d -4 3 d cl s 0.977 0.977044 0.0583656 c black 0.0941176 0.666667 0.905882 c 1577 1071 m -5 -3 d 5 -3 d 4 3 d -4 3 d cl s
 0.977 0.977044 0.0583656 c black 0.0941176 0.666667 0.905882 c 1586 1078 m -5 -3 d 5 -4 d 4 4 d -4 3 d cl s 0.977 0.977044 0.0583656 c black 0.0941176 0.666667 0.905882 c 1594 1085 m -5 -4 d 5 -4 d 6 4 d -6 4 d cl s 0.977 0.977044 0.0583656 c black
 0.0941176 0.666667 0.905882 c 1603 1091 m -5 -4 d 5 -4 d 6 4 d -6 4 d cl s 0.977 0.977044 0.0583656 c black 0.0941176 0.666667 0.905882 c 1612 1098 m -6 -4 d 6 -5 d 6 5 d -6 4 d cl s 0.977 0.977044 0.0583656 c black 0.0941176 0.666667 0.905882 c
 1621 1104 m -6 -4 d 6 -4 d 7 4 d -7 4 d cl s 0.977 0.977044 0.0583656 c black 0.0941176 0.666667 0.905882 c 1129 1107 m -2 -1 d 3 X -1 1 d cl s 0.977 0.977044 0.0583656 c black 0.0941176 0.666667 0.905882 c 1630 1111 m -6 -5 d 6 -4 d 7 4 d -7 5 d cl
 s 0.977 0.977044 0.0583656 c black 0.0941176 0.666667 0.905882 c 1120 1115 m -3 -2 d 3 -2 d 3 2 d -3 2 d cl s 0.977 0.977044 0.0583656 c black 0.0941176 0.666667 0.905882 c 1639 1117 m -6 -4 d 6 -5 d 7 5 d -7 4 d cl s 0.977 0.977044 0.0583656 c
 black 0.0941176 0.666667 0.905882 c 1111 1122 m -4 -3 d 4 -3 d 4 3 d -4 3 d cl s 0.977 0.977044 0.0583656 c black 0.0941176 0.666667 0.905882 c 1648 1124 m -6 -5 d 6 -5 d 7 5 d -7 5 d cl s 0.977 0.977044 0.0583656 c black 0.0941176 0.666667 0.905882
 c 1102 1129 m -5 -4 d 5 -3 d 5 3 d -5 4 d cl s 0.977 0.977044 0.0583656 c black 0.0941176 0.666667 0.905882 c 1657 1130 m -7 -5 d 7 -4 d 7 4 d -7 5 d cl s 0.977 0.977044 0.0583656 c black 0.0941176 0.666667 0.905882 c 1093 1136 m -6 -4 d 6 -4 d 5 4
 d -5 4 d cl s 0.977 0.977044 0.0583656 c black 0.0941176 0.666667 0.905882 c 1666 1137 m -7 -5 d 7 -5 d 7 5 d -7 5 d cl s 0.977 0.977044 0.0583656 c black 0.0941176 0.666667 0.905882 c 1084 1142 m -6 -4 d 6 -4 d 6 4 d -6 4 d cl s 0.977 0.977044
 0.0583656 c black 0.0941176 0.666667 0.905882 c 1675 1143 m -7 -5 d 7 -5 d 7 5 d -7 5 d cl s 0.977 0.977044 0.0583656 c black 0.0941176 0.666667 0.905882 c 1075 1149 m -6 -4 d 6 -5 d 6 5 d -6 4 d cl s 0.977 0.977044 0.0583656 c black 0.0941176
 0.666667 0.905882 c 1684 1150 m -7 -5 d 7 -6 d 7 6 d -7 5 d cl s 0.977 0.977044 0.0583656 c black 0.0941176 0.666667 0.905882 c 1066 1155 m -6 -4 d 6 -5 d 6 5 d -6 4 d cl s 0.977 0.977044 0.0583656 c black 0.0941176 0.666667 0.905882 c 1693 1156 m
 -7 -5 d 7 -5 d 7 5 d -7 5 d cl s 0.977 0.977044 0.0583656 c black 0.0941176 0.666667 0.905882 c 1057 1162 m -7 -5 d 7 -4 d 7 4 d -7 5 d cl s 0.977 0.977044 0.0583656 c black 0.0941176 0.666667 0.905882 c 1702 1162 m -7 -5 d 7 -5 d 7 5 d -7 5 d cl s
 0.977 0.977044 0.0583656 c black 0.0941176 0.666667 0.905882 c 1048 1168 m -7 -4 d 7 -5 d 7 5 d -7 4 d cl s 0.977 0.977044 0.0583656 c black 0.0941176 0.666667 0.905882 c 1711 1169 m -7 -5 d 7 -6 d 7 6 d -7 5 d cl s 0.977 0.977044 0.0583656 c black
 0.0941176 0.666667 0.905882 c 1039 1175 m -7 -5 d 7 -5 d 7 5 d -7 5 d cl s 0.977 0.977044 0.0583656 c black 0.0941176 0.666667 0.905882 c 1720 1175 m -7 -5 d 7 -5 d 7 5 d -7 5 d cl s 0.977 0.977044 0.0583656 c black 0.0941176 0.666667 0.905882 c
 1030 1181 m -7 -5 d 7 -5 d 7 5 d -7 5 d cl s 0.977 0.977044 0.0583656 c black 0.0941176 0.666667 0.905882 c 1729 1182 m -8 -6 d 8 -5 d 7 5 d -7 6 d cl s 0.977 0.977044 0.0583656 c black 0.0941176 0.666667 0.905882 c 1021 1188 m -7 -5 d 7 -5 d 7 5 d
 -7 5 d cl s 0.977 0.977044 0.0583656 c black 0.0941176 0.666667 0.905882 c 1012 1194 m -7 -5 d 7 -5 d 7 5 d -7 5 d cl s 0.977 0.977044 0.0583656 c black 0.0941176 0.666667 0.905882 c 1003 1200 m -7 -5 d 7 -5 d 8 5 d -8 5 d cl s 0.977 0.977044
 0.0583656 c black 0.0941176 0.666667 0.905882 c 994 1207 m -7 -5 d 7 -5 d 8 5 d -8 5 d cl s 0.977 0.977044 0.0583656 c black 0.0941176 0.666667 0.905882 c 985 1213 m -7 -5 d 7 -5 d 8 5 d -8 5 d cl s 0.977 0.977044 0.0583656 c black 0.0941176
 0.666667 0.905882 c 976 1220 m -7 -6 d 7 -5 d 8 5 d -8 6 d cl s 0.977 0.977044 0.0583656 c black 0.0941176 0.666667 0.905882 c 967 1226 m -7 -5 d 7 -5 d 8 5 d -8 5 d cl s 0.977 0.977044 0.0583656 c black 0.0941176 0.666667 0.905882 c 959 1232 m -8
 -5 d 8 -5 d 7 5 d -7 5 d cl s 0.977 0.977044 0.0583656 c black 0.0941176 0.666667 0.905882 c 950 1239 m -8 -6 d 8 -5 d 7 5 d -7 6 d cl s 0.977 0.977044 0.0583656 c black 0.0941176 0.666667 0.905882 c 941 1245 m -8 -5 d 8 -5 d 7 5 d -7 5 d cl s 0.35
 0.33 0.85 c[ 12 12] 0 sd 0.884975 0.752825 0.292488 c black 0.35 0.33 0.85 c 1021 1545 m 1129 X -1265 Y -1783 X 632 Y 815 X 9 -2 d 1 -1 d 1 -6 d 2 -6 d 4 -7 d 1 -1 d 5 -5 d 4 -4 d 4 -2 d 5 -4 d 8 -3 d 1 X 9 -4 d 9 -1 d 9 -1 d 9 X 9 1 d 9 1 d 9 2 d 9
 -1 d 5 3 d 4 2 d 6 5 d 3 2 d 4 4 d -2 6 d 3 7 d 2 6 d 1 6 d -8 5 d -9 1 d -9 X -9 1 d -43 X 43 X 9 1 d 9 3 d 3 2 d 5 6 d -3 7 d -5 4 d -2 2 d -7 5 d -3 2 d -6 3 d -9 3 d -2 X -7 2 d -9 1 d -9 X -9 -1 d -8 -2 d -1 X -9 -3 d -7 -3 d -2 -2 d -7 -5 d -2
 -1 d -5 -5 d -3 -7 d 4 -6 d -5 -2 d -9 -1 d -824 X 626 Y 654 X cl s 0.884975 0.752825 0.292488 c black 0.35 0.33 0.85 c 1459 960 m -8 -5 d -9 -1 d -2 X 2 -5 d 1 -1 d 2 -7 d 6 X 9 -1 d 1 1 d 7 Y 1 6 d 6 Y -2 1 d -1 -1 d cl s 0.884975 0.752825
 0.292488 c black 0.35 0.33 0.85 c 1648 1119 m cl s 0.884975 0.752825 0.292488 c black 0.35 0.33 0.85 c 1657 1126 m -1 Y 1 X -1 1 d cl s 0.884975 0.752825 0.292488 c black 0.35 0.33 0.85 c 1666 1132 m -1 X 1 -1 d 1 1 d -1 X cl s 0.884975 0.752825
 0.292488 c black 0.35 0.33 0.85 c 1675 1139 m -1 -1 d 1 -1 d 1 1 d -1 1 d cl s 0.884975 0.752825 0.292488 c black 0.35 0.33 0.85 c 1684 1146 m -1 -1 d 1 -2 d 2 2 d -2 1 d cl s 0.884975 0.752825 0.292488 c black 0.35 0.33 0.85 c 1693 1152 m -2 -1 d 2
 -1 d 2 1 d -2 1 d cl s 0.884975 0.752825 0.292488 c black 0.35 0.33 0.85 c 1702 1159 m -2 -2 d 2 -1 d 2 1 d -2 2 d cl s 0.884975 0.752825 0.292488 c black 0.35 0.33 0.85 c 1711 1165 m -2 -1 d 2 -2 d 2 2 d -2 1 d cl s 0.884975 0.752825 0.292488 c
 black 0.35 0.33 0.85 c 1039 1170 m 1 X -1 X cl s 0.884975 0.752825 0.292488 c black 0.35 0.33 0.85 c 1720 1172 m -3 -2 d 3 -2 d 2 2 d -2 2 d cl s 0.884975 0.752825 0.292488 c black 0.35 0.33 0.85 c 1030 1177 m -1 -1 d 2 X -1 1 d cl s 0.884975
 0.752825 0.292488 c black 0.35 0.33 0.85 c 1729 1178 m -3 -2 d 3 -2 d 2 2 d -2 2 d cl s 0.884975 0.752825 0.292488 c black 0.35 0.33 0.85 c 1021 1184 m -1 -1 d 1 -1 d 2 1 d -2 1 d cl s 0.884975 0.752825 0.292488 c black 0.35 0.33 0.85 c 1012 1190 m
 -1 -1 d 1 -1 d 2 1 d -2 1 d cl s 0.884975 0.752825 0.292488 c black 0.35 0.33 0.85 c 1003 1197 m -2 -2 d 2 -1 d 2 1 d -2 2 d cl s 0.884975 0.752825 0.292488 c black 0.35 0.33 0.85 c 994 1203 m -2 -1 d 2 -2 d 3 2 d -3 1 d cl s 0.884975 0.752825
 0.292488 c black 0.35 0.33 0.85 c 985 1210 m -2 -2 d 2 -2 d 3 2 d -3 2 d cl s 0.884975 0.752825 0.292488 c black 0.35 0.33 0.85 c 976 1216 m -2 -2 d 2 -1 d 3 1 d -3 2 d cl s 0.884975 0.752825 0.292488 c black 0.35 0.33 0.85 c 967 1223 m -2 -2 d 2 -2
 d 3 2 d -3 2 d cl s 0.884975 0.752825 0.292488 c black 0.35 0.33 0.85 c 959 1229 m -3 -2 d 3 -2 d 2 2 d -2 2 d cl s 0.884975 0.752825 0.292488 c black 0.35 0.33 0.85 c 950 1236 m -4 -3 d 4 -2 d 3 2 d -3 3 d cl s 0.884975 0.752825 0.292488 c black
 0.35 0.33 0.85 c 941 1242 m -4 -2 d 4 -2 d 3 2 d -3 2 d cl s 0.0941176 0.666667 0.905882 c 0.977 0.977044 0.0583656 c black 0.0941176 0.666667 0.905882 c 959 1545 m 1191 X -1265 Y -1783 X 630 Y 815 X 2 -1 d -6 Y 2 -6 d 5 -7 d 4 -6 d 5 -5 d 2 -1 d 7
 -5 d 3 -2 d 6 -4 d 9 -2 d 9 -4 d 9 -1 d 9 -1 d 9 X 9 1 d 4 -1 d 5 -3 d 9 2 d 1 1 d 8 1 d 9 4 d 2 1 d 7 4 d 3 2 d 6 5 d 1 2 d 6 6 d 2 6 d 4 7 d -4 3 d -2 3 d 13 Y -7 4 d -7 -4 d -2 -1 d -9 1 d -56 X 47 X 9 1 d 9 5 d 8 6 d -4 7 d -4 4 d -2 2 d -7 6 d
 -1 1 d -8 5 d -3 1 d -6 3 d -9 2 d -6 1 d -3 1 d -9 1 d -9 X -9 -1 d -3 -1 d -6 X -9 -3 d -6 -3 d -3 -1 d -8 -5 d -1 -1 d -7 -6 d -2 -1 d -5 -5 d -3 -7 d 8 -6 d -9 -1 d -824 X 624 Y 592 X cl s 0.977 0.977044 0.0583656 c black 0.0941176 0.666667
 0.905882 c 1433 971 m -6 -4 d -3 -2 d -6 -5 d -3 -2 d -5 -4 d -4 -3 d -9 -1 d -9 X -6 4 d -2 2 d -7 -2 d 4 -6 d 3 -5 d 8 -1 d 2 -1 d 2 -6 d 2 -7 d 1 -6 d 1 -6 d -7 Y -6 -6 d 4 -6 d 3 -3 d 4 -4 d 5 -3 d 5 3 d 4 3 d 5 4 d 25 Y 4 2 d 18 X 7 4 d 7 Y 2 1
 d 9 X 7 5 d 19 Y -7 5 d -7 -5 d -2 -1 d -9 X -2 1 d 7 Y -7 4 d cl s 0.977 0.977044 0.0583656 c black 0.0941176 0.666667 0.905882 c 1550 944 m -9 X -9 -1 d -9 -1 d -7 -1 d 7 -1 d 9 -1 d 9 -1 d 9 X 4 3 d -4 3 d cl s 0.977 0.977044 0.0583656 c black
 0.0941176 0.666667 0.905882 c 1263 1015 m -5 -4 d 5 -3 d 5 -3 d 4 -3 d 8 -4 d 1 X 9 -3 d 9 -2 d 5 -1 d 4 -1 d 9 -3 d 5 -2 d 4 -2 d 8 -5 d 1 X 9 -6 d 8 -6 d 1 -1 d 4 1 d 5 X 6 -7 d 3 -3 d 1 3 d 1 7 d 2 6 d 1 6 d 1 7 d -6 4 d -9 -1 d -5 -3 d -4 -4 d
 -9 -1 d -6 5 d 1 6 d -4 3 d -4 3 d -5 4 d -9 -1 d -4 4 d -5 3 d -18 X -4 3 d -5 4 d -18 X cl s 0.977 0.977044 0.0583656 c black 0.0941176 0.666667 0.905882 c 1478 999 m -1 -1 d 2 X -1 1 d cl s 0.977 0.977044 0.0583656 c black 0.0941176 0.666667
 0.905882 c 1487 1007 m -3 -2 d 3 -3 d 3 3 d -3 2 d cl s 0.977 0.977044 0.0583656 c black 0.0941176 0.666667 0.905882 c 1496 1014 m -4 -3 d 4 -3 d 4 3 d -4 3 d cl s 0.977 0.977044 0.0583656 c black 0.0941176 0.666667 0.905882 c 1254 1022 m -6 -5 d 6
 -4 d 6 4 d -6 5 d cl s 0.977 0.977044 0.0583656 c black 0.0941176 0.666667 0.905882 c 1245 1028 m -6 -4 d 6 -5 d 6 5 d -6 4 d cl s 0.977 0.977044 0.0583656 c black 0.0941176 0.666667 0.905882 c 1236 1035 m -7 -5 d 7 -5 d 7 5 d -7 5 d cl s 0.977
 0.977044 0.0583656 c black 0.0941176 0.666667 0.905882 c 1397 1031 m -1 -1 d 1 -5 d 2 5 d -2 1 d cl s 0.977 0.977044 0.0583656 c black 0.0941176 0.666667 0.905882 c 1559 1057 m -2 -1 d 2 -2 d 2 2 d -2 1 d cl s 0.977 0.977044 0.0583656 c black
 0.0941176 0.666667 0.905882 c 1191 1063 m -1 -1 d 1 -1 d 2 1 d -2 1 d cl s 0.977 0.977044 0.0583656 c black 0.0941176 0.666667 0.905882 c 1568 1064 m -4 -2 d 4 -2 d 3 2 d -3 2 d cl s 0.977 0.977044 0.0583656 c black 0.0941176 0.666667 0.905882 c
 1182 1071 m -3 -3 d 3 -2 d 4 2 d -4 3 d cl s 0.977 0.977044 0.0583656 c black 0.0941176 0.666667 0.905882 c 1577 1071 m -5 -3 d 5 -3 d 4 3 d -4 3 d cl s 0.977 0.977044 0.0583656 c black 0.0941176 0.666667 0.905882 c 1586 1078 m -5 -3 d 5 -4 d 4 4 d
 -4 3 d cl s 0.977 0.977044 0.0583656 c black 0.0941176 0.666667 0.905882 c 1594 1085 m -5 -4 d 5 -4 d 6 4 d -6 4 d cl s 0.977 0.977044 0.0583656 c black 0.0941176 0.666667 0.905882 c 1603 1091 m -5 -4 d 5 -4 d 6 4 d -6 4 d cl s 0.977 0.977044
 0.0583656 c black 0.0941176 0.666667 0.905882 c 1612 1098 m -6 -4 d 6 -5 d 6 5 d -6 4 d cl s 0.977 0.977044 0.0583656 c black 0.0941176 0.666667 0.905882 c 1621 1104 m -6 -4 d 6 -4 d 7 4 d -7 4 d cl s 0.977 0.977044 0.0583656 c black 0.0941176
 0.666667 0.905882 c 1129 1107 m -2 -1 d 3 X -1 1 d cl s 0.977 0.977044 0.0583656 c black 0.0941176 0.666667 0.905882 c 1630 1111 m -6 -5 d 6 -4 d 7 4 d -7 5 d cl s 0.977 0.977044 0.0583656 c black 0.0941176 0.666667 0.905882 c 1120 1115 m -3 -2 d 3
 -2 d 3 2 d -3 2 d cl s 0.977 0.977044 0.0583656 c black 0.0941176 0.666667 0.905882 c 1639 1117 m -6 -4 d 6 -5 d 7 5 d -7 4 d cl s 0.977 0.977044 0.0583656 c black 0.0941176 0.666667 0.905882 c 1111 1122 m -4 -3 d 4 -3 d 4 3 d -4 3 d cl s 0.977
 0.977044 0.0583656 c black 0.0941176 0.666667 0.905882 c 1648 1124 m -6 -5 d 6 -5 d 7 5 d -7 5 d cl s 0.977 0.977044 0.0583656 c black 0.0941176 0.666667 0.905882 c 1102 1129 m -5 -4 d 5 -3 d 5 3 d -5 4 d cl s 0.977 0.977044 0.0583656 c black
 0.0941176 0.666667 0.905882 c 1657 1130 m -7 -5 d 7 -4 d 7 4 d -7 5 d cl s 0.977 0.977044 0.0583656 c black 0.0941176 0.666667 0.905882 c 1093 1136 m -6 -4 d 6 -4 d 5 4 d -5 4 d cl s 0.977 0.977044 0.0583656 c black 0.0941176 0.666667 0.905882 c
 1666 1137 m -7 -5 d 7 -5 d 7 5 d -7 5 d cl s 0.977 0.977044 0.0583656 c black 0.0941176 0.666667 0.905882 c 1084 1142 m -6 -4 d 6 -4 d 6 4 d -6 4 d cl s 0.977 0.977044 0.0583656 c black 0.0941176 0.666667 0.905882 c 1675 1143 m -7 -5 d 7 -5 d 7 5 d
 -7 5 d cl s 0.977 0.977044 0.0583656 c black 0.0941176 0.666667 0.905882 c 1075 1149 m -6 -4 d 6 -5 d 6 5 d -6 4 d cl s 0.977 0.977044 0.0583656 c black 0.0941176 0.666667 0.905882 c 1684 1150 m -7 -5 d 7 -6 d 7 6 d -7 5 d cl s 0.977 0.977044
 0.0583656 c black 0.0941176 0.666667 0.905882 c 1066 1155 m -6 -4 d 6 -5 d 6 5 d -6 4 d cl s 0.977 0.977044 0.0583656 c black 0.0941176 0.666667 0.905882 c 1693 1156 m -7 -5 d 7 -5 d 7 5 d -7 5 d cl s 0.977 0.977044 0.0583656 c black 0.0941176
 0.666667 0.905882 c 1057 1162 m -7 -5 d 7 -4 d 7 4 d -7 5 d cl s 0.977 0.977044 0.0583656 c black 0.0941176 0.666667 0.905882 c 1702 1162 m -7 -5 d 7 -5 d 7 5 d -7 5 d cl s 0.977 0.977044 0.0583656 c black 0.0941176 0.666667 0.905882 c 1048 1168 m
 -7 -4 d 7 -5 d 7 5 d -7 4 d cl s 0.977 0.977044 0.0583656 c black 0.0941176 0.666667 0.905882 c 1711 1169 m -7 -5 d 7 -6 d 7 6 d -7 5 d cl s 0.977 0.977044 0.0583656 c black 0.0941176 0.666667 0.905882 c 1039 1175 m -7 -5 d 7 -5 d 7 5 d -7 5 d cl s
 0.977 0.977044 0.0583656 c black 0.0941176 0.666667 0.905882 c 1720 1175 m -7 -5 d 7 -5 d 7 5 d -7 5 d cl s 0.977 0.977044 0.0583656 c black 0.0941176 0.666667 0.905882 c 1030 1181 m -7 -5 d 7 -5 d 7 5 d -7 5 d cl s 0.977 0.977044 0.0583656 c black
 0.0941176 0.666667 0.905882 c 1729 1182 m -8 -6 d 8 -5 d 7 5 d -7 6 d cl s 0.977 0.977044 0.0583656 c black 0.0941176 0.666667 0.905882 c 1021 1188 m -7 -5 d 7 -5 d 7 5 d -7 5 d cl s 0.977 0.977044 0.0583656 c black 0.0941176 0.666667 0.905882 c
 1012 1194 m -7 -5 d 7 -5 d 7 5 d -7 5 d cl s 0.977 0.977044 0.0583656 c black 0.0941176 0.666667 0.905882 c 1003 1200 m -7 -5 d 7 -5 d 8 5 d -8 5 d cl s 0.977 0.977044 0.0583656 c black 0.0941176 0.666667 0.905882 c 994 1207 m -7 -5 d 7 -5 d 8 5 d
 -8 5 d cl s 0.977 0.977044 0.0583656 c black 0.0941176 0.666667 0.905882 c 985 1213 m -7 -5 d 7 -5 d 8 5 d -8 5 d cl s 0.977 0.977044 0.0583656 c black 0.0941176 0.666667 0.905882 c 976 1220 m -7 -6 d 7 -5 d 8 5 d -8 6 d cl s 0.977 0.977044
 0.0583656 c black 0.0941176 0.666667 0.905882 c 967 1226 m -7 -5 d 7 -5 d 8 5 d -8 5 d cl s 0.977 0.977044 0.0583656 c black 0.0941176 0.666667 0.905882 c 959 1232 m -8 -5 d 8 -5 d 7 5 d -7 5 d cl s 0.977 0.977044 0.0583656 c black 0.0941176
 0.666667 0.905882 c 950 1239 m -8 -6 d 8 -5 d 7 5 d -7 6 d cl s 0.977 0.977044 0.0583656 c black 0.0941176 0.666667 0.905882 c 941 1245 m -8 -5 d 8 -5 d 7 5 d -7 5 d cl s black[  ] 0 sd 3 lw 363 1548 m 1791 X s 363 1509 m 39 Y s 587 1529 m 19 Y s
 811 1509 m 39 Y s 1035 1529 m 19 Y s 1259 1509 m 39 Y s 1483 1529 m 19 Y s 1706 1509 m 39 Y s 1930 1529 m 19 Y s 2154 1509 m 39 Y s 363 277 m 1791 X s 363 316 m -39 Y s 587 296 m -19 Y s 811 316 m -39 Y s 1035 296 m -19 Y s 1259 316 m -39 Y s 1483
 296 m -19 Y s 1706 316 m -39 Y s 1930 296 m -19 Y s 2154 316 m -39 Y s
 gsave  2268 1630 0 0 C 367.507 190.876 t 0 r /Times-Roman findfont 94.0134 sf 0 0 m (1) show NC gr 
 gsave  2268 1630 0 0 C 316.227 190.876 t 0 r /Symbol findfont 94.0134 sf 0 0 m (-) show NC gr 
 gsave  2268 1630 0 0 C 774.898 190.876 t 0 r /Times-Roman findfont 94.0134 sf 0 0 m (0.5) show NC gr 
 gsave  2268 1630 0 0 C 726.467 190.876 t 0 r /Symbol findfont 94.0134 sf 0 0 m (-) show NC gr 
 gsave  2268 1630 0 0 C 1233.57 190.876 t 0 r /Times-Roman findfont 94.0134 sf 0 0 m (0) show NC gr 
 gsave  2268 1630 0 0 C 1646.66 190.876 t 0 r /Times-Roman findfont 94.0134 sf 0 0 m (0.5) show NC gr 
 gsave  2268 1630 0 0 C 2133.82 190.876 t 0 r /Times-Roman findfont 94.0134 sf 0 0 m (1) show NC gr  363 277 m 1271 Y s 416 277 m -53 X s 389 436 m -26 X s 416 595 m -53 X s 389 754 m -26 X s 416 913 m -53 X s 389 1071 m -26 X s 416 1230 m -53 X s
 389 1389 m -26 X s 416 1548 m -53 X s
 gsave  2268 1630 0 0 C 301.982 245.005 t 0 r /Times-Roman findfont 94.0134 sf 0 0 m (1) show NC gr 
 gsave  2268 1630 0 0 C 250.702 245.005 t 0 r /Symbol findfont 94.0134 sf 0 0 m (-) show NC gr 
 gsave  2268 1630 0 0 C 225.062 561.231 t 0 r /Times-Roman findfont 94.0134 sf 0 0 m (0.5) show NC gr 
 gsave  2268 1630 0 0 C 173.782 561.231 t 0 r /Symbol findfont 94.0134 sf 0 0 m (-) show NC gr 
 gsave  2268 1630 0 0 C 293.436 880.307 t 0 r /Times-Roman findfont 94.0134 sf 0 0 m (0) show NC gr 
 gsave  2268 1630 0 0 C 225.062 1196.53 t 0 r /Times-Roman findfont 94.0134 sf 0 0 m (0.5) show NC gr 
 gsave  2268 1630 0 0 C 301.982 1515.61 t 0 r /Times-Roman findfont 94.0134 sf 0 0 m (1) show NC gr  2154 277 m 1271 Y s 2101 277 m 53 X s 2128 436 m 26 X s 2101 595 m 53 X s 2128 754 m 26 X s 2101 913 m 53 X s 2128 1071 m 26 X s 2101 1230 m 53 X s
 2128 1389 m 26 X s 2101 1548 m 53 X s
 gsave  2268 1630 0 0 C 598.267 1324.73 t 0 r /Times-Roman findfont 76.92 sf 0 0 m (EFT Run 2 Scan of cHW:~cHW: Njets only) show NC gr 
 gsave  2268 1630 0 0 C 1227.87 1324.73 t 0 r /Times-Roman findfont 119.653 sf 0 0 m (GammaCombo) show NC gr  0.6 0.6 0.6 c black 0.6 0.6 0.6 c
 gsave  2268 1630 0 0 C 407.391 330.471 t 0 r /Times-Roman findfont 56.9778 sf 0 0 m (contours hold 39%, 87% CL) show NC gr 
 gr  gr showpage
end
%%EOF
