%!PS-Adobe-2.0 EPSF-2.0
%%BoundingBox:  0 0 567 407
%%Title: plots/eps/HGamEFTScanner_2dscan_linear_quad_exp_final_cHW:cHWt_cHW_cHWt.eps: SMEFT Run2
%%Creator: ROOT Version 6.08/02
%%CreationDate: Thu Jul 22 10:27:03 2021
%%DocumentNeededResources: ProcSet (FontSetInit)
%%EndComments
%%BeginProlog
80 dict begin
/s {stroke} def /l {lineto} def /m {moveto} def /t {translate} def
/r {rotate} def /rl {roll}  def /R {repeat} def
/d {rlineto} def /rm {rmoveto} def /gr {grestore} def /f {eofill} def
/c {setrgbcolor} def /black {0 setgray} def /sd {setdash} def
/cl {closepath} def /sf {scalefont setfont} def /lw {setlinewidth} def
/box {m dup 0 exch d exch 0 d 0 exch neg d cl} def
/NC{systemdict begin initclip end}def/C{NC box clip newpath}def
/bl {box s} def /bf {gsave box gsave f grestore 1 lw [] 0 sd s grestore} def /Y { 0 exch d} def /X { 0 d} def 
/K {{pop pop 0 moveto} exch kshow} bind def
/ita {/ang 15 def gsave [1 0 ang dup sin exch cos div 1 0 0] concat} def 
/mp {newpath /y exch def /x exch def} def
/side {[w .77 mul w .23 mul] .385 w mul sd w 0 l currentpoint t -144 r} def
/mr {mp x y w2 0 360 arc} def /m24 {mr s} def /m20 {mr f} def
/mb {mp x y w2 add m w2 neg 0 d 0 w neg d w 0 d 0 w d cl} def
/mt {mp x y w2 add m w2 neg w neg d w 0 d cl} def
/m21 {mb f} def /m25 {mb s} def /m22 {mt f} def /m26{mt s} def
/m23 {mp x y w2 sub m w2 w d w neg 0 d cl f} def
/m27 {mp x y w2 add m w3 neg w2 neg d w3 w2 neg d w3 w2 d cl s} def
/m28 {mp x w2 sub y w2 sub w3 add m w3 0 d  0 w3 neg d w3 0 d 0 w3 d w3 0 d  0 w3 d w3 neg 0 d 0 w3 d w3 neg 0 d 0 w3 neg d w3 neg 0 d cl s } def
/m29 {mp gsave x w2 sub y w2 add w3 sub m currentpoint t 4 {side} repeat cl fill gr} def
/m30 {mp gsave x w2 sub y w2 add w3 sub m currentpoint t 4 {side} repeat cl s gr} def
/m31 {mp x y w2 sub m 0 w d x w2 sub y m w 0 d x w2 sub y w2 add m w w neg d x w2 sub y w2 sub m w w d s} def
/m32 {mp x y w2 sub m w2 w d w neg 0 d cl s} def
/m33 {mp x y w2 add m w3 neg w2 neg d w3 w2 neg d w3 w2 d cl f} def
/m34 {mp x w2 sub y w2 sub w3 add m w3 0 d  0 w3 neg d w3 0 d 0 w3 d w3 0 d  0 w3 d w3 neg 0 d 0 w3 d w3 neg 0 d 0 w3 neg d w3 neg 0 d cl f } def
/m2 {mp x y w2 sub m 0 w d x w2 sub y m w 0 d s} def
/m5 {mp x w2 sub y w2 sub m w w d x w2 sub y w2 add m w w neg d s} def
%%IncludeResource: ProcSet (FontSetInit)
%%IncludeResource: font Times-Roman
%%IncludeResource: font Times-Italic
%%IncludeResource: font Times-Bold
%%IncludeResource: font Times-BoldItalic
%%IncludeResource: font Helvetica
%%IncludeResource: font Helvetica-Oblique
%%IncludeResource: font Helvetica-Bold
%%IncludeResource: font Helvetica-BoldOblique
%%IncludeResource: font Courier
%%IncludeResource: font Courier-Oblique
%%IncludeResource: font Courier-Bold
%%IncludeResource: font Courier-BoldOblique
%%IncludeResource: font Symbol
%%IncludeResource: font ZapfDingbats
/reEncode {exch findfont dup length dict begin {1 index /FID eq  {pop pop} {def} ifelse } forall /Encoding exch def currentdict end dup /FontName get exch definefont pop } def [/Times-Bold /Times-Italic /Times-BoldItalic /Helvetica /Helvetica-Oblique
 /Helvetica-Bold /Helvetica-BoldOblique /Courier /Courier-Oblique /Courier-Bold /Courier-BoldOblique /Times-Roman /AvantGarde-Book /AvantGarde-BookOblique /AvantGarde-Demi /AvantGarde-DemiOblique /Bookman-Demi /Bookman-DemiItalic /Bookman-Light
 /Bookman-LightItalic /Helvetica-Narrow /Helvetica-Narrow-Bold /Helvetica-Narrow-BoldOblique /Helvetica-Narrow-Oblique /NewCenturySchlbk-Roman /NewCenturySchlbk-Bold /NewCenturySchlbk-BoldItalic /NewCenturySchlbk-Italic /Palatino-Bold
 /Palatino-BoldItalic /Palatino-Italic /Palatino-Roman ] {ISOLatin1Encoding reEncode } forall
%%EndProlog
%%BeginSetup
%%EndSetup
newpath  gsave  .25 .25 scale  gsave  0 0 t black[  ] 0 sd 3 lw 1 1 1 c 2268 1630 0 0 bf black 1 1 1 c 1791 1271 363 277 bf black 1791 1271 363 277 bl 1 1 1 c 1791 1271 363 277 bf black 1791 1271 363 277 bl 363 277 m 1791 X s
 gsave  2268 1630 0 0 C 2019.86 25.64 t 0 r /Times-Italic findfont 79.7689 sf 0 0 m (HW) show NC gr 
 gsave  2268 1630 0 0 C 1934.4 62.6756 t 0 r /Times-Italic findfont 119.653 sf 0 0 m (C) show NC gr  6 lw 1934 151 m 86 X s 3 lw 363 277 m 1271 Y s
 gsave  2268 1630 0 0 C 170.933 1415.9 t 90 r /Times-Italic findfont 79.7689 sf 0 0 m (HW) show NC gr 
 gsave  2268 1630 0 0 C 133.898 1330.43 t 90 r /Times-Italic findfont 119.653 sf 0 0 m (C) show NC gr 
 gsave  2268 1630 0 0 C 68.3734 1373.17 t 90 r  -32 0 t /Times-Italic findfont 119.653 sf 0 0 m (~) show NC gr  0.827451 0.913725 1 c black 0.827451 0.913725 1 c 1975 1085 m 6 -18 d 6 -18 d 1 -3 d 3 -15 d 3 -19 d 3 -18 d 3 -18 d 2 -18 d 1 -18 d -55 Y
 -1 -18 d -2 -18 d -3 -18 d -3 -18 d -3 -18 d -3 -16 d -1 -3 d -6 -18 d -6 -18 d -6 -18 d -6 -18 d -1 -1 d -9 -17 d -8 -19 d -8 -17 d -1 -1 d -11 -18 d -11 -18 d -3 -5 d -10 -13 d -13 -18 d -2 -4 d -13 -15 d -13 -16 d -1 -2 d -18 -18 d -7 -7 d -11
 -11 d -14 -13 d -6 -5 d -20 -17 d -1 -1 d -24 -18 d -1 Y -26 -18 d -26 -15 d -4 -3 d -21 -12 d -12 -6 d -14 -7 d -23 -11 d -2 -1 d -26 -10 d -17 -7 d -9 -3 d -25 -8 d -22 -7 d -4 -1 d -25 -6 d -26 -6 d -25 -5 d -4 -1 d -22 -2 d -26 -3 d -25 -2 d -26
 -1 d -25 X -26 1 d -26 1 d -25 2 d -26 3 d -8 1 d -17 4 d -26 5 d -26 6 d -15 4 d -10 3 d -26 8 d -20 7 d -5 2 d -26 10 d -14 6 d -12 5 d -25 13 d -1 X -25 14 d -7 4 d -18 11 d -11 7 d -15 10 d -12 9 d -14 10 d -9 8 d -16 12 d -6 6 d -20 17 d -1 1 d
 -17 18 d -7 7 d -10 11 d -16 18 d -1 X -13 19 d -11 14 d -3 4 d -11 18 d -12 17 d -1 1 d -9 18 d -10 18 d -6 10 d -3 9 d -8 18 d -7 18 d -7 17 d -1 1 d -4 18 d -5 18 d -5 19 d -4 18 d -3 18 d -3 18 d -1 5 d -1 13 d -1 18 d -1 18 d 19 Y 1 18 d 1 18 d
 1 13 d 1 5 d 3 18 d 3 18 d 4 19 d 5 18 d 5 18 d 4 18 d 1 1 d 7 17 d 7 18 d 8 19 d 3 8 d 6 10 d 10 18 d 9 18 d 1 1 d 12 17 d 11 18 d 3 4 d 11 14 d 13 19 d 1 X 16 18 d 10 11 d 7 7 d 17 18 d 1 1 d 20 17 d 6 6 d 16 12 d 9 8 d 14 11 d 12 8 d 15 10 d 11 7
 d 18 11 d 7 4 d 25 14 d 1 1 d 25 12 d 12 5 d 14 6 d 26 10 d 5 2 d 20 7 d 26 8 d 10 4 d 15 3 d 26 6 d 26 5 d 17 4 d 8 1 d 26 3 d 25 2 d 26 1 d 26 1 d 25 X 26 -1 d 25 -2 d 26 -3 d 22 -2 d 4 -1 d 25 -5 d 26 -6 d 25 -6 d 4 X 22 -8 d 25 -8 d 9 -3 d 17 -7
 d 26 -10 d 2 -1 d 23 -11 d 14 -7 d 12 -6 d 21 -12 d 4 -3 d 26 -15 d 26 -18 d 24 -19 d 1 -1 d 20 -17 d 6 -5 d 13 -13 d 12 -11 d 7 -7 d 18 -18 d 1 -2 d 13 -16 d 13 -15 d 2 -4 d 13 -18 d 10 -13 d 3 -5 d 10 -18 d 12 -18 d 1 -1 d 8 -17 d 8 -18 d 9 -18 d
 1 -1 d 6 -18 d 6 -18 d -132 -36 d -8 18 d -1 2 d -6 16 d -8 18 d -10 18 d -1 2 d -9 17 d -12 18 d -5 6 d -8 12 d -15 18 d -2 3 d -14 15 d -12 13 d -5 5 d -20 18 d -1 1 d -21 18 d -4 3 d -20 15 d -6 4 d -22 14 d -3 2 d -26 14 d -4 2 d -22 11 d -16 7
 d -9 4 d -26 10 d -14 4 d -11 4 d -26 7 d -25 6 d -10 2 d -16 3 d -26 3 d -25 3 d -26 1 d -25 X -26 -1 d -26 -2 d -25 -3 d -26 -4 d -25 -5 d -26 -7 d -21 -7 d -5 -1 d -25 -9 d -19 -8 d -7 -3 d -25 -12 d -6 -3 d -20 -10 d -13 -8 d -13 -8 d -15 -10 d
 -10 -8 d -14 -10 d -12 -10 d -10 -9 d -15 -14 d -4 -4 d -18 -18 d -4 -4 d -12 -14 d -14 -17 d -1 Y -14 -18 d -11 -18 d -1 Y -11 -18 d -10 -18 d -5 -12 d -3 -6 d -8 -18 d -6 -18 d -6 -18 d -2 -11 d -3 -8 d -4 -18 d -3 -18 d -3 -18 d -1 -18 d -1 -18 d
 -19 Y 1 -18 d 1 -18 d 3 -18 d 3 -18 d 4 -18 d 3 -8 d 2 -10 d 6 -19 d 6 -18 d 8 -18 d 3 -6 d 5 -12 d 10 -18 d 11 -18 d 11 -19 d 14 -18 d -1 Y 14 -17 d 12 -14 d 4 -4 d 18 -18 d 4 -4 d 15 -14 d 10 -9 d 12 -10 d 14 -10 d 10 -8 d 15 -10 d 13 -8 d 13 -7 d
 20 -11 d 6 -3 d 25 -12 d 7 -3 d 19 -8 d 25 -9 d 5 -1 d 21 -7 d 26 -7 d 25 -4 d -1 Y 26 -4 d 25 -3 d 26 -2 d 26 -1 d 25 X 26 1 d 25 3 d 26 3 d 16 4 d 10 1 d 25 6 d 26 7 d 11 4 d 14 4 d 26 10 d 9 4 d 16 7 d 22 11 d 4 2 d 26 14 d 3 2 d 22 15 d 6 3 d 20
 15 d 4 3 d 21 18 d 1 1 d 20 18 d 5 5 d 12 13 d 14 15 d 2 3 d 15 18 d 8 13 d 5 5 d 12 19 d 9 16 d 1 2 d 10 18 d 8 18 d 6 16 d 1 2 d 8 18 d 5 19 d 5 18 d 4 18 d 3 18 d 3 Y 2 15 d 2 18 d 1 18 d 19 Y -1 18 d -2 18 d -2 15 d 3 Y -3 18 d -4 18 d -5 19 d
 -5 18 d f 0.35 0.33 0.85 c 6 lw 0.884975 0.752825 0.292488 c black 0.35 0.33 0.85 c 1447 1503 m 4 -1 d 25 -5 d 26 -6 d 25 -6 d 4 X 22 -8 d 25 -8 d 9 -3 d 17 -7 d 26 -10 d 2 -1 d 23 -11 d 14 -7 d 12 -6 d 21 -12 d 4 -3 d 26 -15 d 26 -18 d 24 -19 d 1
 -1 d 20 -17 d 6 -5 d 13 -13 d 12 -11 d 7 -7 d 18 -18 d 1 -2 d 13 -16 d 13 -15 d 2 -4 d 13 -18 d 10 -13 d 3 -5 d 10 -18 d 12 -18 d 1 -1 d 8 -17 d 8 -18 d 9 -18 d 1 -1 d 6 -18 d 6 -18 d 6 -18 d 6 -18 d 1 -3 d 3 -15 d 3 -19 d 3 -18 d 3 -18 d 2 -18 d 1
 -18 d -55 Y -1 -18 d -2 -18 d -3 -18 d -3 -18 d -3 -18 d -3 -16 d -1 -3 d -6 -18 d -6 -18 d -6 -18 d -6 -18 d -1 -1 d -9 -17 d -8 -19 d -8 -17 d -1 -1 d -11 -18 d -11 -18 d -3 -5 d -10 -13 d -13 -18 d -2 -4 d -13 -15 d -13 -16 d -1 -2 d -18 -18 d -7
 -7 d -11 -11 d -14 -13 d -6 -5 d -20 -17 d -1 -1 d -24 -18 d -1 Y -26 -18 d -26 -15 d -4 -3 d -21 -12 d -12 -6 d -14 -7 d -23 -11 d -2 -1 d -26 -10 d -17 -7 d -9 -3 d -25 -8 d -22 -7 d -4 -1 d -25 -6 d -26 -6 d -25 -5 d -4 -1 d -22 -2 d -26 -3 d -25
 -2 d -26 -1 d -25 X -26 1 d -26 1 d -25 2 d -26 3 d -8 1 d -17 4 d -26 5 d -26 6 d -15 4 d -10 3 d -26 8 d -20 7 d -5 2 d -26 10 d -14 6 d -12 5 d -25 13 d -1 X -25 14 d -7 4 d -18 11 d -11 7 d -15 10 d -12 9 d -14 10 d -9 8 d -16 12 d -6 6 d -20 17
 d -1 1 d -17 18 d -7 7 d -10 11 d -16 18 d -1 X -13 19 d -11 14 d -3 4 d -11 18 d -12 17 d -1 1 d -9 18 d -10 18 d -6 10 d -3 9 d -8 18 d -7 18 d -7 17 d -1 1 d -4 18 d -5 18 d -5 19 d -4 18 d -3 18 d -3 18 d -1 5 d -1 13 d -1 18 d -1 18 d 19 Y 1 18
 d 1 18 d 1 13 d 1 5 d 3 18 d 3 18 d 4 19 d 5 18 d 5 18 d 4 18 d 1 1 d 7 17 d 7 18 d 8 19 d 3 8 d 6 10 d 10 18 d 9 18 d 1 1 d 12 17 d 11 18 d 3 4 d 11 14 d 13 19 d 1 X 16 18 d 10 11 d 7 7 d 17 18 d 1 1 d 20 17 d 6 6 d 16 12 d 9 8 d 14 11 d 12 8 d 15
 10 d 11 7 d 18 11 d 7 4 d 25 14 d 1 1 d 25 12 d 12 5 d 14 6 d 26 10 d 5 2 d 20 7 d 26 8 d 10 4 d 15 3 d 26 6 d 26 5 d 17 4 d 8 1 d 26 3 d 25 2 d 26 1 d 26 1 d 25 X 26 -1 d 25 -2 d 26 -3 d 22 -2 d cl s 0.884975 0.752825 0.292488 c black 0.35 0.33
 0.85 c 1441 1376 m -16 3 d -26 3 d -25 3 d -26 1 d -25 X -26 -1 d -26 -2 d -25 -3 d -26 -4 d -25 -5 d -26 -7 d -21 -7 d -5 -1 d -25 -9 d -19 -8 d -7 -3 d -25 -12 d -6 -3 d -20 -10 d -13 -8 d -13 -8 d -15 -10 d -10 -8 d -14 -10 d -12 -10 d -10 -9 d
 -15 -14 d -4 -4 d -18 -18 d -4 -4 d -12 -14 d -14 -17 d -1 Y -14 -18 d -11 -18 d -1 Y -11 -18 d -10 -18 d -5 -12 d -3 -6 d -8 -18 d -6 -18 d -6 -18 d -2 -11 d -3 -8 d -4 -18 d -3 -18 d -3 -18 d -1 -18 d -1 -18 d -19 Y 1 -18 d 1 -18 d 3 -18 d 3 -18 d
 4 -18 d 3 -8 d 2 -10 d 6 -19 d 6 -18 d 8 -18 d 3 -6 d 5 -12 d 10 -18 d 11 -18 d 11 -19 d 14 -18 d -1 Y 14 -17 d 12 -14 d 4 -4 d 18 -18 d 4 -4 d 15 -14 d 10 -9 d 12 -10 d 14 -10 d 10 -8 d 15 -10 d 13 -8 d 13 -7 d 20 -11 d 6 -3 d 25 -12 d 7 -3 d 19 -8
 d 25 -9 d 5 -1 d 21 -7 d 26 -7 d 25 -4 d -1 Y 26 -4 d 25 -3 d 26 -2 d 26 -1 d 25 X 26 1 d 25 3 d 26 3 d 16 4 d 10 1 d 25 6 d 26 7 d 11 4 d 14 4 d 26 10 d 9 4 d 16 7 d 22 11 d 4 2 d 26 14 d 3 2 d 22 15 d 6 3 d 20 15 d 4 3 d 21 18 d 1 1 d 20 18 d 5 5
 d 12 13 d 14 15 d 2 3 d 15 18 d 8 13 d 5 5 d 12 19 d 9 16 d 1 2 d 10 18 d 8 18 d 6 16 d 1 2 d 8 18 d 5 19 d 5 18 d 4 18 d 3 18 d 3 Y 2 15 d 2 18 d 1 18 d 19 Y -1 18 d -2 18 d -2 15 d 3 Y -3 18 d -4 18 d -5 19 d -5 18 d -8 18 d -1 2 d -6 16 d -8 18 d
 -10 18 d -1 2 d -9 17 d -12 18 d -5 6 d -8 12 d -15 18 d -2 3 d -14 15 d -12 13 d -5 5 d -20 18 d -1 1 d -21 18 d -4 3 d -20 15 d -6 4 d -22 14 d -3 2 d -26 14 d -4 2 d -22 11 d -16 7 d -9 4 d -26 10 d -14 4 d -11 4 d -26 7 d -25 6 d -10 2 d cl s
 black 3 lw 0.745098 0.905882 0.992157 c black 0.745098 0.905882 0.992157 c 1978 922 m -19 Y -1 -18 d -1 -18 d -2 -18 d -3 -18 d -3 -18 d -3 -18 d -3 -15 d -1 -4 d -7 -18 d -6 -18 d -6 -18 d -5 -16 d -2 -2 d -10 -18 d -8 -19 d -6 -12 d -4 -6 d -12
 -18 d -9 -18 d -1 X -14 -18 d -11 -16 d -2 -2 d -16 -19 d -8 -8 d -9 -10 d -16 -17 d -1 -1 d -20 -18 d -5 -4 d -17 -14 d -8 -7 d -16 -11 d -10 -8 d -16 -10 d -10 -7 d -19 -12 d -6 -3 d -26 -15 d -25 -11 d -14 -7 d -12 -5 d -26 -10 d -8 -3 d -17 -5 d
 -26 -8 d -16 -5 d -9 -2 d -26 -5 d -25 -5 d -26 -5 d -12 -1 d -14 -2 d -25 -1 d -26 -1 d -51 X -26 1 d -25 3 d -1 X -25 4 d -25 4 d -26 5 d -21 5 d -5 1 d -25 8 d -26 8 d -3 1 d -22 9 d -24 9 d -2 1 d -26 12 d -10 5 d -15 9 d -18 9 d -8 5 d -21 14 d
 -4 2 d -23 16 d -3 2 d -20 16 d -6 4 d -15 14 d -10 9 d -9 9 d -17 15 d -2 3 d -16 18 d -7 8 d -8 11 d -15 18 d -3 3 d -9 15 d -13 18 d -3 5 d -7 13 d -10 18 d -9 15 d -2 4 d -6 18 d -8 18 d -8 18 d -2 3 d -4 15 d -4 18 d -4 19 d -5 18 d -4 18 d -3
 18 d -1 8 d -1 10 d -1 18 d -1 18 d 19 Y 1 18 d 1 18 d 1 10 d 1 8 d 3 18 d 4 18 d 5 19 d 4 18 d 4 18 d 4 15 d 2 3 d 8 18 d 8 18 d 6 19 d 2 3 d 9 15 d 10 18 d 7 13 d 3 5 d 13 18 d 9 15 d 3 3 d 15 18 d 8 11 d 7 8 d 16 18 d 2 3 d 17 15 d 9 9 d 10 9 d
 15 14 d 6 4 d 20 16 d 4 2 d 22 16 d 4 3 d 21 13 d 8 5 d 18 9 d 15 9 d 10 5 d 26 12 d 2 1 d 24 9 d 22 9 d 3 1 d 26 8 d 25 8 d 5 1 d 21 5 d 26 5 d 25 4 d 25 5 d 1 X 25 2 d 26 1 d 26 1 d 25 -1 d 26 -1 d 25 -1 d 14 -1 d 12 -2 d 26 -5 d 25 -5 d 26 -5 d 9
 -2 d 16 -5 d 26 -8 d 17 -5 d 8 -3 d 26 -10 d 12 -5 d 14 -7 d 25 -11 d 26 -15 d 6 -3 d 19 -12 d 10 -6 d 16 -11 d 10 -8 d 16 -11 d 8 -7 d 17 -14 d 5 -4 d 20 -18 d 1 -1 d 16 -17 d 9 -10 d 8 -8 d 16 -19 d 2 -2 d 11 -16 d 14 -18 d 1 X 9 -18 d 12 -18 d 4
 -6 d 6 -12 d 8 -18 d 10 -19 d 2 -2 d 5 -16 d 6 -18 d 6 -18 d 7 -18 d 1 -4 d 3 -14 d 3 -19 d 3 -18 d 3 -18 d 2 -18 d 1 -18 d 1 -18 d -82 X -1 18 d -1 18 d -3 18 d -3 18 d -2 8 d -2 10 d -4 19 d -5 18 d -6 18 d -9 18 d -7 18 d -8 18 d -11 17 d -1 2 d
 -9 18 d -13 18 d -2 2 d -11 16 d -15 17 d -1 1 d -15 18 d -9 10 d -8 8 d -18 16 d -3 3 d -21 18 d -2 1 d -22 17 d -3 2 d -25 16 d -1 1 d -25 15 d -5 2 d -21 12 d -15 6 d -11 6 d -25 10 d -8 3 d -18 6 d -25 8 d -17 4 d -9 2 d -25 6 d -26 5 d -26 3 d
 -25 2 d -8 X -18 1 d -25 X -26 -1 d -3 X -23 -1 d -25 -3 d -26 -4 d -25 -5 d -20 -5 d -6 -2 d -26 -6 d -25 -10 d -2 X -24 -9 d -21 -10 d -4 -2 d -26 -12 d -6 -4 d -20 -10 d -12 -8 d -13 -8 d -14 -10 d -12 -9 d -12 -9 d -13 -11 d -9 -7 d -17 -17 d -2
 -2 d -18 -18 d -6 -6 d -10 -12 d -14 -18 d -1 -2 d -13 -16 d -11 -18 d -2 -3 d -10 -15 d -10 -19 d -5 -12 d -3 -6 d -9 -18 d -7 -18 d -5 -18 d -2 -6 d -4 -12 d -6 -19 d -3 -18 d -3 -18 d -2 -18 d -2 -18 d -55 Y 2 -18 d 2 -18 d 3 -18 d 3 -18 d 6 -18
 d 4 -13 d 2 -6 d 5 -18 d 7 -18 d 9 -18 d 3 -5 d 5 -13 d 10 -18 d 10 -16 d 2 -3 d 11 -18 d 13 -16 d 1 -2 d 14 -18 d 10 -11 d 6 -7 d 18 -18 d 2 -2 d 17 -17 d 9 -7 d 13 -11 d 12 -9 d 12 -9 d 14 -9 d 13 -9 d 12 -8 d 20 -10 d 6 -4 d 26 -12 d 4 -2 d 21
 -10 d 24 -8 d 2 -1 d 25 -10 d 26 -6 d 6 -2 d 20 -5 d 25 -5 d 26 -4 d 25 -2 d 23 -2 d 3 X 26 -1 d 25 X 17 1 d 9 1 d 25 2 d 26 3 d 26 4 d 25 6 d 9 2 d 17 4 d 25 8 d 17 7 d 9 2 d 25 10 d 11 6 d 15 6 d 21 12 d 5 2 d 25 15 d 1 1 d 25 16 d 3 2 d 22 17 d 2
 1 d 21 18 d 3 3 d 18 16 d 8 8 d 9 10 d 15 18 d 1 1 d 15 17 d 11 16 d 2 2 d 13 18 d 9 19 d 1 2 d 11 16 d 8 18 d 7 18 d 9 18 d 6 18 d 5 19 d 4 18 d 2 11 d 2 7 d 3 18 d 3 18 d 1 18 d 1 18 d 19 Y f black 0.0941176 0.666667 0.905882 c black 0.0941176
 0.666667 0.905882 c 1 lw << /PatternType 1 /PaintType 2 /TilingType 1 /BBox [ 0 0 100 100 ] /XStep 100 /YStep 100 /PaintProc { begin gsave 0 100 m 100 0 l s gr end } >> [ 0.24 0 0 0.24 0 0 ] makepattern /P05 exch def /cs {[/Pattern /DeviceRGB]
 setcolorspace} def /FA {f [/DeviceRGB] setcolorspace} def cs 0.0941176 0.666667 0.905882 P05 setcolor 1978 922 m -19 Y -1 -18 d -1 -18 d -2 -18 d -3 -18 d -3 -18 d -3 -18 d -3 -15 d -1 -4 d -7 -18 d -6 -18 d -6 -18 d -5 -16 d -2 -2 d -10 -18 d -8
 -19 d -6 -12 d -4 -6 d -12 -18 d -9 -18 d -1 X -14 -18 d -11 -16 d -2 -2 d -16 -19 d -8 -8 d -9 -10 d -16 -17 d -1 -1 d -20 -18 d -5 -4 d -17 -14 d -8 -7 d -16 -11 d -10 -8 d -16 -10 d -10 -7 d -19 -12 d -6 -3 d -26 -15 d -25 -11 d -14 -7 d -12 -5 d
 -26 -10 d -8 -3 d -17 -5 d -26 -8 d -16 -5 d -9 -2 d -26 -5 d -25 -5 d -26 -5 d -12 -1 d -14 -2 d -25 -1 d -26 -1 d -51 X -26 1 d -25 3 d -1 X -25 4 d -25 4 d -26 5 d -21 5 d -5 1 d -25 8 d -26 8 d -3 1 d -22 9 d -24 9 d -2 1 d -26 12 d -10 5 d -15
 9 d -18 9 d -8 5 d -21 14 d -4 2 d -23 16 d -3 2 d -20 16 d -6 4 d -15 14 d -10 9 d -9 9 d -17 15 d -2 3 d -16 18 d -7 8 d -8 11 d -15 18 d -3 3 d -9 15 d -13 18 d -3 5 d -7 13 d -10 18 d -9 15 d -2 4 d -6 18 d -8 18 d -8 18 d -2 3 d -4 15 d -4 18 d
 -4 19 d -5 18 d -4 18 d -3 18 d -1 8 d -1 10 d -1 18 d -1 18 d 19 Y 1 18 d 1 18 d 1 10 d 1 8 d 3 18 d 4 18 d 5 19 d 4 18 d 4 18 d 4 15 d 2 3 d 8 18 d 8 18 d 6 19 d 2 3 d 9 15 d 10 18 d 7 13 d 3 5 d 13 18 d 9 15 d 3 3 d 15 18 d 8 11 d 7 8 d 16 18 d 2
 3 d 17 15 d 9 9 d 10 9 d 15 14 d 6 4 d 20 16 d 4 2 d 22 16 d 4 3 d 21 13 d 8 5 d 18 9 d 15 9 d 10 5 d 26 12 d 2 1 d 24 9 d 22 9 d 3 1 d 26 8 d 25 8 d 5 1 d 21 5 d 26 5 d 25 4 d 25 5 d 1 X 25 2 d 26 1 d 26 1 d 25 -1 d 26 -1 d 25 -1 d 14 -1 d 12 -2 d
 26 -5 d 25 -5 d 26 -5 d 9 -2 d 16 -5 d 26 -8 d 17 -5 d 8 -3 d 26 -10 d 12 -5 d 14 -7 d 25 -11 d 26 -15 d 6 -3 d 19 -12 d 10 -6 d 16 -11 d 10 -8 d 16 -11 d 8 -7 d 17 -14 d 5 -4 d 20 -18 d 1 -1 d 16 -17 d 9 -10 d 8 -8 d 16 -19 d 2 -2 d 11 -16 d 14 -18
 d 1 X 9 -18 d 12 -18 d 4 -6 d 6 -12 d 8 -18 d 10 -19 d 2 -2 d 5 -16 d 6 -18 d 6 -18 d 7 -18 d 1 -4 d 3 -14 d 3 -19 d 3 -18 d 3 -18 d 2 -18 d 1 -18 d 1 -18 d -82 X -1 18 d -1 18 d -3 18 d -3 18 d -2 8 d -2 10 d -4 19 d -5 18 d -6 18 d -9 18 d -7 18 d
 -8 18 d -11 17 d -1 2 d -9 18 d -13 18 d -2 2 d -11 16 d -15 17 d -1 1 d -15 18 d -9 10 d -8 8 d -18 16 d -3 3 d -21 18 d -2 1 d -22 17 d -3 2 d -25 16 d -1 1 d -25 15 d -5 2 d -21 12 d -15 6 d -11 6 d -25 10 d -8 3 d -18 6 d -25 8 d -17 4 d -9 2 d
 -25 6 d -26 5 d -26 3 d -25 2 d -8 X -18 1 d -25 X -26 -1 d -3 X -23 -1 d -25 -3 d -26 -4 d -25 -5 d -20 -5 d -6 -2 d -26 -6 d -25 -10 d -2 X -24 -9 d -21 -10 d -4 -2 d -26 -12 d -6 -4 d -20 -10 d -12 -8 d -13 -8 d -14 -10 d -12 -9 d -12 -9 d -13
 -11 d -9 -7 d -17 -17 d -2 -2 d -18 -18 d -6 -6 d -10 -12 d -14 -18 d -1 -2 d -13 -16 d -11 -18 d -2 -3 d -10 -15 d -10 -19 d -5 -12 d -3 -6 d -9 -18 d -7 -18 d -5 -18 d -2 -6 d -4 -12 d -6 -19 d -3 -18 d -3 -18 d -2 -18 d -2 -18 d -55 Y 2 -18 d 2
 -18 d 3 -18 d 3 -18 d 6 -18 d 4 -13 d 2 -6 d 5 -18 d 7 -18 d 9 -18 d 3 -5 d 5 -13 d 10 -18 d 10 -16 d 2 -3 d 11 -18 d 13 -16 d 1 -2 d 14 -18 d 10 -11 d 6 -7 d 18 -18 d 2 -2 d 17 -17 d 9 -7 d 13 -11 d 12 -9 d 12 -9 d 14 -9 d 13 -9 d 12 -8 d 20 -10 d
 6 -4 d 26 -12 d 4 -2 d 21 -10 d 24 -8 d 2 -1 d 25 -10 d 26 -6 d 6 -2 d 20 -5 d 25 -5 d 26 -4 d 25 -2 d 23 -2 d 3 X 26 -1 d 25 X 17 1 d 9 1 d 25 2 d 26 3 d 26 4 d 25 6 d 9 2 d 17 4 d 25 8 d 17 7 d 9 2 d 25 10 d 11 6 d 15 6 d 21 12 d 5 2 d 25 15 d 1 1
 d 25 16 d 3 2 d 22 17 d 2 1 d 21 18 d 3 3 d 18 16 d 8 8 d 9 10 d 15 18 d 1 1 d 15 17 d 11 16 d 2 2 d 13 18 d 9 19 d 1 2 d 11 16 d 8 18 d 7 18 d 9 18 d 6 18 d 5 19 d 4 18 d 2 11 d 2 7 d 3 18 d 3 18 d 1 18 d 1 18 d 19 Y FA 3 lw 0.0941176 0.666667
 0.905882 c 6 lw 0.977 0.977044 0.0583656 c black 0.0941176 0.666667 0.905882 c 1413 1485 m 12 -2 d 26 -5 d 25 -5 d 26 -5 d 9 -2 d 16 -5 d 26 -8 d 17 -5 d 8 -3 d 26 -10 d 12 -5 d 14 -7 d 25 -11 d 26 -15 d 6 -3 d 19 -12 d 10 -6 d 16 -11 d 10 -8 d 16
 -11 d 8 -7 d 17 -14 d 5 -4 d 20 -18 d 1 -1 d 16 -17 d 9 -10 d 8 -8 d 16 -19 d 2 -2 d 11 -16 d 14 -18 d 1 X 9 -18 d 12 -18 d 4 -6 d 6 -12 d 8 -18 d 10 -19 d 2 -2 d 5 -16 d 6 -18 d 6 -18 d 7 -18 d 1 -4 d 3 -14 d 3 -19 d 3 -18 d 3 -18 d 2 -18 d 1 -18 d
 1 -18 d -19 Y -1 -18 d -1 -18 d -2 -18 d -3 -18 d -3 -18 d -3 -18 d -3 -15 d -1 -4 d -7 -18 d -6 -18 d -6 -18 d -5 -16 d -2 -2 d -10 -18 d -8 -19 d -6 -12 d -4 -6 d -12 -18 d -9 -18 d -1 X -14 -18 d -11 -16 d -2 -2 d -16 -19 d -8 -8 d -9 -10 d -16
 -17 d -1 -1 d -20 -18 d -5 -4 d -17 -14 d -8 -7 d -16 -11 d -10 -8 d -16 -10 d -10 -7 d -19 -12 d -6 -3 d -26 -15 d -25 -11 d -14 -7 d -12 -5 d -26 -10 d -8 -3 d -17 -5 d -26 -8 d -16 -5 d -9 -2 d -26 -5 d -25 -5 d -26 -5 d -12 -1 d -14 -2 d -25 -1
 d -26 -1 d -51 X -26 1 d -25 3 d -1 X -25 4 d -25 4 d -26 5 d -21 5 d -5 1 d -25 8 d -26 8 d -3 1 d -22 9 d -24 9 d -2 1 d -26 12 d -10 5 d -15 9 d -18 9 d -8 5 d -21 14 d -4 2 d -23 16 d -3 2 d -20 16 d -6 4 d -15 14 d -10 9 d -9 9 d -17 15 d -2 3
 d -16 18 d -7 8 d -8 11 d -15 18 d -3 3 d -9 15 d -13 18 d -3 5 d -7 13 d -10 18 d -9 15 d -2 4 d -6 18 d -8 18 d -8 18 d -2 3 d -4 15 d -4 18 d -4 19 d -5 18 d -4 18 d -3 18 d -1 8 d -1 10 d -1 18 d -1 18 d 19 Y 1 18 d 1 18 d 1 10 d 1 8 d 3 18 d 4
 18 d 5 19 d 4 18 d 4 18 d 4 15 d 2 3 d 8 18 d 8 18 d 6 19 d 2 3 d 9 15 d 10 18 d 7 13 d 3 5 d 13 18 d 9 15 d 3 3 d 15 18 d 8 11 d 7 8 d 16 18 d 2 3 d 17 15 d 9 9 d 10 9 d 15 14 d 6 4 d 20 16 d 4 2 d 22 16 d 4 3 d 21 13 d 8 5 d 18 9 d 15 9 d 10 5 d
 26 12 d 2 1 d 24 9 d 22 9 d 3 1 d 26 8 d 25 8 d 5 1 d 21 5 d 26 5 d 25 4 d 25 5 d 1 X 25 2 d 26 1 d 26 1 d 25 -1 d 26 -1 d 25 -1 d 14 -1 d cl s 0.977 0.977044 0.0583656 c black 0.0941176 0.666667 0.905882 c 1366 1412 m -18 1 d -25 X -26 -1 d -3 X
 -23 -1 d -25 -3 d -26 -4 d -25 -5 d -20 -5 d -6 -2 d -26 -6 d -25 -10 d -2 X -24 -9 d -21 -10 d -4 -2 d -26 -12 d -6 -4 d -20 -10 d -12 -8 d -13 -8 d -14 -10 d -12 -9 d -12 -9 d -13 -11 d -9 -7 d -17 -17 d -2 -2 d -18 -18 d -6 -6 d -10 -12 d -14 -18
 d -1 -2 d -13 -16 d -11 -18 d -2 -3 d -10 -15 d -10 -19 d -5 -12 d -3 -6 d -9 -18 d -7 -18 d -5 -18 d -2 -6 d -4 -12 d -6 -19 d -3 -18 d -3 -18 d -2 -18 d -2 -18 d -55 Y 2 -18 d 2 -18 d 3 -18 d 3 -18 d 6 -18 d 4 -13 d 2 -6 d 5 -18 d 7 -18 d 9 -18 d
 3 -5 d 5 -13 d 10 -18 d 10 -16 d 2 -3 d 11 -18 d 13 -16 d 1 -2 d 14 -18 d 10 -11 d 6 -7 d 18 -18 d 2 -2 d 17 -17 d 9 -7 d 13 -11 d 12 -9 d 12 -9 d 14 -9 d 13 -9 d 12 -8 d 20 -10 d 6 -4 d 26 -12 d 4 -2 d 21 -10 d 24 -8 d 2 -1 d 25 -10 d 26 -6 d 6 -2
 d 20 -5 d 25 -5 d 26 -4 d 25 -2 d 23 -2 d 3 X 26 -1 d 25 X 17 1 d 9 1 d 25 2 d 26 3 d 26 4 d 25 6 d 9 2 d 17 4 d 25 8 d 17 7 d 9 2 d 25 10 d 11 6 d 15 6 d 21 12 d 5 2 d 25 15 d 1 1 d 25 16 d 3 2 d 22 17 d 2 1 d 21 18 d 3 3 d 18 16 d 8 8 d 9 10 d 15
 18 d 1 1 d 15 17 d 11 16 d 2 2 d 13 18 d 9 19 d 1 2 d 11 16 d 8 18 d 7 18 d 9 18 d 6 18 d 5 19 d 4 18 d 2 11 d 2 7 d 3 18 d 3 18 d 1 18 d 1 18 d 19 Y -1 18 d -1 18 d -3 18 d -3 18 d -2 8 d -2 10 d -4 19 d -5 18 d -6 18 d -9 18 d -7 18 d -8 18 d -11
 17 d -1 2 d -9 18 d -13 18 d -2 2 d -11 16 d -15 17 d -1 1 d -15 18 d -9 10 d -8 8 d -18 16 d -3 3 d -21 18 d -2 1 d -22 17 d -3 2 d -25 16 d -1 1 d -25 15 d -5 2 d -21 12 d -15 6 d -11 6 d -25 10 d -8 3 d -18 6 d -25 8 d -17 4 d -9 2 d -25 6 d -26
 5 d -26 3 d -25 2 d -8 X cl s 0.35 0.33 0.85 c[ 12 12] 0 sd 0.884975 0.752825 0.292488 c black 0.35 0.33 0.85 c 1447 1503 m 4 -1 d 25 -5 d 26 -6 d 25 -6 d 4 X 22 -8 d 25 -8 d 9 -3 d 17 -7 d 26 -10 d 2 -1 d 23 -11 d 14 -7 d 12 -6 d 21 -12 d 4 -3 d 26
 -15 d 26 -18 d 24 -19 d 1 -1 d 20 -17 d 6 -5 d 13 -13 d 12 -11 d 7 -7 d 18 -18 d 1 -2 d 13 -16 d 13 -15 d 2 -4 d 13 -18 d 10 -13 d 3 -5 d 10 -18 d 12 -18 d 1 -1 d 8 -17 d 8 -18 d 9 -18 d 1 -1 d 6 -18 d 6 -18 d 6 -18 d 6 -18 d 1 -3 d 3 -15 d 3 -19 d
 3 -18 d 3 -18 d 2 -18 d 1 -18 d -55 Y -1 -18 d -2 -18 d -3 -18 d -3 -18 d -3 -18 d -3 -16 d -1 -3 d -6 -18 d -6 -18 d -6 -18 d -6 -18 d -1 -1 d -9 -17 d -8 -19 d -8 -17 d -1 -1 d -11 -18 d -11 -18 d -3 -5 d -10 -13 d -13 -18 d -2 -4 d -13 -15 d -13
 -16 d -1 -2 d -18 -18 d -7 -7 d -11 -11 d -14 -13 d -6 -5 d -20 -17 d -1 -1 d -24 -18 d -1 Y -26 -18 d -26 -15 d -4 -3 d -21 -12 d -12 -6 d -14 -7 d -23 -11 d -2 -1 d -26 -10 d -17 -7 d -9 -3 d -25 -8 d -22 -7 d -4 -1 d -25 -6 d -26 -6 d -25 -5 d -4
 -1 d -22 -2 d -26 -3 d -25 -2 d -26 -1 d -25 X -26 1 d -26 1 d -25 2 d -26 3 d -8 1 d -17 4 d -26 5 d -26 6 d -15 4 d -10 3 d -26 8 d -20 7 d -5 2 d -26 10 d -14 6 d -12 5 d -25 13 d -1 X -25 14 d -7 4 d -18 11 d -11 7 d -15 10 d -12 9 d -14 10 d -9
 8 d -16 12 d -6 6 d -20 17 d -1 1 d -17 18 d -7 7 d -10 11 d -16 18 d -1 X -13 19 d -11 14 d -3 4 d -11 18 d -12 17 d -1 1 d -9 18 d -10 18 d -6 10 d -3 9 d -8 18 d -7 18 d -7 17 d -1 1 d -4 18 d -5 18 d -5 19 d -4 18 d -3 18 d -3 18 d -1 5 d -1 13
 d -1 18 d -1 18 d 19 Y 1 18 d 1 18 d 1 13 d 1 5 d 3 18 d 3 18 d 4 19 d 5 18 d 5 18 d 4 18 d 1 1 d 7 17 d 7 18 d 8 19 d 3 8 d 6 10 d 10 18 d 9 18 d 1 1 d 12 17 d 11 18 d 3 4 d 11 14 d 13 19 d 1 X 16 18 d 10 11 d 7 7 d 17 18 d 1 1 d 20 17 d 6 6 d 16
 12 d 9 8 d 14 11 d 12 8 d 15 10 d 11 7 d 18 11 d 7 4 d 25 14 d 1 1 d 25 12 d 12 5 d 14 6 d 26 10 d 5 2 d 20 7 d 26 8 d 10 4 d 15 3 d 26 6 d 26 5 d 17 4 d 8 1 d 26 3 d 25 2 d 26 1 d 26 1 d 25 X 26 -1 d 25 -2 d 26 -3 d 22 -2 d cl s 0.884975 0.752825
 0.292488 c black 0.35 0.33 0.85 c 1441 1376 m -16 3 d -26 3 d -25 3 d -26 1 d -25 X -26 -1 d -26 -2 d -25 -3 d -26 -4 d -25 -5 d -26 -7 d -21 -7 d -5 -1 d -25 -9 d -19 -8 d -7 -3 d -25 -12 d -6 -3 d -20 -10 d -13 -8 d -13 -8 d -15 -10 d -10 -8 d -14
 -10 d -12 -10 d -10 -9 d -15 -14 d -4 -4 d -18 -18 d -4 -4 d -12 -14 d -14 -17 d -1 Y -14 -18 d -11 -18 d -1 Y -11 -18 d -10 -18 d -5 -12 d -3 -6 d -8 -18 d -6 -18 d -6 -18 d -2 -11 d -3 -8 d -4 -18 d -3 -18 d -3 -18 d -1 -18 d -1 -18 d -19 Y 1 -18
 d 1 -18 d 3 -18 d 3 -18 d 4 -18 d 3 -8 d 2 -10 d 6 -19 d 6 -18 d 8 -18 d 3 -6 d 5 -12 d 10 -18 d 11 -18 d 11 -19 d 14 -18 d -1 Y 14 -17 d 12 -14 d 4 -4 d 18 -18 d 4 -4 d 15 -14 d 10 -9 d 12 -10 d 14 -10 d 10 -8 d 15 -10 d 13 -8 d 13 -7 d 20 -11 d 6
 -3 d 25 -12 d 7 -3 d 19 -8 d 25 -9 d 5 -1 d 21 -7 d 26 -7 d 25 -4 d -1 Y 26 -4 d 25 -3 d 26 -2 d 26 -1 d 25 X 26 1 d 25 3 d 26 3 d 16 4 d 10 1 d 25 6 d 26 7 d 11 4 d 14 4 d 26 10 d 9 4 d 16 7 d 22 11 d 4 2 d 26 14 d 3 2 d 22 15 d 6 3 d 20 15 d 4 3 d
 21 18 d 1 1 d 20 18 d 5 5 d 12 13 d 14 15 d 2 3 d 15 18 d 8 13 d 5 5 d 12 19 d 9 16 d 1 2 d 10 18 d 8 18 d 6 16 d 1 2 d 8 18 d 5 19 d 5 18 d 4 18 d 3 18 d 3 Y 2 15 d 2 18 d 1 18 d 19 Y -1 18 d -2 18 d -2 15 d 3 Y -3 18 d -4 18 d -5 19 d -5 18 d -8
 18 d -1 2 d -6 16 d -8 18 d -10 18 d -1 2 d -9 17 d -12 18 d -5 6 d -8 12 d -15 18 d -2 3 d -14 15 d -12 13 d -5 5 d -20 18 d -1 1 d -21 18 d -4 3 d -20 15 d -6 4 d -22 14 d -3 2 d -26 14 d -4 2 d -22 11 d -16 7 d -9 4 d -26 10 d -14 4 d -11 4 d -26
 7 d -25 6 d -10 2 d cl s 0.0941176 0.666667 0.905882 c 0.977 0.977044 0.0583656 c black 0.0941176 0.666667 0.905882 c 1413 1485 m 12 -2 d 26 -5 d 25 -5 d 26 -5 d 9 -2 d 16 -5 d 26 -8 d 17 -5 d 8 -3 d 26 -10 d 12 -5 d 14 -7 d 25 -11 d 26 -15 d 6 -3 d
 19 -12 d 10 -6 d 16 -11 d 10 -8 d 16 -11 d 8 -7 d 17 -14 d 5 -4 d 20 -18 d 1 -1 d 16 -17 d 9 -10 d 8 -8 d 16 -19 d 2 -2 d 11 -16 d 14 -18 d 1 X 9 -18 d 12 -18 d 4 -6 d 6 -12 d 8 -18 d 10 -19 d 2 -2 d 5 -16 d 6 -18 d 6 -18 d 7 -18 d 1 -4 d 3 -14 d 3
 -19 d 3 -18 d 3 -18 d 2 -18 d 1 -18 d 1 -18 d -19 Y -1 -18 d -1 -18 d -2 -18 d -3 -18 d -3 -18 d -3 -18 d -3 -15 d -1 -4 d -7 -18 d -6 -18 d -6 -18 d -5 -16 d -2 -2 d -10 -18 d -8 -19 d -6 -12 d -4 -6 d -12 -18 d -9 -18 d -1 X -14 -18 d -11 -16 d -2
 -2 d -16 -19 d -8 -8 d -9 -10 d -16 -17 d -1 -1 d -20 -18 d -5 -4 d -17 -14 d -8 -7 d -16 -11 d -10 -8 d -16 -10 d -10 -7 d -19 -12 d -6 -3 d -26 -15 d -25 -11 d -14 -7 d -12 -5 d -26 -10 d -8 -3 d -17 -5 d -26 -8 d -16 -5 d -9 -2 d -26 -5 d -25 -5
 d -26 -5 d -12 -1 d -14 -2 d -25 -1 d -26 -1 d -51 X -26 1 d -25 3 d -1 X -25 4 d -25 4 d -26 5 d -21 5 d -5 1 d -25 8 d -26 8 d -3 1 d -22 9 d -24 9 d -2 1 d -26 12 d -10 5 d -15 9 d -18 9 d -8 5 d -21 14 d -4 2 d -23 16 d -3 2 d -20 16 d -6 4 d
 -15 14 d -10 9 d -9 9 d -17 15 d -2 3 d -16 18 d -7 8 d -8 11 d -15 18 d -3 3 d -9 15 d -13 18 d -3 5 d -7 13 d -10 18 d -9 15 d -2 4 d -6 18 d -8 18 d -8 18 d -2 3 d -4 15 d -4 18 d -4 19 d -5 18 d -4 18 d -3 18 d -1 8 d -1 10 d -1 18 d -1 18 d 19
 Y 1 18 d 1 18 d 1 10 d 1 8 d 3 18 d 4 18 d 5 19 d 4 18 d 4 18 d 4 15 d 2 3 d 8 18 d 8 18 d 6 19 d 2 3 d 9 15 d 10 18 d 7 13 d 3 5 d 13 18 d 9 15 d 3 3 d 15 18 d 8 11 d 7 8 d 16 18 d 2 3 d 17 15 d 9 9 d 10 9 d 15 14 d 6 4 d 20 16 d 4 2 d 22 16 d 4 3
 d 21 13 d 8 5 d 18 9 d 15 9 d 10 5 d 26 12 d 2 1 d 24 9 d 22 9 d 3 1 d 26 8 d 25 8 d 5 1 d 21 5 d 26 5 d 25 4 d 25 5 d 1 X 25 2 d 26 1 d 26 1 d 25 -1 d 26 -1 d 25 -1 d 14 -1 d cl s 0.977 0.977044 0.0583656 c black 0.0941176 0.666667 0.905882 c 1366
 1412 m -18 1 d -25 X -26 -1 d -3 X -23 -1 d -25 -3 d -26 -4 d -25 -5 d -20 -5 d -6 -2 d -26 -6 d -25 -10 d -2 X -24 -9 d -21 -10 d -4 -2 d -26 -12 d -6 -4 d -20 -10 d -12 -8 d -13 -8 d -14 -10 d -12 -9 d -12 -9 d -13 -11 d -9 -7 d -17 -17 d -2 -2 d
 -18 -18 d -6 -6 d -10 -12 d -14 -18 d -1 -2 d -13 -16 d -11 -18 d -2 -3 d -10 -15 d -10 -19 d -5 -12 d -3 -6 d -9 -18 d -7 -18 d -5 -18 d -2 -6 d -4 -12 d -6 -19 d -3 -18 d -3 -18 d -2 -18 d -2 -18 d -55 Y 2 -18 d 2 -18 d 3 -18 d 3 -18 d 6 -18 d 4
 -13 d 2 -6 d 5 -18 d 7 -18 d 9 -18 d 3 -5 d 5 -13 d 10 -18 d 10 -16 d 2 -3 d 11 -18 d 13 -16 d 1 -2 d 14 -18 d 10 -11 d 6 -7 d 18 -18 d 2 -2 d 17 -17 d 9 -7 d 13 -11 d 12 -9 d 12 -9 d 14 -9 d 13 -9 d 12 -8 d 20 -10 d 6 -4 d 26 -12 d 4 -2 d 21 -10 d
 24 -8 d 2 -1 d 25 -10 d 26 -6 d 6 -2 d 20 -5 d 25 -5 d 26 -4 d 25 -2 d 23 -2 d 3 X 26 -1 d 25 X 17 1 d 9 1 d 25 2 d 26 3 d 26 4 d 25 6 d 9 2 d 17 4 d 25 8 d 17 7 d 9 2 d 25 10 d 11 6 d 15 6 d 21 12 d 5 2 d 25 15 d 1 1 d 25 16 d 3 2 d 22 17 d 2 1 d
 21 18 d 3 3 d 18 16 d 8 8 d 9 10 d 15 18 d 1 1 d 15 17 d 11 16 d 2 2 d 13 18 d 9 19 d 1 2 d 11 16 d 8 18 d 7 18 d 9 18 d 6 18 d 5 19 d 4 18 d 2 11 d 2 7 d 3 18 d 3 18 d 1 18 d 1 18 d 19 Y -1 18 d -1 18 d -3 18 d -3 18 d -2 8 d -2 10 d -4 19 d -5 18
 d -6 18 d -9 18 d -7 18 d -8 18 d -11 17 d -1 2 d -9 18 d -13 18 d -2 2 d -11 16 d -15 17 d -1 1 d -15 18 d -9 10 d -8 8 d -18 16 d -3 3 d -21 18 d -2 1 d -22 17 d -3 2 d -25 16 d -1 1 d -25 15 d -5 2 d -21 12 d -15 6 d -11 6 d -25 10 d -8 3 d -18 6
 d -25 8 d -17 4 d -9 2 d -25 6 d -26 5 d -26 3 d -25 2 d -8 X cl s black[  ] 0 sd 3 lw 363 1548 m 1791 X s 363 1509 m 39 Y s 542 1529 m 19 Y s 721 1509 m 39 Y s 900 1529 m 19 Y s 1079 1509 m 39 Y s 1259 1529 m 19 Y s 1438 1509 m 39 Y s 1617 1529 m
 19 Y s 1796 1509 m 39 Y s 1975 1529 m 19 Y s 2154 1509 m 39 Y s 363 1509 m 39 Y s 2154 1509 m 39 Y s 363 277 m 1791 X s 363 316 m -39 Y s 542 296 m -19 Y s 721 316 m -39 Y s 900 296 m -19 Y s 1079 316 m -39 Y s 1259 296 m -19 Y s 1438 316 m -39 Y s
 1617 296 m -19 Y s 1796 316 m -39 Y s 1975 296 m -19 Y s 2154 316 m -39 Y s 363 316 m -39 Y s 2154 316 m -39 Y s
 gsave  2268 1630 0 0 C 282.04 190.876 t 0 r /Times-Roman findfont 94.0134 sf 0 0 m (0.005) show NC gr 
 gsave  2268 1630 0 0 C 230.76 190.876 t 0 r /Symbol findfont 94.0134 sf 0 0 m (-) show NC gr 
 gsave  2268 1630 0 0 C 697.978 190.876 t 0 r /Times-Roman findfont 94.0134 sf 0 0 m (0) show NC gr 
 gsave  2268 1630 0 0 C 971.472 190.876 t 0 r /Times-Roman findfont 94.0134 sf 0 0 m (0.005) show NC gr 
 gsave  2268 1630 0 0 C 1356.07 190.876 t 0 r /Times-Roman findfont 94.0134 sf 0 0 m (0.01) show NC gr 
 gsave  2268 1630 0 0 C 1689.39 190.876 t 0 r /Times-Roman findfont 94.0134 sf 0 0 m (0.015) show NC gr 
 gsave  2268 1630 0 0 C 2071.14 190.876 t 0 r /Times-Roman findfont 94.0134 sf 0 0 m (0.02) show NC gr  363 277 m 1271 Y s 416 277 m -53 X s 389 436 m -26 X s 416 595 m -53 X s 389 754 m -26 X s 416 913 m -53 X s 389 1071 m -26 X s 416 1230 m -53 X s
 389 1389 m -26 X s 416 1548 m -53 X s 416 277 m -53 X s 416 1548 m -53 X s
 gsave  2268 1630 0 0 C 182.329 245.005 t 0 r /Times-Roman findfont 94.0134 sf 0 0 m (0.01) show NC gr 
 gsave  2268 1630 0 0 C 131.049 245.005 t 0 r /Symbol findfont 94.0134 sf 0 0 m (-) show NC gr 
 gsave  2268 1630 0 0 C 131.049 561.231 t 0 r /Times-Roman findfont 94.0134 sf 0 0 m (0.005) show NC gr 
 gsave  2268 1630 0 0 C 79.7689 561.231 t 0 r /Symbol findfont 94.0134 sf 0 0 m (-) show NC gr 
 gsave  2268 1630 0 0 C 293.436 880.307 t 0 r /Times-Roman findfont 94.0134 sf 0 0 m (0) show NC gr 
 gsave  2268 1630 0 0 C 131.049 1196.53 t 0 r /Times-Roman findfont 94.0134 sf 0 0 m (0.005) show NC gr 
 gsave  2268 1630 0 0 C 182.329 1515.61 t 0 r /Times-Roman findfont 94.0134 sf 0 0 m (0.01) show NC gr  2154 277 m 1271 Y s 2101 277 m 53 X s 2128 436 m 26 X s 2101 595 m 53 X s 2128 754 m 26 X s 2101 913 m 53 X s 2128 1071 m 26 X s 2101 1230 m 53 X
 s 2128 1389 m 26 X s 2101 1548 m 53 X s 2101 277 m 53 X s 2101 1548 m 53 X s 0.35 0.33 0.85 c /w 36 def /w2 {w 2 div} def /w3 {w 3 div} def 1519 1426 m31 1936 961 m31 black
 gsave  2268 1630 0 0 C 598.267 1316.19 t 0 r /Times-Roman findfont 76.92 sf 0 0 m (SMEFT Run2) show NC gr 
 gsave  2268 1630 0 0 C 1227.87 1324.73 t 0 r /Times-Roman findfont 119.653 sf 0 0 m (GammaCombo) show NC gr  0.6 0.6 0.6 c black 0.6 0.6 0.6 c
 gsave  2268 1630 0 0 C 407.391 330.471 t 0 r /Times-Roman findfont 56.9778 sf 0 0 m (contours hold 68%, 95% CL) show NC gr 
 gr  gr showpage
end
%%EOF
