%!PS-Adobe-2.0 EPSF-2.0
%%BoundingBox:  0 0 567 407
%%Title: plots/eps/HGamEFTScanner_marginal_linear_quad_exp_cHB:cHBt_cHB_cHBt.eps: SMEFT Run2
%%Creator: ROOT Version 6.08/02
%%CreationDate: Mon Jul 12 10:49:49 2021
%%DocumentNeededResources: ProcSet (FontSetInit)
%%EndComments
%%BeginProlog
80 dict begin
/s {stroke} def /l {lineto} def /m {moveto} def /t {translate} def
/r {rotate} def /rl {roll}  def /R {repeat} def
/d {rlineto} def /rm {rmoveto} def /gr {grestore} def /f {eofill} def
/c {setrgbcolor} def /black {0 setgray} def /sd {setdash} def
/cl {closepath} def /sf {scalefont setfont} def /lw {setlinewidth} def
/box {m dup 0 exch d exch 0 d 0 exch neg d cl} def
/NC{systemdict begin initclip end}def/C{NC box clip newpath}def
/bl {box s} def /bf {gsave box gsave f grestore 1 lw [] 0 sd s grestore} def /Y { 0 exch d} def /X { 0 d} def 
/K {{pop pop 0 moveto} exch kshow} bind def
/ita {/ang 15 def gsave [1 0 ang dup sin exch cos div 1 0 0] concat} def 
/mp {newpath /y exch def /x exch def} def
/side {[w .77 mul w .23 mul] .385 w mul sd w 0 l currentpoint t -144 r} def
/mr {mp x y w2 0 360 arc} def /m24 {mr s} def /m20 {mr f} def
/mb {mp x y w2 add m w2 neg 0 d 0 w neg d w 0 d 0 w d cl} def
/mt {mp x y w2 add m w2 neg w neg d w 0 d cl} def
/m21 {mb f} def /m25 {mb s} def /m22 {mt f} def /m26{mt s} def
/m23 {mp x y w2 sub m w2 w d w neg 0 d cl f} def
/m27 {mp x y w2 add m w3 neg w2 neg d w3 w2 neg d w3 w2 d cl s} def
/m28 {mp x w2 sub y w2 sub w3 add m w3 0 d  0 w3 neg d w3 0 d 0 w3 d w3 0 d  0 w3 d w3 neg 0 d 0 w3 d w3 neg 0 d 0 w3 neg d w3 neg 0 d cl s } def
/m29 {mp gsave x w2 sub y w2 add w3 sub m currentpoint t 4 {side} repeat cl fill gr} def
/m30 {mp gsave x w2 sub y w2 add w3 sub m currentpoint t 4 {side} repeat cl s gr} def
/m31 {mp x y w2 sub m 0 w d x w2 sub y m w 0 d x w2 sub y w2 add m w w neg d x w2 sub y w2 sub m w w d s} def
/m32 {mp x y w2 sub m w2 w d w neg 0 d cl s} def
/m33 {mp x y w2 add m w3 neg w2 neg d w3 w2 neg d w3 w2 d cl f} def
/m34 {mp x w2 sub y w2 sub w3 add m w3 0 d  0 w3 neg d w3 0 d 0 w3 d w3 0 d  0 w3 d w3 neg 0 d 0 w3 d w3 neg 0 d 0 w3 neg d w3 neg 0 d cl f } def
/m2 {mp x y w2 sub m 0 w d x w2 sub y m w 0 d s} def
/m5 {mp x w2 sub y w2 sub m w w d x w2 sub y w2 add m w w neg d s} def
%%IncludeResource: ProcSet (FontSetInit)
%%IncludeResource: font Times-Roman
%%IncludeResource: font Times-Italic
%%IncludeResource: font Times-Bold
%%IncludeResource: font Times-BoldItalic
%%IncludeResource: font Helvetica
%%IncludeResource: font Helvetica-Oblique
%%IncludeResource: font Helvetica-Bold
%%IncludeResource: font Helvetica-BoldOblique
%%IncludeResource: font Courier
%%IncludeResource: font Courier-Oblique
%%IncludeResource: font Courier-Bold
%%IncludeResource: font Courier-BoldOblique
%%IncludeResource: font Symbol
%%IncludeResource: font ZapfDingbats
/reEncode {exch findfont dup length dict begin {1 index /FID eq  {pop pop} {def} ifelse } forall /Encoding exch def currentdict end dup /FontName get exch definefont pop } def [/Times-Bold /Times-Italic /Times-BoldItalic /Helvetica /Helvetica-Oblique
 /Helvetica-Bold /Helvetica-BoldOblique /Courier /Courier-Oblique /Courier-Bold /Courier-BoldOblique /Times-Roman /AvantGarde-Book /AvantGarde-BookOblique /AvantGarde-Demi /AvantGarde-DemiOblique /Bookman-Demi /Bookman-DemiItalic /Bookman-Light
 /Bookman-LightItalic /Helvetica-Narrow /Helvetica-Narrow-Bold /Helvetica-Narrow-BoldOblique /Helvetica-Narrow-Oblique /NewCenturySchlbk-Roman /NewCenturySchlbk-Bold /NewCenturySchlbk-BoldItalic /NewCenturySchlbk-Italic /Palatino-Bold
 /Palatino-BoldItalic /Palatino-Italic /Palatino-Roman ] {ISOLatin1Encoding reEncode } forall
%%EndProlog
%%BeginSetup
%%EndSetup
newpath  gsave  .25 .25 scale  gsave  0 0 t black[  ] 0 sd 3 lw 1 1 1 c 2268 1630 0 0 bf black 1 1 1 c 1791 1271 363 277 bf black 1791 1271 363 277 bl 1 1 1 c 1791 1271 363 277 bf black 1791 1271 363 277 bl 363 277 m 1791 X s
 gsave  2268 1630 0 0 C 2045.5 25.64 t 0 r /Times-Italic findfont 79.7689 sf 0 0 m (HB) show NC gr 
 gsave  2268 1630 0 0 C 1960.04 59.8267 t 0 r /Times-Italic findfont 119.653 sf 0 0 m (C) show NC gr  6 lw 1960 148 m 86 X s 3 lw 363 277 m 1271 Y s
 gsave  2268 1630 0 0 C 170.933 1441.54 t 90 r /Times-Italic findfont 79.7689 sf 0 0 m (HB) show NC gr 
 gsave  2268 1630 0 0 C 136.747 1356.07 t 90 r /Times-Italic findfont 119.653 sf 0 0 m (C) show NC gr 
 gsave  2268 1630 0 0 C 71.2223 1398.81 t 90 r  -32 0 t /Times-Italic findfont 119.653 sf 0 0 m (~) show NC gr  0.827451 0.913725 1 c black 0.827451 0.913725 1 c 1939 1027 m 11 -25 d 7 -22 d 1 -4 d 4 -25 d 2 -26 d -25 Y -2 -26 d -4 -25 d -1 -4 d -7
 -21 d -11 -26 d -11 -25 d -7 -13 d -9 -13 d -18 -25 d -8 -12 d -13 -14 d -23 -25 d -30 -25 d -6 -5 d -28 -21 d -8 -5 d -31 -20 d -5 -3 d -36 -19 d -6 -4 d -29 -12 d -27 -13 d -9 -3 d -36 -13 d -26 -9 d -10 -3 d -36 -9 d -36 -9 d -19 -5 d -16 -3 d
 -36 -4 d -36 -5 d -36 -3 d -36 -3 d -36 -1 d -35 -1 d -36 2 d -36 2 d -36 4 d -36 4 d -35 5 d -22 3 d -14 4 d -36 9 d -36 9 d -14 4 d -22 8 d -36 12 d -13 5 d -22 10 d -36 15 d -36 21 d -9 5 d -27 17 d -12 8 d -24 18 d -10 8 d -26 21 d -4 4 d -24 25
 d -7 8 d -14 18 d -19 25 d -3 5 d -11 21 d -12 25 d -12 26 d -1 3 d -5 22 d -4 25 d -2 26 d 25 Y 2 26 d 4 25 d 5 22 d 1 4 d 12 25 d 12 25 d 11 21 d 3 5 d 19 25 d 14 18 d 7 8 d 24 25 d 4 4 d 26 21 d 10 9 d 24 17 d 12 8 d 27 17 d 9 5 d 36 21 d 36 15 d
 22 10 d 13 5 d 36 12 d 22 9 d 14 3 d 36 9 d 36 9 d 14 4 d 22 3 d 35 5 d 36 4 d 36 4 d 36 2 d 36 2 d 35 X 36 -2 d 36 -2 d 36 -4 d 36 -4 d 36 -5 d 16 -3 d 19 -5 d 36 -9 d 36 -9 d 10 -2 d 26 -10 d 36 -13 d 9 -3 d 27 -12 d 29 -13 d 6 -4 d 36 -19 d 5 -3
 d 31 -20 d 8 -5 d 28 -21 d 6 -5 d 30 -25 d 23 -25 d 13 -14 d 8 -12 d 18 -25 d 9 -13 d 7 -13 d 11 -25 d -143 -25 d -14 25 d -4 6 d -11 19 d -21 26 d -4 3 d -20 22 d -16 13 d -14 13 d -21 15 d -16 10 d -20 13 d -25 12 d -11 7 d -36 15 d -10 4 d -26 10
 d -36 11 d -16 4 d -19 6 d -36 8 d -36 6 d -36 4 d -30 2 d -6 X -36 2 d -35 X -36 -1 d -9 -1 d -27 -2 d -36 -4 d -36 -5 d -35 -8 d -23 -7 d -13 -3 d -36 -10 d -30 -12 d -6 -2 d -36 -16 d -15 -8 d -21 -10 d -24 -15 d -11 -8 d -25 -17 d -11 -10 d -19
 -16 d -17 -18 d -8 -7 d -20 -26 d -8 -13 d -8 -12 d -13 -25 d -9 -26 d -5 -25 d -1 -5 d -3 -21 d -25 Y 3 -21 d 1 -5 d 5 -25 d 9 -25 d 13 -26 d 8 -12 d 8 -13 d 20 -26 d 8 -7 d 17 -18 d 19 -16 d 11 -10 d 25 -17 d 11 -8 d 24 -15 d 21 -10 d 15 -8 d 36
 -16 d 6 -2 d 30 -12 d 36 -10 d 13 -3 d 23 -7 d 35 -8 d 36 -5 d 36 -4 d 27 -2 d 9 X 36 -2 d 35 X 36 2 d 6 X 30 3 d 36 3 d 36 6 d 36 8 d 19 6 d 16 4 d 36 11 d 26 10 d 10 4 d 36 16 d 11 6 d 25 12 d 20 13 d 16 10 d 21 15 d 14 13 d 16 13 d 20 22 d 4 3 d
 21 26 d 11 19 d 4 6 d 14 26 d 9 25 d 5 25 d 3 26 d 25 Y -3 26 d -5 25 d -9 26 d f 0.35 0.33 0.85 c 6 lw 0.884975 0.752825 0.292488 c black 0.35 0.33 0.85 c 1472 1332 m 19 -5 d 36 -9 d 36 -9 d 10 -2 d 26 -10 d 36 -13 d 9 -3 d 27 -12 d 29 -13 d 6 -4 d
 36 -19 d 5 -3 d 31 -20 d 8 -5 d 28 -21 d 6 -5 d 30 -25 d 23 -25 d 13 -14 d 8 -12 d 18 -25 d 9 -13 d 7 -13 d 11 -25 d 11 -25 d 7 -22 d 1 -4 d 4 -25 d 2 -26 d -25 Y -2 -26 d -4 -25 d -1 -4 d -7 -21 d -11 -26 d -11 -25 d -7 -13 d -9 -13 d -18 -25 d -8
 -12 d -13 -14 d -23 -25 d -30 -25 d -6 -5 d -28 -21 d -8 -5 d -31 -20 d -5 -3 d -36 -19 d -6 -4 d -29 -12 d -27 -13 d -9 -3 d -36 -13 d -26 -9 d -10 -3 d -36 -9 d -36 -9 d -19 -5 d -16 -3 d -36 -4 d -36 -5 d -36 -3 d -36 -3 d -36 -1 d -35 -1 d -36 2
 d -36 2 d -36 4 d -36 4 d -35 5 d -22 3 d -14 4 d -36 9 d -36 9 d -14 4 d -22 8 d -36 12 d -13 5 d -22 10 d -36 15 d -36 21 d -9 5 d -27 17 d -12 8 d -24 18 d -10 8 d -26 21 d -4 4 d -24 25 d -7 8 d -14 18 d -19 25 d -3 5 d -11 21 d -12 25 d -12 26
 d -1 3 d -5 22 d -4 25 d -2 26 d 25 Y 2 26 d 4 25 d 5 22 d 1 4 d 12 25 d 12 25 d 11 21 d 3 5 d 19 25 d 14 18 d 7 8 d 24 25 d 4 4 d 26 21 d 10 9 d 24 17 d 12 8 d 27 17 d 9 5 d 36 21 d 36 15 d 22 10 d 13 5 d 36 12 d 22 9 d 14 3 d 36 9 d 36 9 d 14 4 d
 22 3 d 35 5 d 36 4 d 36 4 d 36 2 d 36 2 d 35 X 36 -2 d 36 -2 d 36 -4 d 36 -4 d 36 -5 d 16 -3 d cl s 0.884975 0.752825 0.292488 c black 0.35 0.33 0.85 c 1276 1258 m -35 X -36 -1 d -9 -1 d -27 -2 d -36 -4 d -36 -5 d -35 -8 d -23 -7 d -13 -3 d -36 -10
 d -30 -12 d -6 -2 d -36 -16 d -15 -8 d -21 -10 d -24 -15 d -11 -8 d -25 -17 d -11 -10 d -19 -16 d -17 -18 d -8 -7 d -20 -26 d -8 -13 d -8 -12 d -13 -25 d -9 -26 d -5 -25 d -1 -5 d -3 -21 d -25 Y 3 -21 d 1 -5 d 5 -25 d 9 -25 d 13 -26 d 8 -12 d 8 -13
 d 20 -26 d 8 -7 d 17 -18 d 19 -16 d 11 -10 d 25 -17 d 11 -8 d 24 -15 d 21 -10 d 15 -8 d 36 -16 d 6 -2 d 30 -12 d 36 -10 d 13 -3 d 23 -7 d 35 -8 d 36 -5 d 36 -4 d 27 -2 d 9 X 36 -2 d 35 X 36 2 d 6 X 30 3 d 36 3 d 36 6 d 36 8 d 19 6 d 16 4 d 36 11 d
 26 10 d 10 4 d 36 16 d 11 6 d 25 12 d 20 13 d 16 10 d 21 15 d 14 13 d 16 13 d 20 22 d 4 3 d 21 26 d 11 19 d 4 6 d 14 26 d 9 25 d 5 25 d 3 26 d 25 Y -3 26 d -5 25 d -9 26 d -14 25 d -4 6 d -11 19 d -21 26 d -4 3 d -20 22 d -16 13 d -14 13 d -21 15 d
 -16 10 d -20 13 d -25 12 d -11 7 d -36 15 d -10 4 d -26 10 d -36 11 d -16 4 d -19 6 d -36 8 d -36 6 d -36 4 d -30 2 d -6 X -36 2 d cl s black 3 lw 0.745098 0.905882 0.992157 c black 0.745098 0.905882 0.992157 c 1456 1315 m 35 -6 d 14 -2 d 22 -8 d 36
 -10 d 29 -8 d 7 -3 d 36 -15 d 19 -7 d 17 -9 d 35 -16 d 2 -1 d 34 -21 d 7 -4 d 29 -21 d 6 -5 d 30 -23 d 2 -2 d 25 -25 d 9 -9 d 12 -17 d 22 -25 d 2 -2 d 11 -24 d 13 -25 d 11 -20 d 2 -5 d 6 -26 d 4 -25 d 2 -26 d -25 Y -2 -26 d -4 -25 d -6 -25 d -2 -6 d
 -11 -20 d -13 -25 d -11 -24 d -2 -2 d -22 -25 d -12 -17 d -9 -9 d -25 -25 d -2 -2 d -30 -23 d -6 -5 d -29 -21 d -7 -4 d -34 -21 d -2 -1 d -35 -16 d -17 -9 d -19 -7 d -36 -15 d -7 -3 d -29 -7 d -36 -11 d -22 -7 d -14 -3 d -35 -6 d -36 -6 d -36 -6 d
 -32 -5 d -4 X -36 -2 d -36 -1 d -35 X -36 1 d -36 2 d -8 X -28 5 d -36 6 d -35 5 d -36 6 d -19 4 d -17 6 d -36 10 d -34 9 d -2 1 d -36 16 d -24 8 d -11 7 d -36 16 d -5 3 d -31 19 d -10 6 d -26 18 d -10 8 d -26 20 d -6 5 d -27 25 d -3 3 d -17 23 d
 -18 21 d -3 4 d -13 26 d -15 25 d -5 9 d -5 17 d -6 25 d -5 25 d -2 26 d 25 Y 2 26 d 5 25 d 6 26 d 5 16 d 5 9 d 15 25 d 13 26 d 3 4 d 18 21 d 17 23 d 3 3 d 27 25 d 6 5 d 26 20 d 10 8 d 26 18 d 10 6 d 31 19 d 5 3 d 36 17 d 11 6 d 24 8 d 36 16 d 2 1 d
 34 9 d 36 11 d 17 6 d 19 3 d 36 6 d 35 6 d 36 6 d 28 4 d 8 1 d 36 1 d 36 1 d 35 X 36 -1 d 36 -2 d 4 X 32 -5 d 36 -6 d 36 -6 d -36 -48 d -36 5 d -36 4 d -36 2 d -36 1 d -35 X -36 -1 d -36 -2 d -36 -3 d -36 -6 d -35 -8 d -10 -3 d -26 -5 d -36 -10 d
 -26 -11 d -10 -3 d -36 -13 d -17 -9 d -19 -8 d -30 -18 d -5 -3 d -34 -22 d -2 -2 d -31 -23 d -5 -5 d -24 -21 d -12 -14 d -11 -11 d -18 -26 d -7 -13 d -8 -12 d -13 -25 d -8 -26 d -4 -25 d -3 -26 d -25 Y 3 -26 d 4 -25 d 8 -25 d 13 -26 d 8 -12 d 7 -13
 d 18 -26 d 11 -10 d 12 -15 d 24 -21 d 5 -5 d 31 -23 d 2 -2 d 34 -22 d 5 -3 d 30 -18 d 19 -8 d 17 -9 d 36 -13 d 10 -3 d 26 -11 d 36 -9 d 26 -6 d 10 -3 d 35 -8 d 36 -5 d 36 -4 d 36 -2 d 36 -1 d 35 X 36 1 d 36 2 d 36 4 d 36 6 d 36 8 d 5 2 d 30 6 d 36
 10 d 23 10 d 13 4 d 36 14 d 14 7 d 22 10 d 26 16 d 10 5 d 29 20 d 6 4 d 28 21 d 8 8 d 20 18 d 16 19 d 6 6 d 19 26 d 11 20 d 4 5 d 13 26 d 8 25 d 5 25 d 3 26 d 25 Y -3 26 d -5 25 d -8 26 d -13 25 d -4 5 d -11 20 d -19 26 d -6 6 d -16 19 d -20 18 d -8
 8 d -28 21 d -6 4 d -29 20 d -10 5 d -26 16 d -22 10 d -14 7 d -36 14 d -13 4 d -23 10 d -36 10 d -30 6 d -5 2 d -36 9 d f black 0.0941176 0.666667 0.905882 c black 0.0941176 0.666667 0.905882 c 1 lw << /PatternType 1 /PaintType 2 /TilingType 1
 /BBox [ 0 0 100 100 ] /XStep 100 /YStep 100 /PaintProc { begin gsave 0 100 m 100 0 l s gr end } >> [ 0.24 0 0 0.24 0 0 ] makepattern /P05 exch def /cs {[/Pattern /DeviceRGB] setcolorspace} def /FA {f [/DeviceRGB] setcolorspace} def cs 0.0941176
 0.666667 0.905882 P05 setcolor 1456 1315 m 35 -6 d 14 -2 d 22 -8 d 36 -10 d 29 -8 d 7 -3 d 36 -15 d 19 -7 d 17 -9 d 35 -16 d 2 -1 d 34 -21 d 7 -4 d 29 -21 d 6 -5 d 30 -23 d 2 -2 d 25 -25 d 9 -9 d 12 -17 d 22 -25 d 2 -2 d 11 -24 d 13 -25 d 11 -20 d 2
 -5 d 6 -26 d 4 -25 d 2 -26 d -25 Y -2 -26 d -4 -25 d -6 -25 d -2 -6 d -11 -20 d -13 -25 d -11 -24 d -2 -2 d -22 -25 d -12 -17 d -9 -9 d -25 -25 d -2 -2 d -30 -23 d -6 -5 d -29 -21 d -7 -4 d -34 -21 d -2 -1 d -35 -16 d -17 -9 d -19 -7 d -36 -15 d -7
 -3 d -29 -7 d -36 -11 d -22 -7 d -14 -3 d -35 -6 d -36 -6 d -36 -6 d -32 -5 d -4 X -36 -2 d -36 -1 d -35 X -36 1 d -36 2 d -8 X -28 5 d -36 6 d -35 5 d -36 6 d -19 4 d -17 6 d -36 10 d -34 9 d -2 1 d -36 16 d -24 8 d -11 7 d -36 16 d -5 3 d -31 19 d
 -10 6 d -26 18 d -10 8 d -26 20 d -6 5 d -27 25 d -3 3 d -17 23 d -18 21 d -3 4 d -13 26 d -15 25 d -5 9 d -5 17 d -6 25 d -5 25 d -2 26 d 25 Y 2 26 d 5 25 d 6 26 d 5 16 d 5 9 d 15 25 d 13 26 d 3 4 d 18 21 d 17 23 d 3 3 d 27 25 d 6 5 d 26 20 d 10 8
 d 26 18 d 10 6 d 31 19 d 5 3 d 36 17 d 11 6 d 24 8 d 36 16 d 2 1 d 34 9 d 36 11 d 17 6 d 19 3 d 36 6 d 35 6 d 36 6 d 28 4 d 8 1 d 36 1 d 36 1 d 35 X 36 -1 d 36 -2 d 4 X 32 -5 d 36 -6 d 36 -6 d -36 -48 d -36 5 d -36 4 d -36 2 d -36 1 d -35 X -36 -1 d
 -36 -2 d -36 -3 d -36 -6 d -35 -8 d -10 -3 d -26 -5 d -36 -10 d -26 -11 d -10 -3 d -36 -13 d -17 -9 d -19 -8 d -30 -18 d -5 -3 d -34 -22 d -2 -2 d -31 -23 d -5 -5 d -24 -21 d -12 -14 d -11 -11 d -18 -26 d -7 -13 d -8 -12 d -13 -25 d -8 -26 d -4 -25
 d -3 -26 d -25 Y 3 -26 d 4 -25 d 8 -25 d 13 -26 d 8 -12 d 7 -13 d 18 -26 d 11 -10 d 12 -15 d 24 -21 d 5 -5 d 31 -23 d 2 -2 d 34 -22 d 5 -3 d 30 -18 d 19 -8 d 17 -9 d 36 -13 d 10 -3 d 26 -11 d 36 -9 d 26 -6 d 10 -3 d 35 -8 d 36 -5 d 36 -4 d 36 -2 d
 36 -1 d 35 X 36 1 d 36 2 d 36 4 d 36 6 d 36 8 d 5 2 d 30 6 d 36 10 d 23 10 d 13 4 d 36 14 d 14 7 d 22 10 d 26 16 d 10 5 d 29 20 d 6 4 d 28 21 d 8 8 d 20 18 d 16 19 d 6 6 d 19 26 d 11 20 d 4 5 d 13 26 d 8 25 d 5 25 d 3 26 d 25 Y -3 26 d -5 25 d -8 26
 d -13 25 d -4 5 d -11 20 d -19 26 d -6 6 d -16 19 d -20 18 d -8 8 d -28 21 d -6 4 d -29 20 d -10 5 d -26 16 d -22 10 d -14 7 d -36 14 d -13 4 d -23 10 d -36 10 d -30 6 d -5 2 d -36 9 d FA 3 lw 0.0941176 0.666667 0.905882 c 6 lw 0.977 0.977044
 0.0583656 c black 0.0941176 0.666667 0.905882 c 1352 1332 m 32 -5 d 36 -6 d 36 -6 d 35 -6 d 14 -2 d 22 -8 d 36 -10 d 29 -8 d 7 -3 d 36 -15 d 19 -7 d 17 -9 d 35 -16 d 2 -1 d 34 -21 d 7 -4 d 29 -21 d 6 -5 d 30 -23 d 2 -2 d 25 -25 d 9 -9 d 12 -17 d 22
 -25 d 2 -2 d 11 -24 d 13 -25 d 11 -20 d 2 -5 d 6 -26 d 4 -25 d 2 -26 d -25 Y -2 -26 d -4 -25 d -6 -25 d -2 -6 d -11 -20 d -13 -25 d -11 -24 d -2 -2 d -22 -25 d -12 -17 d -9 -9 d -25 -25 d -2 -2 d -30 -23 d -6 -5 d -29 -21 d -7 -4 d -34 -21 d -2 -1 d
 -35 -16 d -17 -9 d -19 -7 d -36 -15 d -7 -3 d -29 -7 d -36 -11 d -22 -7 d -14 -3 d -35 -6 d -36 -6 d -36 -6 d -32 -5 d -4 X -36 -2 d -36 -1 d -35 X -36 1 d -36 2 d -8 X -28 5 d -36 6 d -35 5 d -36 6 d -19 4 d -17 6 d -36 10 d -34 9 d -2 1 d -36 16 d
 -24 8 d -11 7 d -36 16 d -5 3 d -31 19 d -10 6 d -26 18 d -10 8 d -26 20 d -6 5 d -27 25 d -3 3 d -17 23 d -18 21 d -3 4 d -13 26 d -15 25 d -5 9 d -5 17 d -6 25 d -5 25 d -2 26 d 25 Y 2 26 d 5 25 d 6 26 d 5 16 d 5 9 d 15 25 d 13 26 d 3 4 d 18 21 d
 17 23 d 3 3 d 27 25 d 6 5 d 26 20 d 10 8 d 26 18 d 10 6 d 31 19 d 5 3 d 36 17 d 11 6 d 24 8 d 36 16 d 2 1 d 34 9 d 36 11 d 17 6 d 19 3 d 36 6 d 35 6 d 36 6 d 28 4 d 8 1 d 36 1 d 36 1 d 35 X 36 -1 d 36 -2 d 4 X cl s 0.977 0.977044 0.0583656 c black
 0.0941176 0.666667 0.905882 c 1456 1258 m -36 9 d -36 5 d -36 4 d -36 2 d -36 1 d -35 X -36 -1 d -36 -2 d -36 -3 d -36 -6 d -35 -8 d -10 -3 d -26 -5 d -36 -10 d -26 -11 d -10 -3 d -36 -13 d -17 -9 d -19 -8 d -30 -18 d -5 -3 d -34 -22 d -2 -2 d -31
 -23 d -5 -5 d -24 -21 d -12 -14 d -11 -11 d -18 -26 d -7 -13 d -8 -12 d -13 -25 d -8 -26 d -4 -25 d -3 -26 d -25 Y 3 -26 d 4 -25 d 8 -25 d 13 -26 d 8 -12 d 7 -13 d 18 -26 d 11 -10 d 12 -15 d 24 -21 d 5 -5 d 31 -23 d 2 -2 d 34 -22 d 5 -3 d 30 -18 d
 19 -8 d 17 -9 d 36 -13 d 10 -3 d 26 -11 d 36 -9 d 26 -6 d 10 -3 d 35 -8 d 36 -5 d 36 -4 d 36 -2 d 36 -1 d 35 X 36 1 d 36 2 d 36 4 d 36 6 d 36 8 d 5 2 d 30 6 d 36 10 d 23 10 d 13 4 d 36 14 d 14 7 d 22 10 d 26 16 d 10 5 d 29 20 d 6 4 d 28 21 d 8 8 d
 20 18 d 16 19 d 6 6 d 19 26 d 11 20 d 4 5 d 13 26 d 8 25 d 5 25 d 3 26 d 25 Y -3 26 d -5 25 d -8 26 d -13 25 d -4 5 d -11 20 d -19 26 d -6 6 d -16 19 d -20 18 d -8 8 d -28 21 d -6 4 d -29 20 d -10 5 d -26 16 d -22 10 d -14 7 d -36 14 d -13 4 d -23
 10 d -36 10 d -30 6 d -5 2 d cl s 0.35 0.33 0.85 c[ 12 12] 0 sd 0.884975 0.752825 0.292488 c black 0.35 0.33 0.85 c 1472 1332 m 19 -5 d 36 -9 d 36 -9 d 10 -2 d 26 -10 d 36 -13 d 9 -3 d 27 -12 d 29 -13 d 6 -4 d 36 -19 d 5 -3 d 31 -20 d 8 -5 d 28 -21
 d 6 -5 d 30 -25 d 23 -25 d 13 -14 d 8 -12 d 18 -25 d 9 -13 d 7 -13 d 11 -25 d 11 -25 d 7 -22 d 1 -4 d 4 -25 d 2 -26 d -25 Y -2 -26 d -4 -25 d -1 -4 d -7 -21 d -11 -26 d -11 -25 d -7 -13 d -9 -13 d -18 -25 d -8 -12 d -13 -14 d -23 -25 d -30 -25 d -6
 -5 d -28 -21 d -8 -5 d -31 -20 d -5 -3 d -36 -19 d -6 -4 d -29 -12 d -27 -13 d -9 -3 d -36 -13 d -26 -9 d -10 -3 d -36 -9 d -36 -9 d -19 -5 d -16 -3 d -36 -4 d -36 -5 d -36 -3 d -36 -3 d -36 -1 d -35 -1 d -36 2 d -36 2 d -36 4 d -36 4 d -35 5 d -22
 3 d -14 4 d -36 9 d -36 9 d -14 4 d -22 8 d -36 12 d -13 5 d -22 10 d -36 15 d -36 21 d -9 5 d -27 17 d -12 8 d -24 18 d -10 8 d -26 21 d -4 4 d -24 25 d -7 8 d -14 18 d -19 25 d -3 5 d -11 21 d -12 25 d -12 26 d -1 3 d -5 22 d -4 25 d -2 26 d 25 Y
 2 26 d 4 25 d 5 22 d 1 4 d 12 25 d 12 25 d 11 21 d 3 5 d 19 25 d 14 18 d 7 8 d 24 25 d 4 4 d 26 21 d 10 9 d 24 17 d 12 8 d 27 17 d 9 5 d 36 21 d 36 15 d 22 10 d 13 5 d 36 12 d 22 9 d 14 3 d 36 9 d 36 9 d 14 4 d 22 3 d 35 5 d 36 4 d 36 4 d 36 2 d 36
 2 d 35 X 36 -2 d 36 -2 d 36 -4 d 36 -4 d 36 -5 d 16 -3 d cl s 0.884975 0.752825 0.292488 c black 0.35 0.33 0.85 c 1276 1258 m -35 X -36 -1 d -9 -1 d -27 -2 d -36 -4 d -36 -5 d -35 -8 d -23 -7 d -13 -3 d -36 -10 d -30 -12 d -6 -2 d -36 -16 d -15 -8 d
 -21 -10 d -24 -15 d -11 -8 d -25 -17 d -11 -10 d -19 -16 d -17 -18 d -8 -7 d -20 -26 d -8 -13 d -8 -12 d -13 -25 d -9 -26 d -5 -25 d -1 -5 d -3 -21 d -25 Y 3 -21 d 1 -5 d 5 -25 d 9 -25 d 13 -26 d 8 -12 d 8 -13 d 20 -26 d 8 -7 d 17 -18 d 19 -16 d 11
 -10 d 25 -17 d 11 -8 d 24 -15 d 21 -10 d 15 -8 d 36 -16 d 6 -2 d 30 -12 d 36 -10 d 13 -3 d 23 -7 d 35 -8 d 36 -5 d 36 -4 d 27 -2 d 9 X 36 -2 d 35 X 36 2 d 6 X 30 3 d 36 3 d 36 6 d 36 8 d 19 6 d 16 4 d 36 11 d 26 10 d 10 4 d 36 16 d 11 6 d 25 12 d 20
 13 d 16 10 d 21 15 d 14 13 d 16 13 d 20 22 d 4 3 d 21 26 d 11 19 d 4 6 d 14 26 d 9 25 d 5 25 d 3 26 d 25 Y -3 26 d -5 25 d -9 26 d -14 25 d -4 6 d -11 19 d -21 26 d -4 3 d -20 22 d -16 13 d -14 13 d -21 15 d -16 10 d -20 13 d -25 12 d -11 7 d -36 15
 d -10 4 d -26 10 d -36 11 d -16 4 d -19 6 d -36 8 d -36 6 d -36 4 d -30 2 d -6 X -36 2 d cl s 0.0941176 0.666667 0.905882 c 0.977 0.977044 0.0583656 c black 0.0941176 0.666667 0.905882 c 1352 1332 m 32 -5 d 36 -6 d 36 -6 d 35 -6 d 14 -2 d 22 -8 d 36
 -10 d 29 -8 d 7 -3 d 36 -15 d 19 -7 d 17 -9 d 35 -16 d 2 -1 d 34 -21 d 7 -4 d 29 -21 d 6 -5 d 30 -23 d 2 -2 d 25 -25 d 9 -9 d 12 -17 d 22 -25 d 2 -2 d 11 -24 d 13 -25 d 11 -20 d 2 -5 d 6 -26 d 4 -25 d 2 -26 d -25 Y -2 -26 d -4 -25 d -6 -25 d -2 -6 d
 -11 -20 d -13 -25 d -11 -24 d -2 -2 d -22 -25 d -12 -17 d -9 -9 d -25 -25 d -2 -2 d -30 -23 d -6 -5 d -29 -21 d -7 -4 d -34 -21 d -2 -1 d -35 -16 d -17 -9 d -19 -7 d -36 -15 d -7 -3 d -29 -7 d -36 -11 d -22 -7 d -14 -3 d -35 -6 d -36 -6 d -36 -6 d
 -32 -5 d -4 X -36 -2 d -36 -1 d -35 X -36 1 d -36 2 d -8 X -28 5 d -36 6 d -35 5 d -36 6 d -19 4 d -17 6 d -36 10 d -34 9 d -2 1 d -36 16 d -24 8 d -11 7 d -36 16 d -5 3 d -31 19 d -10 6 d -26 18 d -10 8 d -26 20 d -6 5 d -27 25 d -3 3 d -17 23 d
 -18 21 d -3 4 d -13 26 d -15 25 d -5 9 d -5 17 d -6 25 d -5 25 d -2 26 d 25 Y 2 26 d 5 25 d 6 26 d 5 16 d 5 9 d 15 25 d 13 26 d 3 4 d 18 21 d 17 23 d 3 3 d 27 25 d 6 5 d 26 20 d 10 8 d 26 18 d 10 6 d 31 19 d 5 3 d 36 17 d 11 6 d 24 8 d 36 16 d 2 1 d
 34 9 d 36 11 d 17 6 d 19 3 d 36 6 d 35 6 d 36 6 d 28 4 d 8 1 d 36 1 d 36 1 d 35 X 36 -1 d 36 -2 d 4 X cl s 0.977 0.977044 0.0583656 c black 0.0941176 0.666667 0.905882 c 1456 1258 m -36 9 d -36 5 d -36 4 d -36 2 d -36 1 d -35 X -36 -1 d -36 -2 d -36
 -3 d -36 -6 d -35 -8 d -10 -3 d -26 -5 d -36 -10 d -26 -11 d -10 -3 d -36 -13 d -17 -9 d -19 -8 d -30 -18 d -5 -3 d -34 -22 d -2 -2 d -31 -23 d -5 -5 d -24 -21 d -12 -14 d -11 -11 d -18 -26 d -7 -13 d -8 -12 d -13 -25 d -8 -26 d -4 -25 d -3 -26 d
 -25 Y 3 -26 d 4 -25 d 8 -25 d 13 -26 d 8 -12 d 7 -13 d 18 -26 d 11 -10 d 12 -15 d 24 -21 d 5 -5 d 31 -23 d 2 -2 d 34 -22 d 5 -3 d 30 -18 d 19 -8 d 17 -9 d 36 -13 d 10 -3 d 26 -11 d 36 -9 d 26 -6 d 10 -3 d 35 -8 d 36 -5 d 36 -4 d 36 -2 d 36 -1 d 35 X
 36 1 d 36 2 d 36 4 d 36 6 d 36 8 d 5 2 d 30 6 d 36 10 d 23 10 d 13 4 d 36 14 d 14 7 d 22 10 d 26 16 d 10 5 d 29 20 d 6 4 d 28 21 d 8 8 d 20 18 d 16 19 d 6 6 d 19 26 d 11 20 d 4 5 d 13 26 d 8 25 d 5 25 d 3 26 d 25 Y -3 26 d -5 25 d -8 26 d -13 25 d
 -4 5 d -11 20 d -19 26 d -6 6 d -16 19 d -20 18 d -8 8 d -28 21 d -6 4 d -29 20 d -10 5 d -26 16 d -22 10 d -14 7 d -36 14 d -13 4 d -23 10 d -36 10 d -30 6 d -5 2 d cl s black[  ] 0 sd 3 lw 363 1548 m 1791 X s 619 1509 m 39 Y s 747 1529 m 19 Y s
 875 1529 m 19 Y s 1003 1529 m 19 Y s 1131 1509 m 39 Y s 1259 1529 m 19 Y s 1387 1529 m 19 Y s 1515 1529 m 19 Y s 1642 1509 m 39 Y s 1770 1529 m 19 Y s 1898 1529 m 19 Y s 2026 1529 m 19 Y s 2154 1509 m 39 Y s 619 1509 m 39 Y s 491 1529 m 19 Y s 363
 1529 m 19 Y s 2154 1509 m 39 Y s 363 277 m 1791 X s 619 316 m -39 Y s 747 296 m -19 Y s 875 296 m -19 Y s 1003 296 m -19 Y s 1131 316 m -39 Y s 1259 296 m -19 Y s 1387 296 m -19 Y s 1515 296 m -19 Y s 1642 316 m -39 Y s 1770 296 m -19 Y s 1898 296 m
 -19 Y s 2026 296 m -19 Y s 2154 316 m -39 Y s 619 316 m -39 Y s 491 296 m -19 Y s 363 296 m -19 Y s 2154 316 m -39 Y s
 gsave  2268 1630 0 0 C 595.418 190.876 t 0 r /Times-Roman findfont 94.0134 sf 0 0 m (0) show NC gr 
 gsave  2268 1630 0 0 C 1022.75 190.876 t 0 r /Times-Roman findfont 94.0134 sf 0 0 m (0.002) show NC gr 
 gsave  2268 1630 0 0 C 1535.55 190.876 t 0 r /Times-Roman findfont 94.0134 sf 0 0 m (0.004) show NC gr 
 gsave  2268 1630 0 0 C 2048.35 190.876 t 0 r /Times-Roman findfont 94.0134 sf 0 0 m (0.006) show NC gr  363 277 m 1271 Y s 416 277 m -53 X s 389 356 m -26 X s 389 436 m -26 X s 389 515 m -26 X s 416 595 m -53 X s 389 674 m -26 X s 389 754 m -26 X s
 389 833 m -26 X s 416 913 m -53 X s 389 992 m -26 X s 389 1071 m -26 X s 389 1151 m -26 X s 416 1230 m -53 X s 389 1310 m -26 X s 389 1389 m -26 X s 389 1469 m -26 X s 416 1548 m -53 X s 416 277 m -53 X s 416 1548 m -53 X s
 gsave  2268 1630 0 0 C 128.2 245.005 t 0 r /Times-Roman findfont 94.0134 sf 0 0 m (0.004) show NC gr 
 gsave  2268 1630 0 0 C 76.92 245.005 t 0 r /Symbol findfont 94.0134 sf 0 0 m (-) show NC gr 
 gsave  2268 1630 0 0 C 128.2 561.231 t 0 r /Times-Roman findfont 94.0134 sf 0 0 m (0.002) show NC gr 
 gsave  2268 1630 0 0 C 76.92 561.231 t 0 r /Symbol findfont 94.0134 sf 0 0 m (-) show NC gr 
 gsave  2268 1630 0 0 C 293.436 880.307 t 0 r /Times-Roman findfont 94.0134 sf 0 0 m (0) show NC gr 
 gsave  2268 1630 0 0 C 128.2 1196.53 t 0 r /Times-Roman findfont 94.0134 sf 0 0 m (0.002) show NC gr 
 gsave  2268 1630 0 0 C 128.2 1515.61 t 0 r /Times-Roman findfont 94.0134 sf 0 0 m (0.004) show NC gr  2154 277 m 1271 Y s 2101 277 m 53 X s 2128 356 m 26 X s 2128 436 m 26 X s 2128 515 m 26 X s 2101 595 m 53 X s 2128 674 m 26 X s 2128 754 m 26 X s
 2128 833 m 26 X s 2101 913 m 53 X s 2128 992 m 26 X s 2128 1071 m 26 X s 2128 1151 m 26 X s 2101 1230 m 53 X s 2128 1310 m 26 X s 2128 1389 m 26 X s 2128 1469 m 26 X s 2101 1548 m 53 X s 2101 277 m 53 X s 2101 1548 m 53 X s 0.35 0.33 0.85 c /w 36
 def /w2 {w 2 div} def /w3 {w 3 div} def 635 1002 m31 black
 gsave  2268 1630 0 0 C 598.267 1316.19 t 0 r /Times-Roman findfont 76.92 sf 0 0 m (SMEFT Run2) show NC gr 
 gsave  2268 1630 0 0 C 1227.87 1324.73 t 0 r /Times-Roman findfont 119.653 sf 0 0 m (GammaCombo) show NC gr  0.6 0.6 0.6 c black 0.6 0.6 0.6 c
 gsave  2268 1630 0 0 C 407.391 330.471 t 0 r /Times-Roman findfont 56.9778 sf 0 0 m (contours hold 68%, 95% CL) show NC gr 
 gr  gr showpage
end
%%EOF
