ProfVersion: 2.1.3
Date: 2019-12-10 09:43:18
DataFormat: binned 1
ParamNames: cG
Dimension: 1
MinParamVals: -0.001000
MaxParamVals: 0.001000
DoParamScaling: 1
NumInputs: 5
Runs: 0 1 2 3 4
---
/MyTest/excl_N_j_30#0 0.00000e+00 1.00000e+00
  val: 1 2 192.466 -984.353 1266.15 
  err: 1 0 0.395483 
/MyTest/excl_N_j_30#1 1.00000e+00 2.00000e+00
  val: 1 2 172.011 -899.827 1166.34 
  err: 1 0 0.377566 
/MyTest/excl_N_j_30#2 2.00000e+00 3.00000e+00
  val: 1 2 95.5871 -501.248 660.126 
  err: 1 0 0.290392 
/MyTest/excl_N_j_30#3 3.00000e+00 4.00000e+00
  val: 1 2 62.2893 -333.44 437.933 
  err: 1 0 0.225773 
/MyTest/pTyy#0 0.00000e+00 5.00000e+00
  val: 1 2 2.16893 -11.1994 14.2823 
  err: 1 0 0.0177927 
/MyTest/pTyy#1 5.00000e+00 1.00000e+01
  val: 1 2 4.9139 -24.177 30.9113 
  err: 1 0 0.0287948 
/MyTest/pTyy#2 1.00000e+01 1.50000e+01
  val: 1 2 5.85866 -29.9894 38.3499 
  err: 1 0 0.0302626 
/MyTest/pTyy#3 1.50000e+01 2.00000e+01
  val: 1 2 5.81494 -31.7242 41.6963 
  err: 1 0 0.0320175 
/MyTest/pTyy#4 2.00000e+01 2.50000e+01
  val: 1 2 6.30337 -32.0266 40.6413 
  err: 1 0 0.0316029 
/MyTest/pTyy#5 2.50000e+01 3.00000e+01
  val: 1 2 5.8854 -28.1317 35.7948 
  err: 1 0 0.0318996 
/MyTest/pTyy#6 3.00000e+01 3.50000e+01
  val: 1 2 6.38802 -33.3656 42.8673 
  err: 1 0 0.0315432 
/MyTest/pTyy#7 3.50000e+01 4.50000e+01
  val: 1 2 5.28689 -28.551 37.7507 
  err: 1 0 0.0215961 
/MyTest/pTyy#8 4.50000e+01 6.00000e+01
  val: 1 2 4.63891 -24.1371 31.0264 
  err: 1 0 0.0152999 
/MyTest/pTyy#9 6.00000e+01 8.00000e+01
  val: 1 2 3.08686 -16.4337 21.8135 
  err: 1 0 0.0120555 
/MyTest/pTyy#10 8.00000e+01 1.00000e+02
  val: 1 2 2.26445 -12.3524 16.3157 
  err: 1 0 0.00998191 
/MyTest/pTyy#11 1.00000e+02 1.20000e+02
  val: 1 2 1.45501 -7.3283 9.40802 
  err: 1 0 0.00724763 
/MyTest/pTyy#12 1.20000e+02 1.40000e+02
  val: 1 2 0.895792 -4.65838 6.15692 
  err: 1 0 0.00619637 
/MyTest/pTyy#13 1.40000e+02 1.70000e+02
  val: 1 2 0.634893 -3.16342 4.05144 
  err: 1 0 0.00389615 
/MyTest/pTyy#14 1.70000e+02 2.00000e+02
  val: 1 2 0.394347 -2.00831 2.54699 
  err: 1 0 0.00333123 
/MyTest/pTyy#15 2.00000e+02 2.50000e+02
  val: 1 2 0.245023 -1.33473 1.78281 
  err: 1 0 0.00205453 
/MyTest/pTyy#16 2.50000e+02 3.50000e+02
  val: 1 2 0.108509 -0.539159 0.661985 
  err: 1 0 0.000889637 
/MyTest/pTyy#17 3.50000e+02 1.00000e+05
  val: 1 2 5.23199e-05 -0.000270687 0.000378935 
  err: 1 0 7.79267e-07 
