%!PS-Adobe-2.0 EPSF-2.0
%%BoundingBox:  0 0 567 407
%%Title: plots/eps/tutorial_tutorial1_a_gaus.eps: p-value curves
%%Creator: ROOT Version 6.08/02
%%CreationDate: Mon Jan 13 15:02:27 2020
%%DocumentNeededResources: ProcSet (FontSetInit)
%%EndComments
%%BeginProlog
80 dict begin
/s {stroke} def /l {lineto} def /m {moveto} def /t {translate} def
/r {rotate} def /rl {roll}  def /R {repeat} def
/d {rlineto} def /rm {rmoveto} def /gr {grestore} def /f {eofill} def
/c {setrgbcolor} def /black {0 setgray} def /sd {setdash} def
/cl {closepath} def /sf {scalefont setfont} def /lw {setlinewidth} def
/box {m dup 0 exch d exch 0 d 0 exch neg d cl} def
/NC{systemdict begin initclip end}def/C{NC box clip newpath}def
/bl {box s} def /bf {gsave box gsave f grestore 1 lw [] 0 sd s grestore} def /Y { 0 exch d} def /X { 0 d} def 
/K {{pop pop 0 moveto} exch kshow} bind def
/ita {/ang 15 def gsave [1 0 ang dup sin exch cos div 1 0 0] concat} def 
/mp {newpath /y exch def /x exch def} def
/side {[w .77 mul w .23 mul] .385 w mul sd w 0 l currentpoint t -144 r} def
/mr {mp x y w2 0 360 arc} def /m24 {mr s} def /m20 {mr f} def
/mb {mp x y w2 add m w2 neg 0 d 0 w neg d w 0 d 0 w d cl} def
/mt {mp x y w2 add m w2 neg w neg d w 0 d cl} def
/m21 {mb f} def /m25 {mb s} def /m22 {mt f} def /m26{mt s} def
/m23 {mp x y w2 sub m w2 w d w neg 0 d cl f} def
/m27 {mp x y w2 add m w3 neg w2 neg d w3 w2 neg d w3 w2 d cl s} def
/m28 {mp x w2 sub y w2 sub w3 add m w3 0 d  0 w3 neg d w3 0 d 0 w3 d w3 0 d  0 w3 d w3 neg 0 d 0 w3 d w3 neg 0 d 0 w3 neg d w3 neg 0 d cl s } def
/m29 {mp gsave x w2 sub y w2 add w3 sub m currentpoint t 4 {side} repeat cl fill gr} def
/m30 {mp gsave x w2 sub y w2 add w3 sub m currentpoint t 4 {side} repeat cl s gr} def
/m31 {mp x y w2 sub m 0 w d x w2 sub y m w 0 d x w2 sub y w2 add m w w neg d x w2 sub y w2 sub m w w d s} def
/m32 {mp x y w2 sub m w2 w d w neg 0 d cl s} def
/m33 {mp x y w2 add m w3 neg w2 neg d w3 w2 neg d w3 w2 d cl f} def
/m34 {mp x w2 sub y w2 sub w3 add m w3 0 d  0 w3 neg d w3 0 d 0 w3 d w3 0 d  0 w3 d w3 neg 0 d 0 w3 d w3 neg 0 d 0 w3 neg d w3 neg 0 d cl f } def
/m2 {mp x y w2 sub m 0 w d x w2 sub y m w 0 d s} def
/m5 {mp x w2 sub y w2 sub m w w d x w2 sub y w2 add m w w neg d s} def
%%IncludeResource: ProcSet (FontSetInit)
%%IncludeResource: font Times-Roman
%%IncludeResource: font Times-Italic
%%IncludeResource: font Times-Bold
%%IncludeResource: font Times-BoldItalic
%%IncludeResource: font Helvetica
%%IncludeResource: font Helvetica-Oblique
%%IncludeResource: font Helvetica-Bold
%%IncludeResource: font Helvetica-BoldOblique
%%IncludeResource: font Courier
%%IncludeResource: font Courier-Oblique
%%IncludeResource: font Courier-Bold
%%IncludeResource: font Courier-BoldOblique
%%IncludeResource: font Symbol
%%IncludeResource: font ZapfDingbats
/reEncode {exch findfont dup length dict begin {1 index /FID eq  {pop pop} {def} ifelse } forall /Encoding exch def currentdict end dup /FontName get exch definefont pop } def [/Times-Bold /Times-Italic /Times-BoldItalic /Helvetica /Helvetica-Oblique
 /Helvetica-Bold /Helvetica-BoldOblique /Courier /Courier-Oblique /Courier-Bold /Courier-BoldOblique /Times-Roman /AvantGarde-Book /AvantGarde-BookOblique /AvantGarde-Demi /AvantGarde-DemiOblique /Bookman-Demi /Bookman-DemiItalic /Bookman-Light
 /Bookman-LightItalic /Helvetica-Narrow /Helvetica-Narrow-Bold /Helvetica-Narrow-BoldOblique /Helvetica-Narrow-Oblique /NewCenturySchlbk-Roman /NewCenturySchlbk-Bold /NewCenturySchlbk-BoldItalic /NewCenturySchlbk-Italic /Palatino-Bold
 /Palatino-BoldItalic /Palatino-Italic /Palatino-Roman ] {ISOLatin1Encoding reEncode } forall
%%EndProlog
%%BeginSetup
%%EndSetup
newpath  gsave  .25 .25 scale  gsave  0 0 t black[  ] 0 sd 3 lw 1 1 1 c 2268 1630 0 0 bf black 1 1 1 c 1678 1271 363 277 bf black 1678 1271 363 277 bl 1 1 1 c 1678 1271 363 277 bf black 1678 1271 363 277 bl 363 277 m 1678 X s
 gsave  2268 1630 0 0 C 1877.42 48.4311 t 0 r /Times-Roman findfont 79.7689 sf 0 0 m (Gaus) show NC gr 
 gsave  2268 1630 0 0 C 1823.29 82.6178 t 0 r /Times-Roman findfont 119.653 sf 0 0 m (a) show NC gr  531 313 m -36 Y s 698 295 m -18 Y s 866 313 m -36 Y s 1034 295 m -18 Y s 1202 313 m -36 Y s 1370 295 m -18 Y s 1538 313 m -36 Y s 1705 295 m -18 Y s
 1873 313 m -36 Y s 531 313 m -36 Y s 363 295 m -18 Y s 1873 313 m -36 Y s 2041 295 m -18 Y s
 gsave  2268 1630 0 0 C 529.894 190.876 t 0 r /Times-Roman findfont 94.0134 sf 0 0 m (2) show NC gr 
 gsave  2268 1630 0 0 C 481.462 190.876 t 0 r /Symbol findfont 94.0134 sf 0 0 m (-) show NC gr 
 gsave  2268 1630 0 0 C 871.76 190.876 t 0 r /Times-Roman findfont 94.0134 sf 0 0 m (1) show NC gr 
 gsave  2268 1630 0 0 C 820.48 190.876 t 0 r /Symbol findfont 94.0134 sf 0 0 m (-) show NC gr 
 gsave  2268 1630 0 0 C 1176.59 190.876 t 0 r /Times-Roman findfont 94.0134 sf 0 0 m (0) show NC gr 
 gsave  2268 1630 0 0 C 1515.61 190.876 t 0 r /Times-Roman findfont 94.0134 sf 0 0 m (1) show NC gr 
 gsave  2268 1630 0 0 C 1848.93 190.876 t 0 r /Times-Roman findfont 94.0134 sf 0 0 m (2) show NC gr  363 277 m 1271 Y s
 gsave  2268 1630 0 0 C 159.538 1296.24 t 90 r /Times-Roman findfont 119.653 sf 0 0 m (1\255CL) show NC gr  416 277 m -53 X s 389 326 m -26 X s 389 375 m -26 X s 389 424 m -26 X s 416 473 m -53 X s 389 521 m -26 X s 389 570 m -26 X s 389 619 m -26 X
 s 416 668 m -53 X s 389 717 m -26 X s 389 766 m -26 X s 389 815 m -26 X s 416 864 m -53 X s 389 913 m -26 X s 389 961 m -26 X s 389 1010 m -26 X s 416 1059 m -53 X s 389 1108 m -26 X s 389 1157 m -26 X s 389 1206 m -26 X s 416 1255 m -53 X s 389
 1304 m -26 X s 389 1353 m -26 X s 389 1401 m -26 X s 416 1450 m -53 X s 416 1450 m -53 X s 389 1499 m -26 X s
 gsave  2268 1630 0 0 C 293.436 245.005 t 0 r /Times-Roman findfont 94.0134 sf 0 0 m (0) show NC gr 
 gsave  2268 1630 0 0 C 222.213 438.729 t 0 r /Times-Roman findfont 94.0134 sf 0 0 m (0.2) show NC gr 
 gsave  2268 1630 0 0 C 222.213 635.302 t 0 r /Times-Roman findfont 94.0134 sf 0 0 m (0.4) show NC gr 
 gsave  2268 1630 0 0 C 222.213 831.876 t 0 r /Times-Roman findfont 94.0134 sf 0 0 m (0.6) show NC gr 
 gsave  2268 1630 0 0 C 225.062 1025.6 t 0 r /Times-Roman findfont 94.0134 sf 0 0 m (0.8) show NC gr 
 gsave  2268 1630 0 0 C 301.982 1222.17 t 0 r /Times-Roman findfont 94.0134 sf 0 0 m (1) show NC gr 
 gsave  2268 1630 0 0 C 222.213 1418.75 t 0 r /Times-Roman findfont 94.0134 sf 0 0 m (1.2) show NC gr  0.6 0.6 0.8 c 6 lw black 3 lw 0.6 0.6 0.8 c 363 277 m 47 Y 8 X 17 6 d 17 6 d 17 8 d 16 7 d 17 9 d 17 9 d 17 10 d 16 11 d 17 11 d 17 13 d 17 14 d 17
 14 d 16 16 d 17 17 d 17 18 d 17 19 d 17 20 d 16 21 d 17 23 d 17 23 d 17 25 d 16 26 d 17 27 d 17 29 d 17 29 d 17 31 d 16 31 d 17 33 d 17 33 d 17 35 d 16 35 d 17 36 d 17 37 d 17 37 d 17 38 d 16 38 d 17 39 d 17 38 d 17 39 d 8 20 d 8 -20 d 17 -39 d 17
 -38 d 17 -39 d 17 -38 d 16 -38 d 17 -37 d 17 -37 d 17 -36 d 16 -35 d 17 -35 d 17 -33 d 17 -33 d 17 -31 d 16 -31 d 17 -29 d 17 -29 d 17 -27 d 17 -26 d 16 -25 d 17 -23 d 17 -23 d 17 -21 d 16 -20 d 17 -19 d 17 -18 d 17 -17 d 17 -16 d 16 -14 d 17 -14 d
 17 -13 d 17 -11 d 16 -11 d 17 -10 d 17 -9 d 17 -9 d 17 -7 d 16 -8 d 17 -6 d 17 -6 d 17 -5 d 16 -5 d 17 -4 d 17 -4 d 17 -3 d 17 -4 d 16 -2 d 17 -3 d 17 -2 d 17 -2 d 17 -2 d 16 -1 d 17 -2 d 17 -1 d 17 -1 d 16 -1 d 17 X 17 -1 d 17 -1 d 25 X -3 Y f 6 lw
 black 3 lw 363 277 m 1678 X s 531 313 m -36 Y s 698 295 m -18 Y s 866 313 m -36 Y s 1034 295 m -18 Y s 1202 313 m -36 Y s 1370 295 m -18 Y s 1538 313 m -36 Y s 1705 295 m -18 Y s 1873 313 m -36 Y s 531 313 m -36 Y s 363 295 m -18 Y s 1873 313 m -36
 Y s 2041 295 m -18 Y s 363 277 m 1271 Y s 416 277 m -53 X s 389 326 m -26 X s 389 375 m -26 X s 389 424 m -26 X s 416 473 m -53 X s 389 521 m -26 X s 389 570 m -26 X s 389 619 m -26 X s 416 668 m -53 X s 389 717 m -26 X s 389 766 m -26 X s 389 815 m
 -26 X s 416 864 m -53 X s 389 913 m -26 X s 389 961 m -26 X s 389 1010 m -26 X s 416 1059 m -53 X s 389 1108 m -26 X s 389 1157 m -26 X s 389 1206 m -26 X s 416 1255 m -53 X s 389 1304 m -26 X s 389 1353 m -26 X s 389 1401 m -26 X s 416 1450 m -53 X
 s 416 1450 m -53 X s 389 1499 m -26 X s 0.6 0.6 0.8 c 6 lw black 0.6 0.6 0.8 c 363 277 m 47 Y 8 X 17 6 d 17 6 d 17 8 d 16 7 d 17 9 d 17 9 d 17 10 d 16 11 d 17 11 d 17 13 d 17 14 d 17 14 d 16 16 d 17 17 d 17 18 d 17 19 d 17 20 d 16 21 d 17 23 d 17 23
 d 17 25 d 16 26 d 17 27 d 17 29 d 17 29 d 17 31 d 16 31 d 17 33 d 17 33 d 17 35 d 16 35 d 17 36 d 17 37 d 17 37 d 17 38 d 16 38 d 17 39 d 17 38 d 17 39 d 8 20 d 8 -20 d 17 -39 d 17 -38 d 17 -39 d 17 -38 d 16 -38 d 17 -37 d 17 -37 d 17 -36 d 16 -35 d
 17 -35 d 17 -33 d 17 -33 d 17 -31 d 16 -31 d 17 -29 d 17 -29 d 17 -27 d 17 -26 d 16 -25 d 17 -23 d 17 -23 d 17 -21 d 16 -20 d 17 -19 d 17 -18 d 17 -17 d 17 -16 d 16 -14 d 17 -14 d 17 -13 d 17 -11 d 16 -11 d 17 -10 d 17 -9 d 17 -9 d 17 -7 d 16 -8 d
 17 -6 d 17 -6 d 17 -5 d 16 -5 d 17 -4 d 17 -4 d 17 -3 d 17 -4 d 16 -2 d 17 -3 d 17 -2 d 17 -2 d 17 -2 d 16 -1 d 17 -2 d 17 -1 d 17 -1 d 16 -1 d 17 X 17 -1 d 17 -1 d 25 X -3 Y s black 3 lw 363 1255 m 1678 X s 531 1219 m 36 Y s 698 1237 m 18 Y s 866
 1219 m 36 Y s 1034 1237 m 18 Y s 1202 1219 m 36 Y s 1370 1237 m 18 Y s 1538 1219 m 36 Y s 1705 1237 m 18 Y s 1873 1219 m 36 Y s 531 1219 m 36 Y s 363 1237 m 18 Y s 1873 1219 m 36 Y s 2041 1237 m 18 Y s 2041 277 m 1271 Y s 1988 277 m 53 X s 2014 326
 m 27 X s 2014 375 m 27 X s 2014 424 m 27 X s 1988 473 m 53 X s 2014 521 m 27 X s 2014 570 m 27 X s 2014 619 m 27 X s 1988 668 m 53 X s 2014 717 m 27 X s 2014 766 m 27 X s 2014 815 m 27 X s 1988 864 m 53 X s 2014 913 m 27 X s 2014 961 m 27 X s 2014
 1010 m 27 X s 1988 1059 m 53 X s 2014 1108 m 27 X s 2014 1157 m 27 X s 2014 1206 m 27 X s 1988 1255 m 53 X s 2014 1304 m 27 X s 2014 1353 m 27 X s 2014 1401 m 27 X s 1988 1450 m 53 X s 1988 1450 m 53 X s 2014 1499 m 27 X s 1 1 1 c black 363 277 m
 1678 X s 531 313 m -36 Y s 698 295 m -18 Y s 866 313 m -36 Y s 1034 295 m -18 Y s 1202 313 m -36 Y s 1370 295 m -18 Y s 1538 313 m -36 Y s 1705 295 m -18 Y s 1873 313 m -36 Y s 531 313 m -36 Y s 363 295 m -18 Y s 1873 313 m -36 Y s 2041 295 m -18 Y
 s 363 277 m 1271 Y s 416 277 m -53 X s 389 326 m -26 X s 389 375 m -26 X s 389 424 m -26 X s 416 473 m -53 X s 389 521 m -26 X s 389 570 m -26 X s 389 619 m -26 X s 416 668 m -53 X s 389 717 m -26 X s 389 766 m -26 X s 389 815 m -26 X s 416 864 m
 -53 X s 389 913 m -26 X s 389 961 m -26 X s 389 1010 m -26 X s 416 1059 m -53 X s 389 1108 m -26 X s 389 1157 m -26 X s 389 1206 m -26 X s 416 1255 m -53 X s 389 1304 m -26 X s 389 1353 m -26 X s 389 1401 m -26 X s 416 1450 m -53 X s 416 1450 m -53
 X s 389 1499 m -26 X s
 gsave  2268 1630 0 0 C 603.965 1390.26 t 0 r /Times-Roman findfont 56.9778 sf 0 0 m (Gaus 1 \(Prob\)) show NC gr  0.6 0.6 0.8 c 457 1311 m 123 X 187 Y -123 X f 6 lw 457 1405 m 123 X s black
 gsave  2268 1630 0 0 C 569.778 598.267 t 0 r /Times-Roman findfont 94.0134 sf 0 0 m (68.3%) show NC gr [ 4 8] 0 sd 3 lw 363 587 m 1678 X s
 gsave  2268 1630 0 0 C 569.778 333.32 t 0 r /Times-Roman findfont 94.0134 sf 0 0 m (95.5%) show NC gr  363 322 m 1678 X s
 gsave  2268 1630 0 0 C 1227.87 1037 t 0 r /Times-Roman findfont 119.653 sf 0 0 m (GammaCombo) show NC gr 
 gr  gr showpage
end
%%EOF
